﻿[466]="双持匕首群攻技"
[46a]="双持匕首群体飞刀"
[474]="双持匕首陷阱爆破"
[524]="龙鳞刺"
[525]="龙鳞刺"
[582]="持剑攻击（高手）-skill"
[645]="赵允弼普攻入口"
[646]="赵允弼普攻1"
[647]="赵允弼普攻2"
[648]="赵允弼普攻3"
[649]="赵允弼普攻4"
[64b]="强化赵允弼普攻入口"
[64c]="强化赵允弼普攻1"
[64d]="强化赵允弼普攻2"
[64e]="强化赵允弼普攻3"
[64f]="强化赵允弼普攻4"
[651]="猛虎撞入口"
[652]="猛虎撞1"
[653]="猛虎撞2"
[654]="强化猛虎撞入口"
[655]="强化猛虎撞1"
[656]="强化猛虎撞2"
[657]="霸意刀诀入口"
[658]="霸意刀诀1"
[659]="霸意刀诀2"
[65a]="霸意刀诀3"
[65b]="霸意刀诀4"
[65c]="霸意刀诀5"
[65d]="强化霸意刀诀入口"
[65e]="强化霸意刀诀1"
[65f]="强化霸意刀诀2"
[660]="强化霸意刀诀3"
[661]="强化霸意刀诀4"
[662]="强化霸意刀诀5"
[663]="裂阳刀法"
[664]="强化裂阳刀法"
[665]="蟠龙立柱"
[666]="强化蟠龙立柱"
[667]="狂暴"
[668]="入场动作"
[669]="进入二阶段"
[66a]="猛虎撞3"
[66b]="强化猛虎撞3"
[66c]="后撤-裂阳刀法"
[66d]="后撤-裂阳刀法"
[66e]="强化蟠龙立柱"
[66f]="强化蟠龙立柱"
[670]="强化蟠龙立柱"
[672]="东旭阁高手普攻入口"
[673]="东旭阁高手普攻1"
[674]="东旭阁高手普攻2"
[675]="东旭阁高手普攻3"
[676]="东旭阁高手普攻4"
[677]="燕回朝阳"
[678]="苍龙出水"
[679]="飞燕逐月"
[67a]="燕回朝阳"
[67b]="无痕剑意"
[67e]="破穴指诀"
[67f]="天峰五云剑"
[6a5]="微风拂柳"
[6a6]="燕回朝阳"
[709]="苍龙出水"
[816]="持剑技能-空中连击"
[81b]="持剑技能-地面连击"
[820]="持剑技能-挑飞连击"
[825]="持剑技能-地面连击"
[82a]="苍龙出水"
[898]="J体型双钩-旋转冲锋"
[8a2]="J体型双钩-扫钩"
[8ac]="J体型双钩-跳钩斩"
[8b6]="J体型双钩-冲锋"
[8c0]="J体型双钩-倒挂金钩"
[8ca]="J体型双钩-侧踢"
[8d4]="J体型双刀-接近"
[8de]="J体型双刀-挑飞"
[8e8]="J体型双刀-横斩"
[8f2]="B体型双刀-冲锋"
[8fc]="B体型双刀-风火轮"
[906]="B体型双刀-下劈斩"
[910]="D体型双钩-冲锋"
[91a]="D体型双钩-螺旋钩"
[924]="D体型双钩-十字钩"
[92e]="B体型-齐落云-单剑-冲锋"
[938]="B体型-齐落云-单剑-升龙剑"
[942]="B体型-齐落云-单剑-回峰剑"
[94c]="B体型-双刺-冲锋-入口"
[956]="B体型-双刺-升龙刺-入口"
[960]="B体型-双刺-追风腿-入口"
[9f8]="天煞枪"
[9ff]="裂阳枪法"
[a04]="天龙扑日"
[a19]="登场"
[b6e]="无情子剑(FHX_A08)-三连击"
[bb8]="无情子剑-普攻"
[bb9]="无情子剑-冲锋-入口"
[bba]="无情子剑-冲锋1"
[bbb]="无情子剑-挑飞"
[bbc]="无情子剑-拳击"
[bbd]="无情子剑-倒竹蜻蜓"
[bc2]="黑衣刀客-普攻"
[bc3]="天波府小兵-普攻"
[bc4]="灰衣刀客-普攻"
[bc5]="灰衣刀客-冲锋-入口"
[bc6]="灰衣刀客-冲锋1"
[bc7]="灰衣刀客-挑飞"
[bc8]="灰衣刀客-跳劈"
[bcc]="镇远镖局镖师B双刀-普攻"
[bcd]="冷龙寨双锤-普攻"
[bce]="冷龙寨双锤-冲锋-入口"
[bcf]="冷龙寨双锤-冲锋1"
[bd0]="冷龙寨双锤-挑飞"
[bd1]="冷龙寨双锤-跳劈"
[bd6]="青龙会高级帮众双拐-普攻"
[bd7]="青龙会高级帮众双拐-冲锋-入口"
[bd8]="青龙会高级帮众双拐-冲锋1"
[bd9]="青龙会高级帮众双拐-挑飞"
[bda]="青龙会高级帮众双拐-跳劈"
[be0]="神武门朔-普攻"
[be1]="神武门朔-冲锋-入口"
[be2]="神武门朔-冲锋1"
[be3]="神武门朔-挑飞"
[be4]="神武门朔-跳劈"
[be7]="西域军队双斧-普攻"
[be8]="西北草莽双剑-普攻"
[be9]="新月山庄拳套-普攻"
[bea]="血衣楼双刺-普攻"
[beb]="中原草莽大斧-普攻"
[bec]="孔雀暗器-普攻"
[bed]="孔雀暗器-头顶爆射"
[bee]="孔雀暗器-击飞"
[bef]="孔雀暗器-击飞"
[bf0]="孔雀暗器-三连射"
[bf1]="孔雀暗器-击飞"
[bf2]="孔雀暗器-孔雀翎"
[bf3]="孔雀暗器-孔雀翎表演"
[bf4]="孔雀暗器-孔雀翎"
[c03]="龙家邬打手-普攻"
[c04]="龙家邬打手-冲锋-入口"
[c05]="龙家邬打手-冲锋1"
[c06]="龙家邬打手-踢飞"
[c07]="龙家邬打手-击倒"
[c08]="无字黑衣弟子-普攻"
[c09]="强龙岛刀手-普攻"
[c0a]="镇远镖局镖师-普攻"
[c0b]="倪庄恶霸-普攻"
[c0c]="神武门人字剑客-普攻"
[c0d]="神武门人字剑客-冲锋-入口"
[c0e]="神武门人字剑客-冲锋1"
[c0f]="神武门人字剑客-重砍"
[c10]="镇远镖局高级镖师-普攻"
[c11]="镇远镖局高级镖师-冲锋-入口"
[c12]="镇远镖局高级镖师-冲锋1"
[c13]="镇远镖局高级镖师-挑飞"
[c14]="镇远镖局高级镖师-重刀"
[c15]="郭兴剑-普攻"
[c16]="郭兴剑-冲锋-入口"
[c17]="郭兴剑-冲锋1"
[c18]="郭兴剑-挑飞"
[c19]="郭兴剑-重刀"
[c1a]="郭兴剑-四连击-入口"
[c1b]="郭兴剑-四连击-1"
[c1c]="郭兴剑-四连击-2"
[c1d]="郭兴剑-四连击-3"
[c1e]="郭兴剑-四连击-4"
[c1f]="郭兴剑-三连击-入口"
[c20]="郭兴剑-三连击-1"
[c21]="郭兴剑-三连击-2"
[c22]="郭兴剑-三连击-3"
[c27]="冷龙寨双短刀-普攻"
[c28]="冷龙寨双短刀-冲锋-入口"
[c29]="冷龙寨双短刀-冲锋1"
[c2a]="冷龙寨双短刀-挑飞"
[c2b]="冷龙寨双短刀-重刀"
[c30]="丁无影双刺-普攻"
[c31]="丁无影双刺-冲锋-入口"
[c32]="丁无影双刺-冲锋1"
[c33]="丁无影双刺-挑飞"
[c34]="丁无影拳套-重刀"
[c36]="丁无影双刺-四连击-入口"
[c37]="丁无影双刺-四连击-1"
[c38]="丁无影双刺-四连击-2"
[c39]="丁无影双刺-四连击-3"
[c3a]="丁无影双刺-三连击-入口"
[c3b]="丁无影双刺-三连击-1"
[c3c]="丁无影双刺-三连击-2"
[c3d]="丁无影双刺-三连击-3"
[c3f]="丁无影拳套-重刀"
[c40]="丁无影拳套-重刀"
[c44]="多情子飞镖-普攻"
[c45]="多情子飞镖-扇形飞镖群"
[c46]="多情子飞镖-直线多飞镖"
[c47]="多情子飞镖-近身反击"
[c49]="多情子飞镖-连击技"
[c4c]="多情子飞镖-直线多飞镖"
[c4d]="孔雀暗器-孔雀翎"
[c4e]="老道士剑-普攻"
[c4f]="老道士剑-冲锋-入口"
[c50]="老道士剑-冲锋1"
[c51]="老道士剑-挑飞"
[c52]="老道士剑-跳劈"
[c54]="老道士剑-四连击-入口"
[c55]="老道士剑-四连击-1"
[c56]="老道士剑-四连击-2"
[c57]="老道士剑-四连击-3"
[c62]="新月山庄帮众剑-普攻"
[c63]="新月山庄帮众剑-冲锋-入口"
[c64]="新月山庄帮众剑-冲锋1"
[c65]="新月山庄帮众剑-挑飞"
[c66]="新月山庄帮众剑-跳劈"
[c6c]="星雨飞花"
[c74]="暴雨梨花"
[c76]="暴雨梨花"
[c7b]="蓄力大飞盘"
[c80]="唐门飞镖-普攻"
[c85]="乳燕归巢"
[c8a]="女单手锤-普攻"
[c8b]="女单手锤-冲锋-入口"
[c8c]="女单手锤-冲锋1"
[c8d]="女单手锤-A03"
[c8e]="女单手锤-A04"
[c94]="女双锤-普攻"
[c95]="女双锤-冲锋-入口"
[c96]="女双锤-冲锋1"
[c97]="女双锤-挑飞"
[c98]="女双锤-跳劈"
[c9e]="女双剑-普攻"
[c9f]="女双剑-冲锋-入口"
[ca0]="女双剑-冲锋1"
[ca1]="女双剑-挑飞"
[ca2]="女双剑-跳劈"
[ca8]="女双刺-普攻"
[ca9]="女双刺-冲锋-入口"
[caa]="女双刺-冲锋1"
[cab]="女双刺-挑飞"
[cac]="女双刺-跳劈"
[cb2]="B双节棍-普攻"
[cbc]="P(D)女棍-普攻"
[cbd]="P(D)女棍-冲锋-入口"
[cbe]="P(D)女棍-冲锋1"
[cc2]="P(D)女棍-连续技4"
[cc8]="P(D)女棍-连续技1"
[ccc]="P(D)女棍-连续技3"
[cd1]="P(D)女棍-连续技2"
[cd5]="P(D)女双刺-普攻"
[cd6]="P(D)女双刺-冲锋-入口"
[cd7]="P(D)女双刺-冲锋1"
[cda]="P(D)女双刺-连续技4"
[ce0]="P(D)女双刺-连续技1"
[ce4]="P(D)女双刺-连续技3"
[ce9]="P(D)女双刺-连续技2"
[cee]="P(D)女剑-普攻"
[cef]="P(D)女剑-冲锋-入口"
[cf0]="P(D)女剑-冲锋1"
[cf3]="P(D)女剑-连续技4"
[cf9]="P(D)女剑-连续技1"
[cfd]="P(D)女剑-连续技3"
[d02]="P(D)女剑-连续技2"
[d0c]="P(D)女双刺（拳）-普攻"
[d0d]="P(D)女双刺（拳）-冲锋-入口"
[d0e]="P(D)女双刺（拳）-冲锋1"
[d11]="P(D)女双刺（拳）-连续技4"
[d17]="P(D)女双刺（拳）-连续技1"
[d1b]="P(D)女双刺（拳）-连续技3"
[d20]="P(D)女双刺（拳）-连续技2"
[d25]="P(D)女双刺-XN群攻2"
[d2a]="丁无影拳套-普攻"
[d2b]="丁无影拳套-冲锋-入口"
[d2c]="丁无影拳套-冲锋1"
[d2d]="丁无影拳套-挑飞"
[d2e]="丁无影拳套-重刀"
[d30]="丁无影拳套-四连击-入口"
[d31]="丁无影拳套-四连击-1"
[d32]="丁无影拳套-四连击-2"
[d33]="丁无影拳套-四连击-3"
[d34]="丁无影拳套-三连击-入口"
[d35]="丁无影拳套-三连击-1"
[d36]="丁无影拳套-三连击-2"
[d37]="丁无影拳套-三连击-3"
[d39]="丁无影拳套-重刀"
[d3a]="丁无影拳套-重刀"
[d3f]="B男双钩-普攻"
[d41]="B男双钩-冲锋-入口"
[d42]="B男双钩-冲锋受击"
[d43]="P(D)女双刺-XN群攻2"
[d48]="B男双钩-暴怒技-入口"
[d49]="B男双钩-暴怒技-1"
[d4a]="B男双钩-暴怒技-2"
[d4b]="B男双钩-暴怒技-3"
[d4c]="B男双钩-暴怒技-4"
[d4f]="B男双钩-二连击-入口"
[d50]="B男双钩-二连击-1"
[d51]="B男双钩-二连击-2"
[d52]="B男双钩-多段蓄力技-入口"
[d53]="B男双钩-多段蓄力技-1"
[d54]="B男双钩-多段蓄力技-2"
[d55]="B男双钩-多段蓄力技-2受击1"
[d56]="B男双钩-多段蓄力技-2受击2"
[d57]="B男双钩-多段蓄力技-3"
[d5c]="B男双钩-蓄力多段技-入口"
[d5d]="B男双钩-蓄力多段技-1"
[d5e]="B男双钩-蓄力多段技-2"
[d5f]="B男双钩-蓄力多段技-3"
[d61]="B男双钩-蓄力技"
[d62]="B男双钩-远程"
[d66]="B(R)棍-普攻"
[d67]="B(R)棍-冲锋-入口"
[d68]="B(R)棍-冲锋1"
[d6b]="B(R)棍-连续技4"
[d71]="B(R)棍-连续技1"
[d75]="B(R)棍-连续技3"
[d7a]="B(R)棍-连续技2"
[d7f]="B(R)棍-连续技5"
[d8e]="B(R)双剑-普攻"
[d8f]="B(R)双剑-冲锋-入口"
[d90]="B(R)双剑-冲锋1"
[d93]="B(R)双剑-连续技4"
[d99]="B(R)双剑-连续技1"
[d9d]="B(R)双剑-连续技3"
[da2]="B(R)双剑-连续技2"
[da7]="B(R)双剑-连续技5"
[dac]="B(R)双笔-普攻"
[dad]="B(R)双笔-冲锋-入口"
[dae]="B(R)双笔-冲锋1"
[db1]="B(R)双笔-连续技4"
[db7]="B(R)双笔-连续技1"
[dbb]="B(R)双笔-连续技3"
[dc0]="B(R)双笔-连续技2"
[dc5]="B(R)双笔-连续技5"
[dd4]="R2a_Dao刀-普攻"
[dd5]="R2a_Dao刀-冲锋-入口"
[dd6]="R2a_Dao刀-冲锋1"
[dd9]="R2a_Dao刀-连续技4"
[ddf]="R2a_Dao刀-连续技2"
[de3]="R2a_Dao刀-连续技2"
[de8]="R2a_Dao刀-连续技2"
[ded]="R刀-连续技5"
[df2]="R刀-连续技6"
[dfc]="女弩手-普攻"
[dfd]="女弩手-冲锋"
[dfe]="女弩手-冲锋1"
[dff]="女弩手-冲锋2"
[e00]="女弩手-反击"
[e02]="女弩手-蓄力1"
[e03]="女弩手-蓄力2"
[e06]="女弩手-连续技4"
[e0d]="女弩手-远程连击"
[e10]="女弩手-接近二连击"
[e1a]="P女飞镖-普攻"
[e1b]="P女飞镖-蓄力群"
[e24]="R枪盾-普攻"
[e25]="R枪盾-冲锋"
[e26]="R枪盾-冲锋1"
[e27]="R枪盾-冲锋2"
[e29]="R枪盾-蓄力斩"
[e2b]="R枪盾-蓄力斩"
[e2d]="R枪盾-蓄力斩"
[e42]="伞普攻"
[e43]="伞三连击-入口"
[e6a]="雨落云飞"
[e6f]="天峰五云剑"
[e79]="无痕剑意"
[e7e]="破穴指诀"
[e80]="破穴指诀"
[e83]="东旭阁高手普攻入口"
[e84]="东旭阁高手普攻1"
[e85]="东旭阁高手普攻2"
[e86]="东旭阁高手普攻3"
[e88]="苍龙出水"
[e92]="落魄音"
[e93]="山宏音"
[e94]="破躯音"
[e99]="天河镇魂曲"
[e9c]="琴魔天啸曲"
[ea6]="五音焚心曲"
[eb0]="R双匕首-连续技4"
[eb5]="R双匕首-连续技5"
[eb9]="R双匕首-挑飞"
[eba]="五毒门派怪普攻"
[ebc]="五毒门派怪-远程"
[ebe]="五毒门派怪-脱离反击"
[ebf]="五毒门派怪-连续技2"
[ec0]="五毒门派怪-连续技2-1"
[ec1]="五毒门派怪-连续技2-2"
[ec4]="五毒门派怪-连续技2"
[ec5]="五毒门派怪-连续技2-1"
[ec6]="五毒门派怪-连续技2-2"
[fa0]="百众神奴双刺普攻"
[fa1]="罗啸虎单刀普攻"
[fa2]="罗啸虎单刀-冲锋"
[fa3]="罗啸虎单刀-冲锋"
[fa4]="罗啸虎单刀-挑飞"
[fa6]="罗啸虎单刀-横斩"
[fa9]="罗啸虎 单刀-三连击"
[fad]="罗啸虎 单刀-强交互"
[fb4]="楚天璇 剑 普攻"
[fb5]="楚天璇 剑-冲锋-入口"
[fb7]="楚天璇 剑-挑飞"
[fb9]="楚天璇 剑-横斩"
[fc8]="青龙会高级帮众双刺 普攻"
[fc9]="青龙会高级帮众双刺-冲锋"
[fca]="青龙会高级帮众双刺-挑飞"
[fcb]="青龙会高级帮众双刺-飞踹"
[fd2]="镇远镖局镖师双刀-普攻"
[fd3]="无字黑衣低级弟子拳套-普攻"
[fd4]="龙家邬喽啰双斧-普攻"
[fd5]="江湖浪客J刀 普攻"
[fd6]="江湖浪客J刀-冲锋"
[fd8]="江湖浪客J刀-踢飞"
[fd9]="江湖浪客J刀-撞击"
[fdb]="人字黑衣拳师刺-击退"
[fdc]="青龙会高级帮众拳-普攻"
[fdd]="青龙会高级帮众拳-冲锋-入口"
[fde]="青龙会高级帮众拳-冲锋1"
[fdf]="青龙会高级帮众拳-踢飞"
[fe0]="青龙会高级帮众拳-铲腿"
[fe2]="西域宗教拳-普攻"
[fe3]="倪家守卫单刀-普攻"
[fe4]="灰衣刀客单刀-普攻"
[fe5]="灰衣刀客单刀-冲锋-入口"
[fe6]="灰衣刀客单刀-冲锋1"
[fe7]="灰衣刀客单刀-砍飞"
[fe8]="灰衣刀客单刀-砍倒"
[fe9]="人字黑衣拳师刺-普攻"
[fea]="人字黑衣拳师刺-冲锋-入口"
[feb]="人字黑衣拳师刺-击飞"
[fec]="人字黑衣拳师刺-击退"
[fed]="龙家邬打手-普攻"
[fee]="龙家邬打手-冲锋-入口"
[fef]="龙家邬打手-击飞"
[ff0]="龙家邬打手-击倒"
[ff1]="青龙会女单锤-普攻"
[ff2]="青龙会女单锤-冲锋-入口"
[ff3]="青龙会女单锤-冲锋1"
[ff4]="青龙会女单锤-锤飞"
[ff5]="青龙会女单锤-两连锤"
[ff6]="强龙岛刀手-普攻"
[ff7]="神武门人字剑客-普攻"
[ff8]="新月山庄单刀-普攻"
[ff9]="新月山庄单刀-旋风斩"
[ffb]="新月山庄单刀-挑飞"
[ffd]="君子门匕首-普攻"
[ffe]="君子门匕首-冲锋"
[fff]="君子门匕首-冲锋1"
[1000]="君子门匕首-挑飞"
[1001]="君子门匕首-重劈"
[1002]="孔雀山庄剑-普攻"
[1003]="神武门人字黑衣剑客-普攻"
[1004]="倪慧剑-普攻"
[1005]="倪慧剑-冲锋-入口"
[1006]="倪慧剑-冲锋1"
[1007]="倪慧剑-挑飞"
[1008]="倪慧剑-重劈"
[100a]="倪慧剑-三连击-入口"
[100b]="倪慧剑-三连击-1"
[100c]="倪慧剑-三连击-2"
[100d]="倪慧剑-三连击-3"
[1018]="L_Single_3剑-普攻"
[1019]="L_Single_3剑-冲锋-入口"
[101a]="L_Single_3剑-冲锋1"
[101b]="L_Single_3剑-挑飞"
[101c]="L_Single_3剑-重劈"
[101d]="蓝蝎子刀-普攻"
[101e]="蓝蝎子刀-旋斩"
[101f]="蓝蝎子刀-挑飞"
[1020]="蓝蝎子刀-蹬地"
[1022]="蓝蝎子刀-四连击-入口"
[1023]="蓝蝎子刀-四连击-1"
[1024]="蓝蝎子刀-四连击-2"
[1025]="蓝蝎子刀-四连击-3"
[1026]="蓝蝎子刀-四连击-4"
[1027]="倪方双钩-普攻"
[1028]="倪方双钩-冲锋-入口"
[1029]="倪方双钩-冲锋1"
[102a]="倪方双钩-挑飞"
[102b]="倪方双钩-重劈"
[102d]="倪方双钩-四连击-入口"
[102e]="倪方双钩-四连击-1"
[102f]="倪方双钩-四连击-2"
[1030]="倪方双钩-四连击-3"
[1031]="倪方双钩-四连击-4"
[1036]="严泽单刀-普攻"
[1037]="严泽单刀-跳劈"
[1038]="严泽单刀-跳劈"
[1039]="严泽单刀-挑飞"
[103a]="严泽单刀-重劈"
[103b]="严泽单刀-强交互接近"
[103c]="严泽单刀-四连击-入口"
[103d]="严泽单刀-四连击-1"
[103e]="严泽单刀-四连击-2"
[103f]="严泽单刀-四连击-3"
[1040]="严泽单刀-四连击-4"
[1044]="严泽单刀-跳劈"
[104a]="孙毅左手单刀-普攻"
[104b]="孙毅左手单刀-前闪砍"
[104c]="孙毅左手单刀-跳劈"
[104d]="孙毅左手单刀-重劈"
[104e]="孙毅左手单刀-强交互接近"
[104f]="孙毅左手单刀-强交互-入口"
[1050]="孙毅左手单刀-强交互-1"
[1051]="孙毅左手单刀-强交互-2"
[1052]="孙毅左手单刀-强交互-3"
[105e]="张文拓单锤-普攻"
[105f]="张文拓单锤-冲锋-入口"
[1060]="张文拓单锤-冲锋1"
[1061]="张文拓单锤-挑飞"
[1062]="张文拓单锤-重劈"
[1064]="张文拓单锤-强交互"
[1065]="张文拓单锤-强交互-1"
[1066]="张文拓单锤-强交互-2"
[1067]="张文拓单锤-强交互-3"
[1068]="张文拓单锤-强交互-4"
[106a]="张文拓单锤-连续技1"
[106b]="张文拓单锤-连续技1-1"
[106c]="张文拓单锤-连续技1-2"
[106e]="张文拓单锤-连续技2"
[106f]="张文拓单锤-连续技2-1"
[1070]="张文拓单锤-连续技2-2"
[1072]="张文拓单锤-连续技3"
[1073]="张文拓单锤-连续技3-1"
[1074]="张文拓单锤-连续技3-2"
[1075]="张文拓单锤-连续技3-3"
[1079]="BOSS_L_5子母刀-普攻"
[107a]="BOSS_L_5子母刀-冲锋-入口"
[107b]="BOSS_L_5子母刀-冲锋1"
[107c]="BOSS_L_5子母刀-无影腿入口"
[107d]="BOSS_L_5子母刀-无影腿入口"
[107e]="BOSS_L_5子母刀-无影腿入口"
[1080]="BOSS_L_5子母刀-连续技4"
[1086]="BOSS_L_5子母刀-连续技1"
[108a]="BOSS_L_5子母刀-连续技3"
[108f]="BOSS_L_5子母刀-连续技2"
[1095]="BOSS_J_6长刀-普攻"
[1096]="BOSS_J_6长刀-冲锋-入口"
[1097]="BOSS_J_6长刀-冲锋1"
[109b]="BOSS_J_6长刀-连续技4"
[10a2]="BOSS_J_6长刀-连续技1"
[10a6]="BOSS_J_6长刀-连续技3"
[10ab]="BOSS_J_6长刀-连续技2"
[10b3]="BOSS_J_7双锤-普攻"
[10b4]="BOSS_J_7双锤-冲锋-入口"
[10b5]="BOSS_J_7双锤-冲锋1"
[10b6]="BOSS_J_7双锤-挑飞"
[10b9]="BOSS_J_7双锤-连续技4"
[10bf]="BOSS_J_7双锤-连续技1"
[10c3]="BOSS_J_7双锤-连续技3"
[10c8]="BOSS_J_7双锤-连续技2"
[10cc]="BOSS_J_7双刀-普攻"
[10cd]="BOSS_J_7双刀-冲锋-入口"
[10ce]="BOSS_J_7双刀-冲锋1"
[10cf]="BOSS_J_7双刀-重劈"
[10d1]="BOSS_J_7双刀-连续技4"
[10d8]="BOSS_J_7双刀-连续技1"
[10dc]="BOSS_J_7双刀-连续技3"
[10e1]="BOSS_J_7双刀-连续技2"
[10ea]="J刀盾-普攻"
[10eb]="J刀盾-冲锋-入口"
[10ec]="J刀盾-冲锋1"
[10ed]="J刀盾-冲锋2"
[10ee]="J刀盾-蓄力斩"
[10ef]="J刀盾-连续技3"
[10f3]="J刀盾-格挡反击技"
[10f4]="J刀盾-格挡反击技"
[10f8]="J刀盾-挑衅"
[10f9]="J刀盾-冲锋-入口"
[10fa]="J刀盾-冲锋3"
[10fb]="J刀盾-格挡反击技"
[10fe]="Boss_L鞭-普攻"
[10ff]="Boss_L鞭-冲锋-入口"
[1103]="Boss_L鞭-连续技4"
[1109]="Boss_L鞭-连续技2"
[110d]="Boss_L鞭-连续技2"
[1112]="Boss_L鞭-连续技2"
[1117]="Boss_L鞭-连续技9"
[13b9]="苗天王（C体型）普攻"
[13ba]="苗天王（C体型）飞镖三连击"
[13bb]="苗天王（C体型)-群体飞镖入口"
[13bf]="苗天王（C体型)闪现"
[13c4]="苗天王（C体型）定向冲锋1"
[13c5]="苗天王（C体型）定向冲锋1"
[13c6]="苗天王（C体型）定向冲锋2"
[13c7]="苗天王（C体型）定向冲锋3"
[13c9]="苗天王（C体型）太刀斩"
[13d8]="冶儿（P体型)-飞剑普攻"
[13d9]="冶儿（P体型）群体飞剑"
[13dd]="冶儿（P体型）裂爆"
[13e2]="冶儿（P体型）裂囚"
[13e7]="冶儿（P体型）裂扫"
[13ec]="冶儿（P体型）裂拉爆"
[13f1]="冶儿（P体型）裂+孔雀翎"
[1409]="傀儡-飞镖"
[140a]="傀儡-飞镖"
[140b]="苗天王（C体型)-群体飞镖入口"
[1410]="傀儡-飞镖连击"
[1414]="傀儡-连击1"
[1419]="傀儡-连击2"
[141e]="傀儡-飞镖连击"
[1421]="暴雨梨花"
[1423]="暴雨梨花"
[1425]="傀儡-飞镖连击"
[1429]="转圈圈－天降"
[142a]="转圈圈－出现"
[142b]="转圈圈－消失"
[142d]="傀儡-囚"
[142e]="傀儡-接近"
[142f]="傀儡-扫"
[1434]="傀儡-囚"
[1437]="傀儡-特殊动作"
[1450]="I双刺-普攻"
[1451]="I双刺-冲锋-入口"
[1452]="I双刺-冲锋1"
[1453]="I双刺-冲锋1"
[1454]="I双刺-挑飞"
[1455]="I双刺-跳劈"
[145a]="I双刺-连续技1"
[145f]="I双刺-连续技3"
[1464]="I双刺-连续技2"
[1469]="I双刺-连续技4"
[1481]="真武普攻"
[1482]="真武冲锋"
[1483]="真武群攻1段"
[1484]="真武群攻2段"
[148a]="常规剑气"
[148c]="蓄力剑墙"
[1496]="双剑切换"
[1497]="常规剑气"
[149b]="五连击"
[14b4]="出海boss召唤怪自爆"
[14be]="老虎-普攻"
[14c9]="陷阱攻击1"
[14ca]="暗伤"
[14cb]="暗伤"
[1771]="孟怀楚普攻入口"
[1772]="孟怀楚普攻1"
[1773]="孟怀楚普攻2"
[1774]="孟怀楚普攻3"
[1775]="孟怀楚普攻4"
[1776]="孟怀楚五连击"
[177c]="回风落雁"
[177d]="风雷一剑"
[177e]="回风落雁"
[1783]="飞燕逐月"
[1784]="飞燕逐月"
[1785]="飞燕逐月"
[1789]="苗疆刀法"
[178f]="群体刺杀"
[1799]="云台三落"
[179d]="风雷一剑"
[179f]="雨落云飞"
[17a2]="云台三落"
[17a6]="回风落雁"
[17ac]="XP技能"
[17ba]="风雷一剑"
[17cc]="风雷一剑"
[17cd]="钟不忘掏心"
[17d1]="HG型怪翻滚靠近"
[17d2]="HG型怪翻滚靠近"
[17d3]="通用NPC血量反馈技能"
[1838]="后滚脱离技"
[1839]="后滚脱离技"
[183a]="后滚脱离技"
[193a]="NPC消失"
[1f4a]="李真基-普攻"
[1f4b]="苍龙出水"
[1f4c]="持剑技能-空中连击"
[1f50]="破穴指诀"
[1f54]="李真基-强交互"
[1f60]="无痕剑意"
[1f64]="飞燕逐月"
[1f65]="飞燕逐月"
[1f66]="飞燕逐月"
[1f68]="天峰五云剑"
[1f70]="燕回朝阳"
[1f72]="曲无亿-普攻"
[1f73]="曲无亿-冲锋-入口"
[1f74]="曲无亿-冲锋1"
[1f75]="曲无亿-冲锋1"
[1f76]="曲无亿-小扇形范围"
[1f77]="曲无亿-圆形范围击退"
[1f78]="曲无亿-直线范围击飞"
[1f7c]="曲无亿-连续技1"
[1f81]="曲无亿-连续技3"
[1f86]="曲无亿-连续技2"
[1f8b]="曲无亿-连续技4"
[1f91]="曲无亿-十环连诛伤害"
[1f94]="海市蜃楼"
[1fa4]="唐青风-普攻"
[1fa5]="唐青风大飞盘"
[1fa6]="唐青风-飞镖群"
[1fa9]="唐青风-瞬步接近"
[1faa]="唐青风三连击－入口"
[1fab]="三连击－1"
[1fac]="三连击－2"
[1fad]="三连击－3"
[1faf]="唐青风转圈圈－跳起"
[1fb0]="转圈圈－引导伤害"
[1fb1]="转圈圈－后跳"
[1fb3]="唐青风-三连击-入口"
[1fb4]="唐青风-三连击-1"
[1fb5]="唐青风-三连击-2"
[1fb6]="唐青风-三连击-3"
[1fb9]="唐青风-替脱离"
[1fba]="唐青风-替出现"
[1fbd]="唐青风-连击技"
[1fcc]="傀儡-裂"
[1fcd]="傀儡-裂"
[1fce]="傀儡－天降爆"
[1fcf]="傀儡-囚"
[1fd0]="傀儡-接近"
[1fd1]="傀儡－消失"
[1fd2]="傀儡－出现"
[1fd3]="傀儡-爆"
[1fd6]="离玉堂-普攻"
[1fd7]="离玉堂-瞬闪斩"
[1fda]="离玉堂-刀鞘无痕"
[1fdd]="离玉堂-重劈"
[1fde]="离玉堂-远程定身斩"
[1fe2]="离玉堂-戳转转斩"
[1fea]="离玉堂-戳挑砸"
[1fef]="离玉堂-鬼斩连打"
[1ff4]="离玉堂-鬼斩连打"
[5dfe]="西夏士兵枪-普攻"
[5e2e]="抱妹杀"
[5e2f]="抱妹杀"
[61c2]="G体型锤-全屏范围锤击-入口"
[6270]="G体型锤-强交互1"
[627a]="G体型锤-强交互2"
[6284]="G体型锤-强交互3"
[628e]="G体型棍-强交互1"
[6298]="G体型刀-强交互1"
[62d4]="G体型刀-切腹斩"
[62de]="G体型刀-观音坐莲"
[65c2]="H体型枪技能3-跳劈"
[65c5]="H体型枪技能3-跳劈"
[6612]="H体型双斧技能3-劈地"
[6617]="H体型双斧技能3-劈地"
[661c]="H体型双斧技能4-跳斩"
[661d]="H体型双斧技能4-跳斩"
[6626]="H体型棍技能3-跳劈"
[6627]="H体型棍技能3-跳劈"
[6630]="H体型刀技能4-无敌斩"
[663a]="H体型刀技能5-三段斩"
[6658]="H体型棍-强交互1"
[6662]="H体型枪-强交互1"
[666c]="H体型双斧-强交互1"
[6676]="H体型刀-强交互1"
[6680]="H体型双斧-强交互2"
[668a]="H体型枪-强交互2"
[6695]="抱妹杀"
[6696]="抱妹杀"
[669e]="H体型刀-强交互1"
[66a8]="H体型刀-跳砍"
[66b2]="H体型刀-飞鹤落地腿"
[66cc]="地字尊者玄剑-强交互"
[66d2]="地字尊者玄剑-连续技1"
[66d6]="地字尊者玄剑-连续技2"
[66da]="地字尊者玄剑-普攻"
[66db]="地字尊者玄剑-冲锋-入口"
[66dc]="地字尊者玄剑-冲锋1"
[66dd]="地字尊者玄剑-挑飞"
[66de]="地字尊者玄剑-剑气"
[66e4]="君子门剑-普攻"
[66e5]="君子门剑-冲锋-入口"
[66e6]="君子门剑-冲锋1"
[66e7]="君子门剑-挑飞"
[66e8]="君子门剑-跳劈"
[66ee]="铸神谷大剑-普攻"
[66ef]="铸神谷大剑-冲锋-入口"
[66f0]="铸神谷大剑-冲锋1"
[66f1]="铸神谷大剑-挑飞"
[66f2]="铸神谷大剑-跳劈"
[66f8]="倪狄大斧-普攻"
[66f9]="倪狄大斧-冲锋-入口"
[66fa]="倪狄大斧-冲锋1"
[66fb]="倪狄大斧-挑飞"
[66fc]="倪狄大斧-跳劈"
[66fe]="倪狄大斧-强交互"
[6703]="倪狄大斧-连续技1"
[6708]="倪狄大斧-连续技2"
[670d]="辽国军队朔-普攻"
[670e]="龙家邬低级双斧-普攻"
[670f]="龙家邬打手拳-普攻"
[6710]="弃剑阁剑宗门短剑-普攻"
[6711]="弃剑阁剑宗门短剑-冲锋-入口"
[6712]="弃剑阁剑宗门短剑-冲锋1"
[6713]="弃剑阁剑宗门短剑-挑飞"
[6714]="弃剑阁剑宗门短剑-劈地"
[6715]="龙家邬精锐双钩-普攻"
[6716]="龙家邬精锐双钩-冲锋-入口"
[6717]="龙家邬精锐双钩-冲锋1"
[6718]="龙家邬精锐双钩-挑飞"
[6719]="龙家邬精锐双钩-劈地"
[671a]="神武门双锤-普攻"
[671b]="神武门双锤-冲锋-入口"
[671c]="神武门双锤-冲锋1"
[671d]="神武门双锤-挑飞"
[671e]="神武门双锤-劈地"
[6720]="无名剑客-普攻"
[6721]="无名剑客-冲锋-入口"
[6722]="无名剑客-冲锋1"
[6723]="无名剑客-挑飞"
[6724]="无名剑客-劈地"
[6726]="校尉总领-强交互"
[672a]="金入木拳-普攻"
[672b]="金入木拳-小连击"
[672c]="金入木拳-击飞"
[672d]="金入木拳-起手蓄力"
[672e]="金入木拳-中段蓄力"
[6730]="金入木拳-强交互"
[6734]="金入木拳-强连击"
[6739]="金入木拳-原地拳风"
[673e]="鬼斩上忍-普攻"
[673f]="鬼斩上忍-冲锋-入口"
[6740]="鬼斩上忍-冲锋1"
[6741]="鬼斩上忍-挑飞"
[6742]="鬼斩上忍-劈地"
[6744]="鬼斩上忍-强交互"
[6748]="金入木拳-原地拳风Lv2"
[674f]="金入木拳-原地拳风Lv2"
[6752]="赫连达飞-普攻"
[6753]="赫连达飞-前冲砸"
[6755]="赫连达飞-挑飞"
[6756]="赫连达飞-顶肚子"
[6758]="赫连达飞-强交互"
[6766]="尨丘白-普攻"
[6767]="尨丘白-冲锋-入口"
[6768]="尨丘白-冲锋1"
[6769]="尨丘白-挑飞"
[676a]="尨丘白-十字斩"
[676c]="尨丘白-强交互"
[6770]="尨丘白-连续技1"
[6775]="尨丘白-连续技2"
[677a]="吉田四郎-普攻"
[677b]="吉田四郎-冲锋-入口"
[677c]="吉田四郎-冲锋1"
[677d]="吉田四郎-挑飞"
[677e]="吉田四郎-连斩"
[6780]="吉田四郎-强交互"
[678e]="诸葛断长刀-普攻"
[678f]="诸葛断长刀-冲锋-入口"
[6790]="诸葛断长刀-冲锋1"
[6791]="诸葛断长刀-挑飞"
[6792]="诸葛断长刀-双斩"
[6793]="诸葛断长刀-连续技1"
[6798]="诸葛断长刀-连续技2"
[679e]="诸葛断长刀-强交互"
[67ac]="白蛟钩-普攻"
[67ad]="白蛟钩-冲锋-入口"
[67ae]="白蛟钩-冲锋1"
[67af]="白蛟钩-挑飞"
[67b0]="白蛟钩-扫下盘"
[67b1]="白蛟钩-连续技1"
[67d4]="苗天王（H体型）大范围刀光斩"
[67da]="苗天王（H体型）挑飞打击"
[67e8]="苗天王（H体型）三刀斩"
[67ed]="苗天王（H体型）接近强交互"
[67ee]="苗天王（H体型）狂暴强交互"
[67f4]="苗天王（H体型）定向冲锋1"
[67f7]="苗天王（H体型）冲锋打击"
[681a]="G长刀-普攻"
[681b]="G长刀-冲锋-入口"
[681c]="G长刀-冲锋1"
[681d]="G长刀-A03"
[681e]="G长刀-A03"
[681f]="G长刀-A03"
[6820]="G长刀-A04"
[6821]="G长刀-A04"
[6822]="G长刀-A04"
[6824]="H斩马刀-普攻"
[6825]="H斩马刀-冲锋-入口"
[6826]="H斩马刀-冲锋1"
[6827]="H斩马刀-冲锋2"
[6829]="H斩马刀-A03"
[682a]="H斩马刀-A04"
[682e]="Boss_G_3双手刀-普攻"
[682f]="Boss_G_3双手刀-冲锋-入口"
[6830]="Boss_G_3双手刀-冲锋1"
[6831]="Boss_G_3双手刀-挑飞"
[6832]="Boss_G_3双手刀-连续技1"
[6838]="Boss_G_3双手刀-连续技2"
[683c]="Boss_G_3双手刀-连续技2"
[6841]="Boss_G_3双手刀-连续技4"
[684c]="Boss_H_12刀-普攻"
[684d]="Boss_H_12刀-冲锋-入口"
[684e]="Boss_H_12刀-冲锋1"
[6851]="Boss_H_12刀-连续技4"
[6857]="Boss_H_12刀-连续技2"
[685b]="Boss_H_12刀-连续技2"
[6860]="Boss_H_12刀-连续技2"
[686a]="Boss_H_15三节棍-普攻"
[686b]="Boss_H_15三节棍-冲锋-入口"
[686c]="Boss_H_15三节棍-冲锋1"
[686f]="Boss_H_15三节棍-连续技1"
[6874]="Boss_H_15三节棍-连续技2"
[6879]="Boss_H_15三节棍-蓄力两段"
[687c]="Boss_H_15三节棍-远程气劲"
[6888]="Boss_H_14鞭-普攻"
[6889]="Boss_H_14鞭-冲锋-入口"
[688d]="Boss_H_14鞭-连续技4"
[6893]="Boss_H_14鞭-连续技2"
[6897]="Boss_H_14鞭-连续技2"
[689c]="Boss_H_14鞭-连续技2"
[68b0]="BOSS_G_3镰-普攻"
[68b5]="BOSS_G_3镰-连续技4"
[68ba]="BOSS_G_3镰-连续技2"
[68bf]="BOSS_G_3镰-连续技2"
[68ce]="黑蜈蚣（H）普攻"
[c351]="萧四无-普攻"
[c352]="萧四无-挑飞"
[c353]="萧四无-蓄力一指禅"
[c354]="萧四无-3连击朝向技"
[c358]="萧四无-3连击范围技"
[c35e]="萧四无-3连击单体技"
[c364]="疾风骤雨"
[c378]="剔骨"
[c380]="扒皮"
[c386]="剁肉"
[c38a]="好吃好吃"
[c38b]="好吃好吃"
[c392]="穿肠"
[c399]="怒招"
[c3b4]="黑蜈蚣（H）普攻"
[c3b5]="黑蜈蚣（H）冲锋入口2"
[c3b9]="黑蜈蚣（H）二连击入口4"
[c3be]="黑蜈蚣（H）蓄力引导3A"
[c3c0]="黑蜈蚣（H）蓄力引导3A"
[c3c3]="反击"
[c3c8]="一道轮回"
[c3c9]="三道轮回"
[c3ca]="五道轮回"
[c3cb]="八道轮回"
[c3cc]="黑蜈蚣（H）蓄力引导入口11"
[c3d0]="黑蜈蚣（H）蓄力引导入口12"
[c3d4]="黑蜈蚣（H）蓄力引导入口13"
[c3d8]="黑蜈蚣（H）蓄力引导入口14"
[c3dc]="黑蜈蚣（H）蓄力引导入口15"
[c3e0]="黑蜈蚣（H）蓄力引导入口16"
[c3e4]="黑蜈蚣（H）蓄力引导入口17"
[c3e8]="黑蜈蚣（H）蓄力引导入口18"
[c3ec]="黑蜈蚣（H）蓄力引导入口19"
[c3f0]="黑蜈蚣（H）蓄力引导入口20"
[c3f4]="黑蜈蚣（H）蓄力引导入口21"
[c3f8]="黑蜈蚣（H）蓄力引导入口22"
[c3fc]="黑蜈蚣（H）蓄力引导入口23"
[c400]="黑蜈蚣（H）蓄力引导入口6"
[c404]="乾坤轮回"
[c418]="普攻"
[c419]="冲锋打击"
[c41d]="二连击"
[c422]="三连击"
[c428]="升龙扫腿"
[c42b]="反击技"
[c42c]="远程技"
[c431]="蓄力技"
[c436]="冲锋接近"
[c438]="狂暴强交互"
[c440]="毒爆"
[c45e]="鹰眼老七-普攻"
[c45f]="鹰眼老七-冲锋-入口"
[c460]="鹰眼老七-冲锋1"
[c461]="鹰眼老七-冲锋2"
[c463]="鹰眼老七-飞轮"
[c466]="鹰眼老七-怒爪"
[c468]="恶鹰扑食"
[c46d]="鹰眼老七-两连击"
[c472]="鹰眼老七-死亡盘旋"
[c475]="鹰眼老七-死亡盘旋陷阱"
[c476]="鹰眼老七-死亡盘旋陷阱2"
[eace]="傅红雪-普攻"
[eb3c]="黑巾楼掏心"
[eb96]="傅红雪-普攻"
[ebfa]="李真基-普攻"
[ec09]="李真基-强交互"
[ecbe]="七杀诀"
[ede4]="苗疆刀法"
[edee]="群体刺杀"
[ee6e]="内力比拼"
[ee8e]="风卷浪"
[ee8f]="风卷浪"
[eea2]="地裂火"
[eeac]="H体型双斧技能4-跳斩"
[eeb6]="H体型双斧-强交互1"
[eed0]="内力传功"
[eed1]="内力传功"
[eed2]="内力传功"
[eed3]="内力传功"
[ef88]="H体型棍-强交互1"
[ef92]="H体型棍技能3-跳劈"
[efe2]="双持匕首群攻技"
[efec]="双持匕首单体连射飞刀"
[eff6]="双持匕首群体飞刀"
[f03c]="H体型刀-飞鹤落地腿"
[f046]="H体型刀-跳砍"
[f04b]="H体型刀-跳砍"
[f050]="霸气刀诀"
[f05f]="十字闪光刀诀"
[f064]="H体型刀技能5-三段斩"
[f069]="H体型刀技能5-三段斩"
[f06e]="H体型刀技能6-三刀半月斩-入口"
[f073]="H体型刀技能6-三刀半月斩-入口"
[f078]="H体型刀技能7-斩杀姿态-入口"
[f07d]="H体型刀技能7-斩杀姿态-入口"
[f1cd]="飞鹤冲天"
[f1ce]="千斤坠"
[f366]="天崩地裂锤"
[f36a]="天崩地裂锤"
[f37a]="G体型空中轻功-入口"
[f550]="G体型锤-强交互1"
[fa02]="天人合一"
[fa0a]="信娘-普攻"
[fa14]="信娘-冲锋-入口"
[fa15]="信娘-冲锋1"
[fa1e]="信娘-挑飞"
[fa1f]="信娘-远程技能"
[fa28]="信娘-跳斩"
[fa32]="信娘-群攻1"
[fa3c]="信娘-群攻2"
[fa4f]="信娘接近强交互"
[fa50]="咒哥瞬移show"
[fbf4]="咒哥-普攻"
[fbfe]="咒哥-冲锋-入口"
[fbff]="咒哥-冲锋1"
[fc08]="咒哥-击飞"
[fc13]="天人合一"
[fc1c]="咒哥-强交互"
[fc25]="咒哥接近强交互"
[fc26]="咒哥群攻1"
[fc30]="咒哥群攻2"
[fc3a]="咒哥-无敌斩-入口"
[fc44]="咒哥-飞镖（起手冲锋）"
[fc46]="天人合一"
[fc4e]="咒哥瞬移show"
[fc57]="信娘-远程技能"
[fc58]="抱妹杀"
[fc59]="抱妹杀"
[fde8]="H型BOSS通用受击"
[fde9]="通用击退击倒受击"
[fdea]="通用击退击倒受击"
[fdeb]="通用击退击倒受击"
[fdec]="H型BOSS通用受击"
[fded]="BJ型BOSS通用受击"
[fdee]="BJ型BOSS通用受击"
[fdef]="通用击退击倒受击"
[fdf1]="BJ体型跳跃接近"
[fdf2]="H型BOSS通用（H_Single_1_504）"
[fdf3]="H型BOSS通用（H_Double_4_504）"
[fdf4]="H型BOSS通用飞鹤落地腿"
[fdf5]="L型BOSS通用（L_Single_3_506）"
[fdf6]="B型BOSS通用（NPC_4_1502）"
[fdf7]="BJ型BOSS通用（B_Double_0_506）"
[fdf8]="BJ型BOSS通用（B_Single_5_504）"
[fdf9]="G型BOSS通用（背坐）"
[fdfa]="G型BOSS通用（冲锋）"
[fe01]="BJ通用-连续技3"
[fe02]="BJ通用-连续技3-1"
[fe03]="BJ通用-连续技3-2"
[fe04]="BJ通用-连续技3-3"
[fe06]="BOSS_R通用反击技"
[fe07]="B型BOSS通用（NPC_4_1502）"
[fe09]="BOSS_J通用反击技"
[fe0b]="G型BOSS通用反击（背坐）"
[fe0d]="PL体型通用推手反击"
[fe0f]="L型通用脱离"
[fe10]="L通用-连续技"
[fe11]="L通用-连续技-1"
[fe12]="L通用-连续技-2"
[fe13]="L通用-连续技-3"
[fe15]="列阵 狐目荆棘"
[fe17]="列阵 狐目荆棘"
[fe18]="八门遁甲开门"
[fe1a]="通用BOSS阵眼转换"
[101d0]="百晓生-普攻"
[101d1]="百晓生-冲锋"
[101d2]="百晓生-飞踹"
[101d3]="百晓生-挑飞"
[101d4]="百晓生-3连击朝向技"
[101d8]="百晓生-3连击范围技"
[101dc]="百晓生-3连击单体技"
[101e0]="百晓生-强交互"
[101e4]="燕南飞-普攻"
[101e5]="燕南飞-接近"
[101e6]="燕南飞-冲锋1"
[101e7]="燕南飞-踢腿"
[101e8]="燕南飞-横斩"
[101e9]="燕南飞-连续技1"
[101ed]="燕南飞-连续技2"
[101f1]="燕南飞-连续技3"
[101f7]="燕南飞-强交互"
[101f8]="信娘-普攻"
[101f9]="信娘-冲锋-入口"
[101fa]="信娘-冲锋1"
[101fb]="信娘-挑飞"
[101fc]="信娘-跳斩"
[101fd]="信娘-群攻1"
[10202]="信娘-群攻2"
[10203]="信娘接近强交互"
[1020c]="咒哥-普攻"
[1020d]="咒哥-冲锋-入口"
[1020e]="咒哥-冲锋1"
[1020f]="咒哥-击飞"
[10210]="咒哥-单体绞首"
[10211]="咒哥接近强交互"
[10212]="咒哥-强交互"
[10216]="咒哥群攻1"
[10217]="咒哥群攻2"
[10220]="血玲珑-普攻"
[10221]="血玲珑-冲锋-入口"
[10222]="血玲珑-冲锋1"
[10223]="血玲珑-挑飞"
[10224]="血玲珑-跳劈"
[10234]="杜云松-普攻"
[10235]="杜云松-冲锋-入口"
[10236]="杜云松-冲锋1"
[10237]="杜云松-击飞"
[10238]="杜云松-劈地"
[1023a]="杜云松-强交互"
[1023e]="杜云松-连续技1"
[10242]="杜云松-连续技2"
[10246]="杜云松-连续技1"
[10248]="鹰眼老七-普攻"
[10249]="鹰眼老七-冲锋-入口"
[1024a]="鹰眼老七-冲锋1"
[1024b]="鹰眼老七-冲锋2"
[1024c]="鹰眼老七-飞轮"
[1024d]="鹰眼老七-冲锋2"
[1024e]="恶鹰扑食"
[10251]="鹰眼老七-冲锋1"
[10252]="鹰眼老七-死亡盘旋"
[10255]="鹰眼老七-死亡盘旋陷阱"
[10256]="鹰眼老七-死亡盘旋陷阱2"
[1025e]="鹰眼老七-两连击"
[10266]="校尉总领-普攻"
[10267]="校尉总领-冲锋-入口"
[10268]="校尉总领-冲锋1"
[10269]="校尉总领-挑飞"
[1026a]="校尉总领-重劈"
[1026c]="校尉总领-强交互"
[10271]="校尉总领-跳跃连击入口"
[10275]="校尉总领-三连击入口"
[1027a]="傅红雪刀-普攻"
[1027b]="傅红雪刀-冲锋-入口"
[1027d]="傅红雪刀-挑飞"
[1027e]="傅红雪刀-重劈"
[10280]="傅红雪刀-倒竹蜻蜓"
[10284]="傅红雪刀-大位移连击"
[10288]="傅红雪刀-两连击"
[1028b]="傅红雪刀-三连击"
[10296]="燕南飞-冲锋1"
[10297]="燕南飞-冲锋1"
[10298]="上官飞虹短剑-普攻"
[10299]="上官飞虹短剑-冲锋-入口"
[1029a]="上官飞虹短剑-冲锋1"
[1029b]="上官飞虹短剑-小刀转转"
[1029c]="上官飞虹短剑-无影腿"
[1029e]="上官飞虹短剑-强交互"
[102a4]="上官飞虹短剑-连续技1"
[102ad]="上官飞虹短剑-连续技3"
[102b3]="上官飞虹短剑-单体飞刀"
[102b4]="上官飞虹短剑-无影腿"
[102b5]="上官飞虹短剑-无影腿"
[102b7]="杜云松-范围震飞"
[102b8]="杜云松-瞬移show"
[102ba]="抱妹杀"
[102bb]="抱妹杀"
[102bc]="杜云松-范围震飞"
[102bd]="杜云松-范围震飞"
[102be]="上官飞虹短剑-单体飞刀"
[102bf]="上官飞虹短剑-单体飞刀"
[102fc]="慕容英-普攻"
[102fd]="慕容英-接近"
[102ff]="慕容英-冲锋1"
[10300]="慕容英-冲锋1"
[10301]="慕容英-冲锋1"
[10303]="慕容英-踢腿"
[10304]="慕容英-横斩"
[10306]="慕容英-连续技1"
[1030b]="慕容英-连续技2"
[10310]="慕容英-连续技3"
[10316]="慕容英-强交互"
[1032e]="唐青风-普攻"
[1032f]="唐青风大飞盘"
[10330]="唐青风-飞镖群"
[10331]="唐青风-瞬步接近"
[10333]="唐青风三连击－入口"
[10334]="三连击－1"
[10335]="三连击－2"
[10336]="三连击－3"
[10338]="唐青风转圈圈－跳起"
[10339]="转圈圈－引导伤害"
[1033a]="转圈圈－后跳"
[1033d]="唐青风-三连击-入口"
[1033e]="唐青风-三连击-1"
[1033f]="唐青风-三连击-2"
[10340]="唐青风-三连击-3"
[10342]="唐青风-替脱离"
[10343]="唐青风-替出现"
[1034c]="飞燕逐月"
[1034d]="飞燕逐月"
[1034e]="飞燕逐月"
[10360]="打坐"
[103d3]="鹰眼老七-普攻"
[103fb]="鹰眼老七-冲锋-入口"
[103fc]="鹰眼老七-冲锋1"
[103fd]="鹰眼老七-冲锋2"
[10406]="恶鹰扑食"
[10410]="死亡龙卷风"
[10412]="鹰眼老七-死亡盘旋陷阱"
[10429]="鹰眼老七-飞轮"
[1042a]="鹰眼老七-冲锋2"
[10432]="鹰眼老七-两连击"
[1043a]="十字闪光刀诀"
[104f7]="挑战BOSS鹰眼老七-龙卷风打玩家1"
[104f8]="挑战BOSS鹰眼老七-龙卷风打玩家2"
[104f9]="挑战BOSS鹰眼老七-龙卷风打玩家3"
[104fa]="十字闪光刀诀"
[11170]="苗天王（C体型）飞镖三连击"
[11171]="苗天王（H体型）接近强交互"
[11172]="苗天王（H体型）翻滚接近"
[11173]="苗天王（H体型）轻功追击-入口"
[11178]="轻功追击-入口"
[11184]="苗天王（C体型）飘雪穿云"
[11187]="千斤坠"
[1118e]="三段跳"
[1118f]="踏风揽云"
[11190]="滑落"
[11191]="踏风揽云"
[11192]="滑落"
[11193]="踏风揽云"
[11194]="滑落"
[11198]="碎金断玉"
[1119c]="碎金断玉"
[111a2]="苗天王（H体型）三刀斩"
[111a6]="苗天王（H体型）三刀斩"
[111ac]="苗天王（H体型）狂暴强交互"
[111b6]="苗天王（H体型）挑飞打击"
[111ba]="苗天王（H体型）挑飞打击"
[111c0]="苗天王（H体型）定向冲锋1"
[111c1]="苗天王（H体型）定向冲锋2"
[111c2]="苗天王（H体型）定向冲锋3"
[111ca]="翻江倒海"
[111cf]="翻江倒海"
[111d4]="斩腰"
[111d5]="斩腰"
[111de]="断臂"
[111df]="断臂"
[111e8]="劈首"
[111e9]="劈首"
[11238]="太刀斩"
[11239]="太刀斩"
[1129c]="苗天王兄弟-狂暴"
[11300]="苗天王（C体型)闪现"
[11364]="苗天王（C体型)-小李飞刀入口"
[1136e]="苗天王（C体型)-群体飞镖入口"
[11378]="龙鳞刺"
[1137b]="龙鳞刺"
[113c8]="风卷浪"
[113c9]="风卷浪"
[113d0]="地裂火"
[113d1]="H体型双斧技能4-跳斩"
[113d3]="万斧攻心"
[11558]="剔骨"
[1155f]="剔骨"
[11562]="扒皮"
[11567]="剁肉"
[1156b]="三连击"
[1156f]="扒皮"
[11571]="剁肉"
[11577]="膝撞"
[1157b]="冲锋"
[1158a]="怒招"
[11594]="好吃好吃"
[1159e]="穿肠"
[115a3]="穿肠"
[115a9]="怒招"
[115b2]="剑荡八方"
[115b5]="燕回朝阳"
[115b6]="破穴指诀"
[115b9]="无痕剑意"
[115ba]="后撤"
[115bb]="冲锋"
[115bc]="突进斩"
[115c6]="四连斩"
[115d0]="三连斩"
[115da]="剑锋-暴怒强交互"
[115e0]="剑锋-冲锋接近强交互"
[115e2]="风雷一剑"
[115eb]="飞燕逐月"
[115ef]="飞燕逐月"
[115f0]="风雷一剑"
[115f1]="无痕剑意"
[11602]="赵允弼AOE"
[1160c]="霸意刀诀"
[11614]="狂暴"
[11615]="赵允弼-冲锋"
[11616]="赵允弼-猛虎撞-入口"
[11620]="怒招入口"
[1162a]="赵允弼三连"
[11634]="赵允弼-单体"
[11635]="灭杀诀"
[11636]="灭杀诀"
[1163e]="赵允弼-无念模式"
[11648]="赵允弼分身-无念模式"
[11649]="赵允弼-冲锋"
[11652]="赵允弼三连"
[1165c]="怒招入口"
[11666]="后撤-裂阳刀法"
[11667]="强化猛虎撞入口"
[11668]="强化猛虎撞1"
[11669]="强化猛虎撞2"
[1166a]="强化猛虎撞3"
[11670]="赵允弼普攻1"
[1167a]="强化猛虎撞入口"
[1167b]="强化猛虎撞1"
[1167c]="强化猛虎撞2"
[1167d]="强化猛虎撞3"
[1167f]="后撤-裂阳刀法"
[116ed]="枪阵 天煞"
[116ee]="枪阵 天龙"
[116ef]="枪阵 破军"
[116fd]="反击"
[116fe]="反击"
[1174c]="霸意刀诀"
[117b0]="赵允弼三连"
[1186e]="剑荡八方"
[11878]="突进斩"
[11882]="四连斩"
[1188c]="三连斩"
[11896]="剑锋-暴怒强交互"
[1189c]="剑锋-冲锋接近强交互"
[1189e]="风雷一剑"
[118a7]="飞燕逐月"
[118ab]="飞燕逐月"
[118ac]="风雷一剑"
[11940]="天煞枪"
[1194a]="裂阳枪法"
[11954]="天龙扑日"
[11986]="枪阵 天煞"
[11987]="枪阵 天龙"
[11988]="枪阵 破军"
[119ea]="赵允弼AOE"
[119f4]="霸意刀诀"
[11a08]="怒招入口"
[11a12]="赵允弼三连"
[11a1c]="赵允弼-单体"
[11a1d]="灭杀诀"
[11a1e]="灭杀诀"
[11a58]="赵允弼普攻1"
[11a59]="蓄气斩"
[11a5c]="小怪-蓄力裂阳枪法入口"
[11ae7]="回风落雁"
[11ae8]="回风落雁"
[11ae9]="飞燕逐月"
[11aea]="飞燕逐月"
[124f8]="普攻"
[12502]="冲锋打击"
[1250c]="二连击"
[12516]="三连击"
[12520]="升龙扫腿"
[1252a]="反击技"
[12534]="远程技"
[1253e]="蓄力技"
[12548]="冲锋接近"
[12552]="毒吻"
[1255c]="狂暴强交互"
[12566]="毒爆"
[12570]="死亡毒雾"
[12579]="远程飞伞"
[1257b]="飞鹤冲天"
[1257c]="千斤坠"
[12584]="内力反击"
[125c0]="自替身"
[125c5]="自替身"
[125c6]="自替身"
[125c7]="自替身"
[125c8]="自替身"
[125c9]="自替身"
[125ca]="飞剑三连"
[125d4]="群体飞剑三连"
[125de]="裂+踢飞"
[125e8]="裂+地对空"
[125f2]="裂+抱妹杀"
[125fc]="扇形飞镖群"
[125fd]="直线多飞镖"
[125fe]="直线多飞镖01"
[12624]="冶儿（P体型)-飞剑普攻"
[1262e]="冶儿（P体型）群体飞剑"
[12638]="冶儿（P体型）裂爆"
[12642]="冶儿（P体型）裂囚"
[1264c]="冶儿（P体型）裂扫"
[12656]="冶儿（P体型）裂拉爆"
[1265f]="冶儿（P体型）裂拉爆"
[12660]="冶儿（P体型）裂+孔雀翎"
[12669]="冶儿（P体型）裂+孔雀翎"
[1266a]="冶儿（P体型）全团囚"
[1269c]="万魂刺"
[126b0]="全团裂爆"
[126c4]="全团裂扫"
[126de]="水水水水水"
[126e3]="火火火火火"
[126e7]="土土土土土"
[126ea]="木木木木木"
[126ec]="狂暴强交互"
[12750]="潜行杀手（P体型)-龙鳞刺入口"
[128e0]="展梦魂（H）普攻"
[128e5]="展梦魂（H）冲锋三连击2"
[128e6]="展梦魂（H）冲锋三连击2"
[128e7]="展梦魂（H）冲锋三连击2"
[128e8]="展梦魂（H）冲锋三连击2"
[128ea]="展梦魂（H）冲锋入口3"
[128ef]="展梦魂（H）冲锋入口3"
[128f5]="展梦魂（H）强交互4"
[128fe]="狂斩"
[12906]="震天动地"
[12908]="刀风"
[12912]="展梦魂（H）蓄力3"
[12917]="展梦魂（H）冲锋匝地8"
[1291d]="分身斩杀者"
[1291e]="展梦魂（H）特殊冲锋"
[12921]="展梦魂（H）自爆（受击）"
[12922]="展梦魂（H）自爆（受击）2"
[12926]="反击"
[12928]="反击"
[1292b]="血魂斩"
[1292f]="反击"
[12931]="飞鹤冲天"
[12932]="千斤坠"
[12935]="飞鹤冲天"
[12937]="飞鹤冲天"
[12938]="千斤坠"
[12939]="千斤坠"
[1293a]="反击"
[12940]="飞鹤冲天"
[12941]="千斤坠"
[12942]="反击"
[12944]="刀风"
[1294e]="展梦魂（H）自爆（受击）"
[1294f]="展梦魂（H）自爆（受击）2"
[12958]="展梦魂（H）蓄力3"
[12963]="展梦魂（H）必杀技"
[12967]="狂斩"
[12968]="狂斩"
[12969]="展梦魂（H）普攻"
[1296a]="展梦魂反击技"
[1296b]="展梦魂（H）分身自爆"
[1296c]="反击"
[1296d]="展梦魂（H）分身出场"
[1296e]="狂斩"
[129a8]="黑蜈蚣（H）普攻"
[129b2]="黑蜈蚣（H）冲锋入口2"
[129bc]="黑蜈蚣（H）三连击入口3"
[129c6]="黑蜈蚣（H）二连击入口4"
[129d0]="乾坤轮回"
[129da]="黑蜈蚣（H）蓄力引导入口6"
[129e0]="黑蜈蚣（H）蓄力引导入口7"
[129e4]="黑蜈蚣（H）蓄力引导入口8"
[129ea]="黑蜈蚣（H）蓄力引导入口9"
[129ef]="黑蜈蚣（H）强交互4"
[129f8]="黑蜈蚣（H）蓄力引导入口11"
[129fe]="黑蜈蚣（H）蓄力引导入口12"
[12a02]="黑蜈蚣（H）蓄力引导入口13"
[12a0c]="黑蜈蚣（H）蓄力引导入口14"
[12a12]="黑蜈蚣（H）蓄力引导入口15"
[12a16]="黑蜈蚣（H）蓄力引导入口16"
[12a1c]="黑蜈蚣（H）蓄力引导入口17"
[12a20]="黑蜈蚣（H）蓄力引导入口18"
[12a26]="黑蜈蚣（H）蓄力引导入口19"
[12a2a]="黑蜈蚣（H）蓄力引导入口20"
[12a30]="黑蜈蚣（H）蓄力引导入口21"
[12a34]="黑蜈蚣（H）蓄力引导入口22"
[12a3a]="黑蜈蚣（H）蓄力引导入口23"
[12a3e]="反击"
[12a3f]="一道轮回"
[12a40]="三道轮回"
[12a41]="五道轮回"
[12a42]="八道轮回"
[12a43]="反击"
[12a48]="反击"
[12a52]="蜈蚣锁喉"
[12a53]="黑蜈蚣（H）锁喉30"
[12a54]="黑蜈蚣（H）锁喉30"
[12a55]="黑蜈蚣（H）锁喉30"
[12a56]="黑蜈蚣（H）锁喉30"
[12a57]="黑蜈蚣（H）锁喉30"
[12a58]="黑蜈蚣（H）锁喉30"
[12a5c]="黑蜈蚣（H）蓄力引导3A"
[12a5d]="黑蜈蚣（H）蓄力引导3A"
[12a5e]="黑蜈蚣（H）蓄力引导3A"
[12a5f]="黑蜈蚣（H）蓄力引导3A"
[12a60]="黑蜈蚣（H）蓄力引导3A"
[12a70]="丁裘-震飞撒钱"
[12a71]="丁裘-震飞撒钱"
[12a72]="丁裘-震飞撒钱"
[12aac]="Boss_H_14鞭-普攻"
[12aad]="千军横扫"
[12ac0]="天神下凡"
[12ad5]="蛇王（T）普攻"
[12ad6]="蛇王（T）普攻"
[12ade]="蛇王（T）二连击"
[12ae9]="蛇王（T）冲锋"
[12af2]="风卷狂龙"
[12af8]="蛇王（T）四连击"
[12afc]="蛇王（T）三连击入口"
[12b02]="蛇王（T）四连击"
[12b06]="辰星坠"
[12b10]="蛇王（T）四连击"
[12b1b]="蛇王（T）普攻"
[12b1c]="微风拂柳"
[12b1d]="蛇王（T）普攻"
[12b1e]="反击"
[12b24]="蛇王（T）匝地入口"
[12b2e]="黑街之雨"
[12b32]="劲道掌"
[12b33]="蛇王（T）匝地入口"
[12b37]="威震黑街"
[12b38]="蛇王（T）四连击"
[12b42]="蛇王（T）四连击"
[12b4d]="蛇王（T）强交互"
[12b51]="反击"
[12b56]="黑街之雨"
[12b60]="蛇王（T）匝地入口"
[12b65]="蛇王（T）远程2"
[12cda]="跃马长嘶"
[12ce1]="策马奔腾"
[12cf0]="杜云松-瞬移show"
[12cf2]="杜云松-范围震飞"
[12cf3]="杜云松-范围震飞"
[12cf4]="杜云松-范围震飞"
[12cf5]="抱妹杀"
[12cf6]="抱妹杀"
[12d2c]="马芳玲-普攻"
[12d36]="马芳玲-冲锋-入口"
[12d37]="马芳玲-冲锋1"
[12d39]="马芳玲-小刀转转"
[12d3b]="天蝎摆尾"
[12d41]="马芳玲-强交互"
[12d4a]="天蝎乱舞"
[12d5b]="甘泉雨露"
[12d90]="萧四无-普攻"
[12d9a]="萧四无-冲锋"
[12d9d]="萧四无-飞踹"
[12d9f]="萧四无-挑飞"
[12da2]="萧四无-蓄力一指禅"
[12da4]="萧四无-3连击朝向技"
[12da8]="萧四无-3连击范围技"
[12dae]="萧四无-3连击单体技"
[12db3]="萧四无-冲锋"
[12dbd]="萧四无-表演"
[12dc2]="青龙乱舞"
[12dcc]="疾风骤雨"
[12df4]="慕容英-普攻"
[12df6]="慕容英-接近"
[12df9]="慕容英-踢腿"
[12dfb]="慕容英-横斩"
[12e03]="慕容英-冲锋1"
[12e04]="慕容英-冲锋1"
[12e05]="慕容英-冲锋1"
[12e08]="慕容英-连续技1"
[12e0d]="慕容英-连续技2"
[12e12]="慕容英-连续技3"
[12e18]="慕容英-强交互"
[12e1c]="万剑归宗"
[12e26]="万剑穿心"
[12e30]="一指剑"
[12e3a]="十指剑"
[12e62]="人剑合一"
[12e6c]="万剑穿心"
[13178]="黑蜈蚣（H）普攻"
[13182]="黑蜈蚣（H）冲锋入口2"
[1318c]="黑蜈蚣（H）三连击入口3"
[13196]="黑蜈蚣（H）二连击入口4"
[131a0]="乾坤轮回"
[131aa]="黑蜈蚣（H）蓄力引导入口6"
[131b0]="黑蜈蚣（H）蓄力引导入口7"
[131b4]="黑蜈蚣（H）蓄力引导入口8"
[131ba]="黑蜈蚣（H）蓄力引导入口9"
[131bf]="黑蜈蚣（H）强交互4"
[131c8]="黑蜈蚣（H）蓄力引导入口11"
[131ce]="黑蜈蚣（H）蓄力引导入口12"
[131d2]="黑蜈蚣（H）蓄力引导入口13"
[131dc]="黑蜈蚣（H）蓄力引导入口14"
[131e2]="黑蜈蚣（H）蓄力引导入口15"
[131e6]="黑蜈蚣（H）蓄力引导入口16"
[131ec]="黑蜈蚣（H）蓄力引导入口17"
[131f0]="黑蜈蚣（H）蓄力引导入口18"
[131f6]="黑蜈蚣（H）蓄力引导入口19"
[131fa]="黑蜈蚣（H）蓄力引导入口20"
[13200]="黑蜈蚣（H）蓄力引导入口21"
[13204]="黑蜈蚣（H）蓄力引导入口22"
[1320a]="黑蜈蚣（H）蓄力引导入口23"
[1320e]="反击"
[1320f]="一道轮回"
[13210]="三道轮回"
[13211]="五道轮回"
[13212]="八道轮回"
[13213]="反击"
[13218]="反击"
[13222]="蜈蚣锁喉"
[13223]="黑蜈蚣（H）锁喉30"
[13224]="黑蜈蚣（H）锁喉30"
[13225]="黑蜈蚣（H）锁喉30"
[13226]="黑蜈蚣（H）锁喉30"
[13227]="黑蜈蚣（H）锁喉30"
[13228]="黑蜈蚣（H）锁喉30"
[1322c]="黑蜈蚣（H）蓄力引导3A"
[1322d]="黑蜈蚣（H）蓄力引导3A"
[1322e]="黑蜈蚣（H）蓄力引导3A"
[1322f]="黑蜈蚣（H）蓄力引导3A"
[13230]="黑蜈蚣（H）蓄力引导3A"
[13240]="丁裘-震飞撒钱"
[13241]="丁裘-震飞撒钱"
[13242]="丁裘-震飞撒钱"
[1327c]="Boss_H_14鞭-普攻"
[1327d]="千军横扫"
[13290]="天神下凡"
[132a5]="蛇王（T）普攻"
[132a6]="蛇王（T）普攻"
[132ae]="蛇王（T）二连击"
[132b9]="蛇王（T）冲锋"
[132c2]="风卷狂龙"
[132c8]="蛇王（T）四连击"
[132cc]="蛇王（T）三连击入口"
[132d2]="蛇王（T）四连击"
[132d6]="辰星坠"
[132e0]="蛇王（T）四连击"
[132eb]="蛇王（T）普攻"
[132ec]="微风拂柳"
[132ed]="蛇王（T）普攻"
[132ee]="反击"
[132f4]="蛇王（T）匝地入口"
[132fe]="黑街之雨"
[13302]="劲道掌"
[13303]="蛇王（T）匝地入口"
[13307]="威震黑街"
[13308]="蛇王（T）四连击"
[13312]="蛇王（T）四连击"
[1331d]="蛇王（T）强交互"
[13321]="反击"
[13326]="黑街之雨"
[13330]="蛇王（T）匝地入口"
[13335]="蛇王（T）远程2"
[13886]="持剑技能-空中连击"
[13889]="持剑技能-地面连击"
[1388c]="持剑技能-地面连击"
[1388f]="持剑技能-挑飞连击"
[13892]="苍龙出水"
[13893]="信娘-普攻"
[13894]="信娘-冲锋-入口"
[13895]="信娘-冲锋1"
[13896]="信娘-跳斩"
[138a8]="蓄力斩"
[138ad]="傅红雪刀-大位移连击"
[138b2]="星雨飞花"
[138b7]="蓄力斩"
[138c1]="内力比拼"
[15f91]="龙鳞刺"
[15f92]="龙鳞刺"
[15f93]="龙鳞刺"
[15f94]="龙鳞刺惊动"
[15f95]="空中龙鳞刺"
[15f96]="夜行衣换匕首"
[15f97]="清除换匕首附加的BUFF"
[15f98]="补满XP"
[15f99]="龙鳞刺"
[15f9b]="劝降"
[15f9d]="生擒"
[15fa1]="缉拿生擒事件监测用技能"
[15fa4]="缉拿生擒事件监测用技能"
[15fa5]="缉拿生擒事件监测用技能"
[15fa6]="捕快跳起"
[15fab]="陷阱攻击1"
[222e0]="内力传功"
[22345]="四人阵法1"
[223a9]="铁舞天衣"
[22471]="封兵断影"
[22539]="风翔阵"
[22601]="影袭"
[226c9]="独游阵"
[226ca]="独游阵"
[226cb]="独游阵"
[22791]="通行阵"
[22792]="通行阵"
[22793]="通行阵"
[22859]="锦绣阵"
[2285a]="锦绣阵"
[2285b]="锦绣阵"
[30d40]="天峰五云剑"
[30d4a]="雨落云飞"
[30d54]="无痕剑意"
[30d5e]="苍龙出水"
[30d68]="云台三落"
[30d72]="飞燕逐月"
[30d7c]="风雷一剑"
[30d86]="回风落雁"
[30d90]="破穴指诀"
[30d91]="破穴指诀"
[30d9a]="烟霞满天"
[30da4]="燕回朝阳"
[30dd6]="杀意·剑履山河"
[31128]="飞龙升天"
[3112f]="飞龙升天"
[31131]="抱妹杀"
[31132]="天煞枪"
[3113c]="贪狼诀"
[31146]="七杀诀"
[31150]="破军诀"
[3115a]="伏龙枪"
[31164]="天龙扑月"
[3116e]="贯甲箭"
[31178]="狂龙枪法"
[31182]="无敌无我"
[3118c]="背水一击"
[311be]="杀意·星河倒卷"
[31510]="奔雷拳"
[31514]="奔雷拳"
[31516]="奔雷拳"
[31518]="奔雷拳"
[31519]="疾风踢"
[3151a]="追风踢"
[31524]="百裂脚"
[3152e]="江湖醉"
[31538]="醉饮江河"
[3153b]="醉饮江河"
[31542]="怒扫乾坤"
[3154c]="倒提壶"
[31556]="离弦腿"
[3155b]="神掌八打"
[3156a]="劈山诀"
[31572]="铁山靠"
[31574]="龙吟三破"
[31578]="龙吟三破"
[3157e]="力满效果-缠"
[315a6]="杀意·龙震百里"
[318f8]="星雨飞花"
[31902]="暴雨梨花"
[31904]="暴雨梨花"
[31905]="坠"
[3190c]="千机扫"
[3190f]="千机扫"
[31916]="形神合"
[31920]="千魂裂"
[31921]="千魂裂"
[3192a]="自替身"
[31934]="困百骸"
[3193e]="爆天星"
[3193f]="爆天星"
[31948]="风花饮月"
[3194e]="终结"
[31952]="乳燕归巢"
[31953]="乳燕归巢"
[31954]="乳燕归巢"
[31955]="乳燕归巢"
[3195f]="控鹤擒龙"
[3198e]="杀意·万点繁星"
[31d76]="杀意·天地不仁"
[3215e]="杀意·五仙灭地"
[61a81]="BJ通用-连续技3"
[61a82]="BJ通用-连续技3-1"
[61a83]="BJ通用-连续技3-2"
[61a84]="BJ通用-连续技3-3"
[61a85]="严泽单刀-跳劈"
[61a86]="严泽单刀-跳劈"
[61a87]="严泽单刀-重劈"
[61a88]="严泽单刀-普攻"
[61a89]="严泽单刀-挑飞"
[61a8a]="BJ型BOSS通用（B_Single_5_504）"
[61a8b]="BJ型BOSS通用受击"
[61a8c]="严泽单刀-强交互接近"
[61a8d]="严泽单刀-四连击-入口"
[61a8e]="严泽单刀-四连击-1"
[61a8f]="严泽单刀-四连击-2"
[61a90]="严泽单刀-四连击-3"
[61a91]="严泽单刀-四连击-4"
[61a92]="打坐"
[61a93]="反击"
[61a94]="反击"
[dbba3]="镖车行进"
[dbba4]="镖车停止"
[dbba5]="劫镖"
[dbba6]="越货"
[dbba9]="抢修"
[dbbaa]="疾行"
[dbbab]="镖车加防1"
[dbbac]="镖车加防2"
[dbbad]="镖车加防3"
[dbbae]="镖车加防4"
[dbbaf]="镖车加防5"
[dbbb9]="抢修"
[dbbba]="抢修"
[dbbbb]="抢修"
[dbbbc]="抢修"
[dbbbd]="疾行"
[dbbbe]="疾行"
[dbbbf]="疾行"
[dbbc0]="疾行"
[dbbc1]="驾驶"
[dbbc2]="搭乘"
[dbbc3]="自动"
[dbbc4]="下车"
[dbbc5]="手动"
[dbbc6]="发车"
[dbbc7]="补货"
[dbbe4]="护镖"
[dbbe5]="劫镖"
[dbbe6]="加入劫镖"
[dbc05]="吹口哨"
[dbc06]="赞"
[dbc07]="作揖"
[dbc08]="跳舞"
[dbc09]="胜利"
[dbc0a]="撒娇"
[dbc0b]="倒地"
[dbc0c]="害羞"
[dbc0d]="遮阳"
[dbc0e]="生气"
[dbc0f]="请"
[dbc10]="祈祷"
[dbc11]="苦恼"
[dbc12]="害羞"
[dbc13]="点头"
[dbc14]="作揖"
[dbc15]="指向"
[dbc16]="战斗失败"
[dbc17]="再见"
[dbc18]="摇头"
[dbc2a]="笑"
[dbc2b]="挑衅"
[dbc2c]="思考"
[dbc2d]="说话"
[dbc2e]="哭"
[dbc2f]="磕头"
[dbc30]="喝酒"
[dbc31]="恶心"
[dbc32]="吃东西"
[dbc3f]="“-:(”"
[dbc40]="“-_-”"
[dbc41]="“*_*”"
[dbc42]="“≧▽≦”"
[dbc43]="“^_^”"
[dbc44]="“￣︶￣”"
[dbc45]="“OTL”"
[dbc46]="“=_=”"
[dbc47]="“：（”"
[dbc48]="“-_-”"
[dbc49]="“@_@”"
[dbc4a]="“：P”"
[dbc4b]="“：D”"
[dbc4c]="“=。=”"
[dbc4d]="“→_→”"
[dbc4e]="“~_~”"
[dbc4f]="“#_#”"
[dbc50]="“=口=”"
[dbc51]="“T_T”"
[dbc52]="易容"
[dbc53]="沮丧"
[dbc54]="郁闷"
[dbc55]="创作"
[dbc56]="扬蝶"
[dbc57]="拔刀"
[dbc58]="挽弓"
[dbc59]="扶檐"
[dbc5a]="休闲躺"
[dbc5b]="休闲坐"
[dbc69]="采集-高物件"
[dbc6a]="采集-低物件"
[dbc6b]="采集-喝酒"
[dbccd]="使用道具"
[dbcce]="使用道具"
[dbd31]="挖掘"
[dbd32]="挖掘"
[dbd33]="挖掘"
[dbd95]="伐木"
[dbdf9]="捡东西"
[dbe5d]="采矿"
[dbec1]="抄书"
[dbf8a]="春风伞"
[dcf29]="帮派加力道"
[dcf2a]="帮派加力道LV2"
[dcf2b]="帮派加力道LV3"
[dcf2c]="帮派加力道LV4"
[dcf2d]="帮派加力道lv5"
[dcf2e]="帮派加力道lv6"
[dcf2f]="帮派加力道lv7"
[dcf30]="帮派加力道lv8"
[dcf31]="帮派加力道lv9"
[dcf32]="帮派加力道lv10"
[dcf33]="帮派加力道lv11"
[dcf34]="帮派加力道lv12"
[dcf35]="帮派加力道lv13"
[dcf36]="帮派加力道lv14"
[dcf37]="帮派加力道lv15"
[dcf38]="帮派加力道lv16"
[dcf39]="帮派加力道lv17"
[dcf3a]="帮派加力道lv18"
[dcf3b]="帮派加力道lv19"
[dcf3c]="帮派加力道lv20"
[dcf3d]="帮派加力道lv21"
[dcf3e]="帮派加力道lv22"
[dcf3f]="帮派加力道lv23"
[dcf40]="帮派加力道lv24"
[dcf41]="帮派加力道lv25"
[dcf42]="帮派加力道lv26"
[dcf43]="帮派加力道lv27"
[dcf44]="帮派加力道lv28"
[dcf45]="帮派加力道lv29"
[dcf46]="帮派加力道lv30"
[dcf47]="帮派加力道lv31"
[dcf48]="帮派加力道lv32"
[dcf49]="帮派加力道lv33"
[dcf4a]="帮派加力道lv34"
[dcf4b]="帮派加力道lv35"
[dcf4c]="帮派加力道lv36"
[dcf4d]="帮派加力道lv37"
[dcf4e]="帮派加力道lv38"
[dcf4f]="帮派加力道lv39"
[dcf50]="帮派加力道lv40"
[dcf51]="帮派加力道lv41"
[dcf52]="帮派加力道lv42"
[dcf53]="帮派加力道lv43"
[dcf54]="帮派加力道lv44"
[dcf55]="帮派加力道lv45"
[dcf56]="帮派加力道lv46"
[dcf57]="帮派加力道lv47"
[dcf58]="帮派加力道lv48"
[dcf59]="帮派加力道lv49"
[dcf5a]="帮派加力道lv50"
[dcf5b]="帮派加力道lv51"
[dcf5c]="帮派加力道lv52"
[dcf5d]="帮派加力道lv53"
[dcf5e]="帮派加力道lv54"
[dcf5f]="帮派加力道lv55"
[dcf60]="帮派加力道lv56"
[dcf61]="帮派加力道lv57"
[dcf62]="帮派加力道lv58"
[dcf63]="帮派加力道lv59"
[dcf64]="帮派加力道lv60"
[dcf65]="帮派加力道lv61"
[dcf66]="帮派加力道lv62"
[dcf67]="帮派加力道lv63"
[dcf68]="帮派加力道lv64"
[dcf69]="帮派加力道lv65"
[dcf6a]="帮派加力道lv66"
[dcf6b]="帮派加力道lv67"
[dcf6c]="帮派加力道lv68"
[dcf6d]="帮派加力道lv69"
[dcf6e]="帮派加力道lv70"
[dcf6f]="帮派加力道lv71"
[dcf70]="帮派加力道lv72"
[dcf71]="帮派加力道lv73"
[dcf72]="帮派加力道lv74"
[dcf73]="帮派加力道lv75"
[dcf74]="帮派加力道lv76"
[dcf75]="帮派加力道lv77"
[dcf76]="帮派加力道lv78"
[dcf77]="帮派加力道lv79"
[dcf78]="帮派加力道lv80"
[dcf79]="帮派加力道lv81"
[dcf7a]="帮派加力道lv82"
[dcf7b]="帮派加力道lv83"
[dcf7c]="帮派加力道lv84"
[dcf7d]="帮派加力道lv85"
[dcf7e]="帮派加力道lv86"
[dcf7f]="帮派加力道lv87"
[dcf80]="帮派加力道lv88"
[dcf81]="帮派加力道lv89"
[dcf82]="帮派加力道lv90"
[dcf83]="帮派加力道lv91"
[dcf84]="帮派加力道lv92"
[dcf85]="帮派加力道lv93"
[dcf86]="帮派加力道lv94"
[dcf87]="帮派加力道lv95"
[dcf88]="帮派加力道lv96"
[dcf89]="帮派加力道lv97"
[dcf8a]="帮派加力道lv98"
[dcf8b]="帮派加力道lv99"
[dcf8c]="帮派加力道lv100"
[dcf8d]="帮派加根骨"
[dcf8e]="帮派加根骨LV2"
[dcf8f]="帮派加根骨LV3"
[dcf90]="帮派加根骨LV4"
[dcf91]="帮派加根骨LV5"
[dcf92]="帮派加根骨LV6"
[dcf93]="帮派加根骨LV7"
[dcf94]="帮派加根骨LV8"
[dcf95]="帮派加根骨LV9"
[dcf96]="帮派加根骨LV10"
[dcf97]="帮派加根骨LV11"
[dcf98]="帮派加根骨LV12"
[dcf99]="帮派加根骨LV13"
[dcf9a]="帮派加根骨LV14"
[dcf9b]="帮派加根骨LV15"
[dcf9c]="帮派加根骨LV16"
[dcf9d]="帮派加根骨LV17"
[dcf9e]="帮派加根骨LV18"
[dcf9f]="帮派加根骨LV19"
[dcfa0]="帮派加根骨LV20"
[dcfa1]="帮派加根骨LV21"
[dcfa2]="帮派加根骨LV22"
[dcfa3]="帮派加根骨LV23"
[dcfa4]="帮派加根骨LV24"
[dcfa5]="帮派加根骨LV25"
[dcfa6]="帮派加根骨LV26"
[dcfa7]="帮派加根骨LV27"
[dcfa8]="帮派加根骨LV28"
[dcfa9]="帮派加根骨LV29"
[dcfaa]="帮派加根骨LV30"
[dcfab]="帮派加根骨LV31"
[dcfac]="帮派加根骨LV32"
[dcfad]="帮派加根骨LV33"
[dcfae]="帮派加根骨LV34"
[dcfaf]="帮派加根骨LV35"
[dcfb0]="帮派加根骨LV36"
[dcfb1]="帮派加根骨LV37"
[dcfb2]="帮派加根骨LV38"
[dcfb3]="帮派加根骨LV39"
[dcfb4]="帮派加根骨LV40"
[dcfb5]="帮派加根骨LV41"
[dcfb6]="帮派加根骨LV42"
[dcfb7]="帮派加根骨LV43"
[dcfb8]="帮派加根骨LV44"
[dcfb9]="帮派加根骨LV45"
[dcfba]="帮派加根骨LV46"
[dcfbb]="帮派加根骨LV47"
[dcfbc]="帮派加根骨LV48"
[dcfbd]="帮派加根骨LV49"
[dcfbe]="帮派加根骨LV50"
[dcfbf]="帮派加根骨LV51"
[dcfc0]="帮派加根骨LV52"
[dcfc1]="帮派加根骨LV53"
[dcfc2]="帮派加根骨LV54"
[dcfc3]="帮派加根骨LV55"
[dcfc4]="帮派加根骨LV56"
[dcfc5]="帮派加根骨LV57"
[dcfc6]="帮派加根骨LV58"
[dcfc7]="帮派加根骨LV59"
[dcfc8]="帮派加根骨LV60"
[dcfc9]="帮派加根骨LV61"
[dcfca]="帮派加根骨LV62"
[dcfcb]="帮派加根骨LV63"
[dcfcc]="帮派加根骨LV64"
[dcfcd]="帮派加根骨LV65"
[dcfce]="帮派加根骨LV66"
[dcfcf]="帮派加根骨LV67"
[dcfd0]="帮派加根骨LV68"
[dcfd1]="帮派加根骨LV69"
[dcfd2]="帮派加根骨LV70"
[dcfd3]="帮派加根骨LV71"
[dcfd4]="帮派加根骨LV72"
[dcfd5]="帮派加根骨LV73"
[dcfd6]="帮派加根骨LV74"
[dcfd7]="帮派加根骨LV75"
[dcfd8]="帮派加根骨LV76"
[dcfd9]="帮派加根骨LV77"
[dcfda]="帮派加根骨LV78"
[dcfdb]="帮派加根骨LV79"
[dcfdc]="帮派加根骨LV80"
[dcfdd]="帮派加根骨LV81"
[dcfde]="帮派加根骨LV82"
[dcfdf]="帮派加根骨LV83"
[dcfe0]="帮派加根骨LV84"
[dcfe1]="帮派加根骨LV85"
[dcfe2]="帮派加根骨LV86"
[dcfe3]="帮派加根骨LV87"
[dcfe4]="帮派加根骨LV88"
[dcfe5]="帮派加根骨LV89"
[dcfe6]="帮派加根骨LV90"
[dcfe7]="帮派加根骨LV91"
[dcfe8]="帮派加根骨LV92"
[dcfe9]="帮派加根骨LV93"
[dcfea]="帮派加根骨LV94"
[dcfeb]="帮派加根骨LV95"
[dcfec]="帮派加根骨LV96"
[dcfed]="帮派加根骨LV97"
[dcfee]="帮派加根骨LV98"
[dcfef]="帮派加根骨LV99"
[dcff0]="帮派加根骨LV100"
[dcff1]="帮派加元气"
[dcff2]="帮派加元气LV2"
[dcff3]="帮派加元气LV3"
[dcff4]="帮派加元气LV4"
[dcff5]="帮派加元气LV5"
[dcff6]="帮派加元气LV6"
[dcff7]="帮派加元气LV7"
[dcff8]="帮派加元气LV8"
[dcff9]="帮派加元气LV9"
[dcffa]="帮派加元气LV10"
[dcffb]="帮派加元气LV11"
[dcffc]="帮派加元气LV12"
[dcffd]="帮派加元气LV13"
[dcffe]="帮派加元气LV14"
[dcfff]="帮派加元气LV15"
[dd000]="帮派加元气LV16"
[dd001]="帮派加元气LV17"
[dd002]="帮派加元气LV18"
[dd003]="帮派加元气LV19"
[dd004]="帮派加元气LV20"
[dd005]="帮派加元气LV21"
[dd006]="帮派加元气LV22"
[dd007]="帮派加元气LV23"
[dd008]="帮派加元气LV24"
[dd009]="帮派加元气LV25"
[dd00a]="帮派加元气LV26"
[dd00b]="帮派加元气LV27"
[dd00c]="帮派加元气LV28"
[dd00d]="帮派加元气LV29"
[dd00e]="帮派加元气LV30"
[dd00f]="帮派加元气LV31"
[dd010]="帮派加元气LV32"
[dd011]="帮派加元气LV33"
[dd012]="帮派加元气LV34"
[dd013]="帮派加元气LV35"
[dd014]="帮派加元气LV36"
[dd015]="帮派加元气LV37"
[dd016]="帮派加元气LV38"
[dd017]="帮派加元气LV39"
[dd018]="帮派加元气LV40"
[dd019]="帮派加元气LV41"
[dd01a]="帮派加元气LV42"
[dd01b]="帮派加元气LV43"
[dd01c]="帮派加元气LV44"
[dd01d]="帮派加元气LV45"
[dd01e]="帮派加元气LV46"
[dd01f]="帮派加元气LV47"
[dd020]="帮派加元气LV48"
[dd021]="帮派加元气LV49"
[dd022]="帮派加元气LV50"
[dd023]="帮派加元气LV51"
[dd024]="帮派加元气LV52"
[dd025]="帮派加元气LV53"
[dd026]="帮派加元气LV54"
[dd027]="帮派加元气LV55"
[dd028]="帮派加元气LV56"
[dd029]="帮派加元气LV57"
[dd02a]="帮派加元气LV58"
[dd02b]="帮派加元气LV59"
[dd02c]="帮派加元气LV60"
[dd02d]="帮派加元气LV61"
[dd02e]="帮派加元气LV62"
[dd02f]="帮派加元气LV63"
[dd030]="帮派加元气LV64"
[dd031]="帮派加元气LV65"
[dd032]="帮派加元气LV66"
[dd033]="帮派加元气LV67"
[dd034]="帮派加元气LV68"
[dd035]="帮派加元气LV69"
[dd036]="帮派加元气LV70"
[dd037]="帮派加元气LV71"
[dd038]="帮派加元气LV72"
[dd039]="帮派加元气LV73"
[dd03a]="帮派加元气LV74"
[dd03b]="帮派加元气LV75"
[dd03c]="帮派加元气LV76"
[dd03d]="帮派加元气LV77"
[dd03e]="帮派加元气LV78"
[dd03f]="帮派加元气LV79"
[dd040]="帮派加元气LV80"
[dd041]="帮派加元气LV81"
[dd042]="帮派加元气LV82"
[dd043]="帮派加元气LV83"
[dd044]="帮派加元气LV84"
[dd045]="帮派加元气LV85"
[dd046]="帮派加元气LV86"
[dd047]="帮派加元气LV87"
[dd048]="帮派加元气LV88"
[dd049]="帮派加元气LV89"
[dd04a]="帮派加元气LV90"
[dd04b]="帮派加元气LV91"
[dd04c]="帮派加元气LV92"
[dd04d]="帮派加元气LV93"
[dd04e]="帮派加元气LV94"
[dd04f]="帮派加元气LV95"
[dd050]="帮派加元气LV96"
[dd051]="帮派加元气LV97"
[dd052]="帮派加元气LV98"
[dd053]="帮派加元气LV99"
[dd054]="帮派加元气LV100"
[dd055]="帮派加身法"
[dd056]="帮派加身法"
[dd057]="帮派加身法"
[dd058]="帮派加身法"
[dd059]="帮派加身法"
[dd05a]="帮派加身法"
[dd05b]="帮派加身法"
[dd05c]="帮派加身法"
[dd05d]="帮派加身法"
[dd05e]="帮派加身法"
[dd05f]="帮派加身法"
[dd060]="帮派加身法"
[dd061]="帮派加身法"
[dd062]="帮派加身法"
[dd063]="帮派加身法"
[dd064]="帮派加身法"
[dd065]="帮派加身法"
[dd066]="帮派加身法"
[dd067]="帮派加身法"
[dd068]="帮派加身法"
[dd069]="帮派加身法"
[dd06a]="帮派加身法"
[dd06b]="帮派加身法"
[dd06c]="帮派加身法"
[dd06d]="帮派加身法"
[dd06e]="帮派加身法"
[dd06f]="帮派加身法"
[dd070]="帮派加身法"
[dd071]="帮派加身法"
[dd072]="帮派加身法"
[dd073]="帮派加身法"
[dd074]="帮派加身法"
[dd075]="帮派加身法"
[dd076]="帮派加身法"
[dd077]="帮派加身法"
[dd078]="帮派加身法"
[dd079]="帮派加身法"
[dd07a]="帮派加身法"
[dd07b]="帮派加身法"
[dd07c]="帮派加身法"
[dd07d]="帮派加身法"
[dd07e]="帮派加身法"
[dd07f]="帮派加身法"
[dd080]="帮派加身法"
[dd081]="帮派加身法"
[dd082]="帮派加身法"
[dd083]="帮派加身法"
[dd084]="帮派加身法"
[dd085]="帮派加身法"
[dd086]="帮派加身法"
[dd087]="帮派加身法"
[dd088]="帮派加身法"
[dd089]="帮派加身法"
[dd08a]="帮派加身法"
[dd08b]="帮派加身法"
[dd08c]="帮派加身法"
[dd08d]="帮派加身法"
[dd08e]="帮派加身法"
[dd08f]="帮派加身法"
[dd090]="帮派加身法"
[dd091]="帮派加身法"
[dd092]="帮派加身法"
[dd093]="帮派加身法"
[dd094]="帮派加身法"
[dd095]="帮派加身法"
[dd096]="帮派加身法"
[dd097]="帮派加身法"
[dd098]="帮派加身法"
[dd099]="帮派加身法"
[dd09a]="帮派加身法"
[dd09b]="帮派加身法"
[dd09c]="帮派加身法"
[dd09d]="帮派加身法"
[dd09e]="帮派加身法"
[dd09f]="帮派加身法"
[dd0a0]="帮派加身法"
[dd0a1]="帮派加身法"
[dd0a2]="帮派加身法"
[dd0a3]="帮派加身法"
[dd0a4]="帮派加身法"
[dd0a5]="帮派加身法"
[dd0a6]="帮派加身法"
[dd0a7]="帮派加身法"
[dd0a8]="帮派加身法"
[dd0a9]="帮派加身法"
[dd0aa]="帮派加身法"
[dd0ab]="帮派加身法"
[dd0ac]="帮派加身法"
[dd0ad]="帮派加身法"
[dd0ae]="帮派加身法"
[dd0af]="帮派加身法"
[dd0b0]="帮派加身法"
[dd0b1]="帮派加身法"
[dd0b2]="帮派加身法"
[dd0b3]="帮派加身法"
[dd0b4]="帮派加身法"
[dd0b5]="帮派加身法"
[dd0b6]="帮派加身法"
[dd0b7]="帮派加身法"
[dd0b8]="帮派加身法"
[dd0b9]="帮派加洞察"
[dd0ba]="帮派加洞察"
[dd0bb]="帮派加洞察"
[dd0bc]="帮派加洞察"
[dd0bd]="帮派加洞察"
[dd0be]="帮派加洞察"
[dd0bf]="帮派加洞察"
[dd0c0]="帮派加洞察"
[dd0c1]="帮派加洞察"
[dd0c2]="帮派加洞察"
[dd0c3]="帮派加洞察"
[dd0c4]="帮派加洞察"
[dd0c5]="帮派加洞察"
[dd0c6]="帮派加洞察"
[dd0c7]="帮派加洞察"
[dd0c8]="帮派加洞察"
[dd0c9]="帮派加洞察"
[dd0ca]="帮派加洞察"
[dd0cb]="帮派加洞察"
[dd0cc]="帮派加洞察"
[dd0cd]="帮派加洞察"
[dd0ce]="帮派加洞察"
[dd0cf]="帮派加洞察"
[dd0d0]="帮派加洞察"
[dd0d1]="帮派加洞察"
[dd0d2]="帮派加洞察"
[dd0d3]="帮派加洞察"
[dd0d4]="帮派加洞察"
[dd0d5]="帮派加洞察"
[dd0d6]="帮派加洞察"
[dd0d7]="帮派加洞察"
[dd0d8]="帮派加洞察"
[dd0d9]="帮派加洞察"
[dd0da]="帮派加洞察"
[dd0db]="帮派加洞察"
[dd0dc]="帮派加洞察"
[dd0dd]="帮派加洞察"
[dd0de]="帮派加洞察"
[dd0df]="帮派加洞察"
[dd0e0]="帮派加洞察"
[dd0e1]="帮派加洞察"
[dd0e2]="帮派加洞察"
[dd0e3]="帮派加洞察"
[dd0e4]="帮派加洞察"
[dd0e5]="帮派加洞察"
[dd0e6]="帮派加洞察"
[dd0e7]="帮派加洞察"
[dd0e8]="帮派加洞察"
[dd0e9]="帮派加洞察"
[dd0ea]="帮派加洞察"
[dd0eb]="帮派加洞察"
[dd0ec]="帮派加洞察"
[dd0ed]="帮派加洞察"
[dd0ee]="帮派加洞察"
[dd0ef]="帮派加洞察"
[dd0f0]="帮派加洞察"
[dd0f1]="帮派加洞察"
[dd0f2]="帮派加洞察"
[dd0f3]="帮派加洞察"
[dd0f4]="帮派加洞察"
[dd0f5]="帮派加洞察"
[dd0f6]="帮派加洞察"
[dd0f7]="帮派加洞察"
[dd0f8]="帮派加洞察"
[dd0f9]="帮派加洞察"
[dd0fa]="帮派加洞察"
[dd0fb]="帮派加洞察"
[dd0fc]="帮派加洞察"
[dd0fd]="帮派加洞察"
[dd0fe]="帮派加洞察"
[dd0ff]="帮派加洞察"
[dd100]="帮派加洞察"
[dd101]="帮派加洞察"
[dd102]="帮派加洞察"
[dd103]="帮派加洞察"
[dd104]="帮派加洞察"
[dd105]="帮派加洞察"
[dd106]="帮派加洞察"
[dd107]="帮派加洞察"
[dd108]="帮派加洞察"
[dd109]="帮派加洞察"
[dd10a]="帮派加洞察"
[dd10b]="帮派加洞察"
[dd10c]="帮派加洞察"
[dd10d]="帮派加洞察"
[dd10e]="帮派加洞察"
[dd10f]="帮派加洞察"
[dd110]="帮派加洞察"
[dd111]="帮派加洞察"
[dd112]="帮派加洞察"
[dd113]="帮派加洞察"
[dd114]="帮派加洞察"
[dd115]="帮派加洞察"
[dd116]="帮派加洞察"
[dd117]="帮派加洞察"
[dd118]="帮派加洞察"
[dd119]="帮派加洞察"
[dd11a]="帮派加洞察"
[dd11b]="帮派加洞察"
[dd11c]="帮派加洞察"
[dd11d]="帮派加气血上限"
[dd11e]="帮派加气血上限"
[dd11f]="帮派加气血上限"
[dd120]="帮派加气血上限"
[dd121]="帮派加气血上限"
[dd122]="帮派加气血上限"
[dd123]="帮派加气血上限"
[dd124]="帮派加气血上限"
[dd125]="帮派加气血上限"
[dd126]="帮派加气血上限"
[dd127]="帮派加气血上限"
[dd128]="帮派加气血上限"
[dd129]="帮派加气血上限"
[dd12a]="帮派加气血上限"
[dd12b]="帮派加气血上限"
[dd12c]="帮派加气血上限"
[dd12d]="帮派加气血上限"
[dd12e]="帮派加气血上限"
[dd12f]="帮派加气血上限"
[dd130]="帮派加气血上限"
[dd131]="帮派加气血上限"
[dd132]="帮派加气血上限"
[dd133]="帮派加气血上限"
[dd134]="帮派加气血上限"
[dd135]="帮派加气血上限"
[dd136]="帮派加气血上限"
[dd137]="帮派加气血上限"
[dd138]="帮派加气血上限"
[dd139]="帮派加气血上限"
[dd13a]="帮派加气血上限"
[dd13b]="帮派加气血上限"
[dd13c]="帮派加气血上限"
[dd13d]="帮派加气血上限"
[dd13e]="帮派加气血上限"
[dd13f]="帮派加气血上限"
[dd140]="帮派加气血上限"
[dd141]="帮派加气血上限"
[dd142]="帮派加气血上限"
[dd143]="帮派加气血上限"
[dd144]="帮派加气血上限"
[dd145]="帮派加气血上限"
[dd146]="帮派加气血上限"
[dd147]="帮派加气血上限"
[dd148]="帮派加气血上限"
[dd149]="帮派加气血上限"
[dd14a]="帮派加气血上限"
[dd14b]="帮派加气血上限"
[dd14c]="帮派加气血上限"
[dd14d]="帮派加气血上限"
[dd14e]="帮派加气血上限"
[dd14f]="帮派加气血上限"
[dd150]="帮派加气血上限"
[dd151]="帮派加气血上限"
[dd152]="帮派加气血上限"
[dd153]="帮派加气血上限"
[dd154]="帮派加气血上限"
[dd155]="帮派加气血上限"
[dd156]="帮派加气血上限"
[dd157]="帮派加气血上限"
[dd158]="帮派加气血上限"
[dd159]="帮派加气血上限"
[dd15a]="帮派加气血上限"
[dd15b]="帮派加气血上限"
[dd15c]="帮派加气血上限"
[dd15d]="帮派加气血上限"
[dd15e]="帮派加气血上限"
[dd15f]="帮派加气血上限"
[dd160]="帮派加气血上限"
[dd161]="帮派加气血上限"
[dd162]="帮派加气血上限"
[dd163]="帮派加气血上限"
[dd164]="帮派加气血上限"
[dd165]="帮派加气血上限"
[dd166]="帮派加气血上限"
[dd167]="帮派加气血上限"
[dd168]="帮派加气血上限"
[dd169]="帮派加气血上限"
[dd16a]="帮派加气血上限"
[dd16b]="帮派加气血上限"
[dd16c]="帮派加气血上限"
[dd16d]="帮派加气血上限"
[dd16e]="帮派加气血上限"
[dd16f]="帮派加气血上限"
[dd170]="帮派加气血上限"
[dd171]="帮派加气血上限"
[dd172]="帮派加气血上限"
[dd173]="帮派加气血上限"
[dd174]="帮派加气血上限"
[dd175]="帮派加气血上限"
[dd176]="帮派加气血上限"
[dd177]="帮派加气血上限"
[dd178]="帮派加气血上限"
[dd179]="帮派加气血上限"
[dd17a]="帮派加气血上限"
[dd17b]="帮派加气血上限"
[dd17c]="帮派加气血上限"
[dd17d]="帮派加气血上限"
[dd17e]="帮派加气血上限"
[dd17f]="帮派加气血上限"
[dd180]="帮派加气血上限"
[dd181]="帮派加外功攻击"
[dd182]="帮派加外功攻击"
[dd183]="帮派加外功攻击"
[dd184]="帮派加外功攻击"
[dd185]="帮派加外功攻击"
[dd186]="帮派加外功攻击"
[dd187]="帮派加外功攻击"
[dd188]="帮派加外功攻击"
[dd189]="帮派加外功攻击"
[dd18a]="帮派加外功攻击"
[dd18b]="帮派加外功攻击"
[dd18c]="帮派加外功攻击"
[dd18d]="帮派加外功攻击"
[dd18e]="帮派加外功攻击"
[dd18f]="帮派加外功攻击"
[dd190]="帮派加外功攻击"
[dd191]="帮派加外功攻击"
[dd192]="帮派加外功攻击"
[dd193]="帮派加外功攻击"
[dd194]="帮派加外功攻击"
[dd195]="帮派加外功攻击"
[dd196]="帮派加外功攻击"
[dd197]="帮派加外功攻击"
[dd198]="帮派加外功攻击"
[dd199]="帮派加外功攻击"
[dd19a]="帮派加外功攻击"
[dd19b]="帮派加外功攻击"
[dd19c]="帮派加外功攻击"
[dd19d]="帮派加外功攻击"
[dd19e]="帮派加外功攻击"
[dd19f]="帮派加外功攻击"
[dd1a0]="帮派加外功攻击"
[dd1a1]="帮派加外功攻击"
[dd1a2]="帮派加外功攻击"
[dd1a3]="帮派加外功攻击"
[dd1a4]="帮派加外功攻击"
[dd1a5]="帮派加外功攻击"
[dd1a6]="帮派加外功攻击"
[dd1a7]="帮派加外功攻击"
[dd1a8]="帮派加外功攻击"
[dd1a9]="帮派加外功攻击"
[dd1aa]="帮派加外功攻击"
[dd1ab]="帮派加外功攻击"
[dd1ac]="帮派加外功攻击"
[dd1ad]="帮派加外功攻击"
[dd1ae]="帮派加外功攻击"
[dd1af]="帮派加外功攻击"
[dd1b0]="帮派加外功攻击"
[dd1b1]="帮派加外功攻击"
[dd1b2]="帮派加外功攻击"
[dd1b3]="帮派加外功攻击"
[dd1b4]="帮派加外功攻击"
[dd1b5]="帮派加外功攻击"
[dd1b6]="帮派加外功攻击"
[dd1b7]="帮派加外功攻击"
[dd1b8]="帮派加外功攻击"
[dd1b9]="帮派加外功攻击"
[dd1ba]="帮派加外功攻击"
[dd1bb]="帮派加外功攻击"
[dd1bc]="帮派加外功攻击"
[dd1bd]="帮派加外功攻击"
[dd1be]="帮派加外功攻击"
[dd1bf]="帮派加外功攻击"
[dd1c0]="帮派加外功攻击"
[dd1c1]="帮派加外功攻击"
[dd1c2]="帮派加外功攻击"
[dd1c3]="帮派加外功攻击"
[dd1c4]="帮派加外功攻击"
[dd1c5]="帮派加外功攻击"
[dd1c6]="帮派加外功攻击"
[dd1c7]="帮派加外功攻击"
[dd1c8]="帮派加外功攻击"
[dd1c9]="帮派加外功攻击"
[dd1ca]="帮派加外功攻击"
[dd1cb]="帮派加外功攻击"
[dd1cc]="帮派加外功攻击"
[dd1cd]="帮派加外功攻击"
[dd1ce]="帮派加外功攻击"
[dd1cf]="帮派加外功攻击"
[dd1d0]="帮派加外功攻击"
[dd1d1]="帮派加外功攻击"
[dd1d2]="帮派加外功攻击"
[dd1d3]="帮派加外功攻击"
[dd1d4]="帮派加外功攻击"
[dd1d5]="帮派加外功攻击"
[dd1d6]="帮派加外功攻击"
[dd1d7]="帮派加外功攻击"
[dd1d8]="帮派加外功攻击"
[dd1d9]="帮派加外功攻击"
[dd1da]="帮派加外功攻击"
[dd1db]="帮派加外功攻击"
[dd1dc]="帮派加外功攻击"
[dd1dd]="帮派加外功攻击"
[dd1de]="帮派加外功攻击"
[dd1df]="帮派加外功攻击"
[dd1e0]="帮派加外功攻击"
[dd1e1]="帮派加外功攻击"
[dd1e2]="帮派加外功攻击"
[dd1e3]="帮派加外功攻击"
[dd1e4]="帮派加外功攻击"
[dd1e5]="帮派加内功攻击"
[dd1e6]="帮派加内功攻击"
[dd1e7]="帮派加内功攻击"
[dd1e8]="帮派加内功攻击"
[dd1e9]="帮派加内功攻击"
[dd1ea]="帮派加内功攻击"
[dd1eb]="帮派加内功攻击"
[dd1ec]="帮派加内功攻击"
[dd1ed]="帮派加内功攻击"
[dd1ee]="帮派加内功攻击"
[dd1ef]="帮派加内功攻击"
[dd1f0]="帮派加内功攻击"
[dd1f1]="帮派加内功攻击"
[dd1f2]="帮派加内功攻击"
[dd1f3]="帮派加内功攻击"
[dd1f4]="帮派加内功攻击"
[dd1f5]="帮派加内功攻击"
[dd1f6]="帮派加内功攻击"
[dd1f7]="帮派加内功攻击"
[dd1f8]="帮派加内功攻击"
[dd1f9]="帮派加内功攻击"
[dd1fa]="帮派加内功攻击"
[dd1fb]="帮派加内功攻击"
[dd1fc]="帮派加内功攻击"
[dd1fd]="帮派加内功攻击"
[dd1fe]="帮派加内功攻击"
[dd1ff]="帮派加内功攻击"
[dd200]="帮派加内功攻击"
[dd201]="帮派加内功攻击"
[dd202]="帮派加内功攻击"
[dd203]="帮派加内功攻击"
[dd204]="帮派加内功攻击"
[dd205]="帮派加内功攻击"
[dd206]="帮派加内功攻击"
[dd207]="帮派加内功攻击"
[dd208]="帮派加内功攻击"
[dd209]="帮派加内功攻击"
[dd20a]="帮派加内功攻击"
[dd20b]="帮派加内功攻击"
[dd20c]="帮派加内功攻击"
[dd20d]="帮派加内功攻击"
[dd20e]="帮派加内功攻击"
[dd20f]="帮派加内功攻击"
[dd210]="帮派加内功攻击"
[dd211]="帮派加内功攻击"
[dd212]="帮派加内功攻击"
[dd213]="帮派加内功攻击"
[dd214]="帮派加内功攻击"
[dd215]="帮派加内功攻击"
[dd216]="帮派加内功攻击"
[dd217]="帮派加内功攻击"
[dd218]="帮派加内功攻击"
[dd219]="帮派加内功攻击"
[dd21a]="帮派加内功攻击"
[dd21b]="帮派加内功攻击"
[dd21c]="帮派加内功攻击"
[dd21d]="帮派加内功攻击"
[dd21e]="帮派加内功攻击"
[dd21f]="帮派加内功攻击"
[dd220]="帮派加内功攻击"
[dd221]="帮派加内功攻击"
[dd222]="帮派加内功攻击"
[dd223]="帮派加内功攻击"
[dd224]="帮派加内功攻击"
[dd225]="帮派加内功攻击"
[dd226]="帮派加内功攻击"
[dd227]="帮派加内功攻击"
[dd228]="帮派加内功攻击"
[dd229]="帮派加内功攻击"
[dd22a]="帮派加内功攻击"
[dd22b]="帮派加内功攻击"
[dd22c]="帮派加内功攻击"
[dd22d]="帮派加内功攻击"
[dd22e]="帮派加内功攻击"
[dd22f]="帮派加内功攻击"
[dd230]="帮派加内功攻击"
[dd231]="帮派加内功攻击"
[dd232]="帮派加内功攻击"
[dd233]="帮派加内功攻击"
[dd234]="帮派加内功攻击"
[dd235]="帮派加内功攻击"
[dd236]="帮派加内功攻击"
[dd237]="帮派加内功攻击"
[dd238]="帮派加内功攻击"
[dd239]="帮派加内功攻击"
[dd23a]="帮派加内功攻击"
[dd23b]="帮派加内功攻击"
[dd23c]="帮派加内功攻击"
[dd23d]="帮派加内功攻击"
[dd23e]="帮派加内功攻击"
[dd23f]="帮派加内功攻击"
[dd240]="帮派加内功攻击"
[dd241]="帮派加内功攻击"
[dd242]="帮派加内功攻击"
[dd243]="帮派加内功攻击"
[dd244]="帮派加内功攻击"
[dd245]="帮派加内功攻击"
[dd246]="帮派加内功攻击"
[dd247]="帮派加内功攻击"
[dd248]="帮派加内功攻击"
[dd249]="帮派加内功防御"
[dd24a]="帮派加内功防御"
[dd24b]="帮派加内功防御"
[dd24c]="帮派加内功防御"
[dd24d]="帮派加内功防御"
[dd24e]="帮派加内功防御"
[dd24f]="帮派加内功防御"
[dd250]="帮派加内功防御"
[dd251]="帮派加内功防御"
[dd252]="帮派加内功防御"
[dd253]="帮派加内功防御"
[dd254]="帮派加内功防御"
[dd255]="帮派加内功防御"
[dd256]="帮派加内功防御"
[dd257]="帮派加内功防御"
[dd258]="帮派加内功防御"
[dd259]="帮派加内功防御"
[dd25a]="帮派加内功防御"
[dd25b]="帮派加内功防御"
[dd25c]="帮派加内功防御"
[dd25d]="帮派加内功防御"
[dd25e]="帮派加内功防御"
[dd25f]="帮派加内功防御"
[dd260]="帮派加内功防御"
[dd261]="帮派加内功防御"
[dd262]="帮派加内功防御"
[dd263]="帮派加内功防御"
[dd264]="帮派加内功防御"
[dd265]="帮派加内功防御"
[dd266]="帮派加内功防御"
[dd267]="帮派加内功防御"
[dd268]="帮派加内功防御"
[dd269]="帮派加内功防御"
[dd26a]="帮派加内功防御"
[dd26b]="帮派加内功防御"
[dd26c]="帮派加内功防御"
[dd26d]="帮派加内功防御"
[dd26e]="帮派加内功防御"
[dd26f]="帮派加内功防御"
[dd270]="帮派加内功防御"
[dd271]="帮派加内功防御"
[dd272]="帮派加内功防御"
[dd273]="帮派加内功防御"
[dd274]="帮派加内功防御"
[dd275]="帮派加内功防御"
[dd276]="帮派加内功防御"
[dd277]="帮派加内功防御"
[dd278]="帮派加内功防御"
[dd279]="帮派加内功防御"
[dd27a]="帮派加内功防御"
[dd27b]="帮派加内功防御"
[dd27c]="帮派加内功防御"
[dd27d]="帮派加内功防御"
[dd27e]="帮派加内功防御"
[dd27f]="帮派加内功防御"
[dd280]="帮派加内功防御"
[dd281]="帮派加内功防御"
[dd282]="帮派加内功防御"
[dd283]="帮派加内功防御"
[dd284]="帮派加内功防御"
[dd285]="帮派加内功防御"
[dd286]="帮派加内功防御"
[dd287]="帮派加内功防御"
[dd288]="帮派加内功防御"
[dd289]="帮派加内功防御"
[dd28a]="帮派加内功防御"
[dd28b]="帮派加内功防御"
[dd28c]="帮派加内功防御"
[dd28d]="帮派加内功防御"
[dd28e]="帮派加内功防御"
[dd28f]="帮派加内功防御"
[dd290]="帮派加内功防御"
[dd291]="帮派加内功防御"
[dd292]="帮派加内功防御"
[dd293]="帮派加内功防御"
[dd294]="帮派加内功防御"
[dd295]="帮派加内功防御"
[dd296]="帮派加内功防御"
[dd297]="帮派加内功防御"
[dd298]="帮派加内功防御"
[dd299]="帮派加内功防御"
[dd29a]="帮派加内功防御"
[dd29b]="帮派加内功防御"
[dd29c]="帮派加内功防御"
[dd29d]="帮派加内功防御"
[dd29e]="帮派加内功防御"
[dd29f]="帮派加内功防御"
[dd2a0]="帮派加内功防御"
[dd2a1]="帮派加内功防御"
[dd2a2]="帮派加内功防御"
[dd2a3]="帮派加内功防御"
[dd2a4]="帮派加内功防御"
[dd2a5]="帮派加内功防御"
[dd2a6]="帮派加内功防御"
[dd2a7]="帮派加内功防御"
[dd2a8]="帮派加内功防御"
[dd2a9]="帮派加内功防御"
[dd2aa]="帮派加内功防御"
[dd2ab]="帮派加内功防御"
[dd2ac]="帮派加内功防御"
[dd2ad]="帮派加外功防御"
[dd2ae]="帮派加外功防御"
[dd2af]="帮派加外功防御"
[dd2b0]="帮派加外功防御"
[dd2b1]="帮派加外功防御"
[dd2b2]="帮派加外功防御"
[dd2b3]="帮派加外功防御"
[dd2b4]="帮派加外功防御"
[dd2b5]="帮派加外功防御"
[dd2b6]="帮派加外功防御"
[dd2b7]="帮派加外功防御"
[dd2b8]="帮派加外功防御"
[dd2b9]="帮派加外功防御"
[dd2ba]="帮派加外功防御"
[dd2bb]="帮派加外功防御"
[dd2bc]="帮派加外功防御"
[dd2bd]="帮派加外功防御"
[dd2be]="帮派加外功防御"
[dd2bf]="帮派加外功防御"
[dd2c0]="帮派加外功防御"
[dd2c1]="帮派加外功防御"
[dd2c2]="帮派加外功防御"
[dd2c3]="帮派加外功防御"
[dd2c4]="帮派加外功防御"
[dd2c5]="帮派加外功防御"
[dd2c6]="帮派加外功防御"
[dd2c7]="帮派加外功防御"
[dd2c8]="帮派加外功防御"
[dd2c9]="帮派加外功防御"
[dd2ca]="帮派加外功防御"
[dd2cb]="帮派加外功防御"
[dd2cc]="帮派加外功防御"
[dd2cd]="帮派加外功防御"
[dd2ce]="帮派加外功防御"
[dd2cf]="帮派加外功防御"
[dd2d0]="帮派加外功防御"
[dd2d1]="帮派加外功防御"
[dd2d2]="帮派加外功防御"
[dd2d3]="帮派加外功防御"
[dd2d4]="帮派加外功防御"
[dd2d5]="帮派加外功防御"
[dd2d6]="帮派加外功防御"
[dd2d7]="帮派加外功防御"
[dd2d8]="帮派加外功防御"
[dd2d9]="帮派加外功防御"
[dd2da]="帮派加外功防御"
[dd2db]="帮派加外功防御"
[dd2dc]="帮派加外功防御"
[dd2dd]="帮派加外功防御"
[dd2de]="帮派加外功防御"
[dd2df]="帮派加外功防御"
[dd2e0]="帮派加外功防御"
[dd2e1]="帮派加外功防御"
[dd2e2]="帮派加外功防御"
[dd2e3]="帮派加外功防御"
[dd2e4]="帮派加外功防御"
[dd2e5]="帮派加外功防御"
[dd2e6]="帮派加外功防御"
[dd2e7]="帮派加外功防御"
[dd2e8]="帮派加外功防御"
[dd2e9]="帮派加外功防御"
[dd2ea]="帮派加外功防御"
[dd2eb]="帮派加外功防御"
[dd2ec]="帮派加外功防御"
[dd2ed]="帮派加外功防御"
[dd2ee]="帮派加外功防御"
[dd2ef]="帮派加外功防御"
[dd2f0]="帮派加外功防御"
[dd2f1]="帮派加外功防御"
[dd2f2]="帮派加外功防御"
[dd2f3]="帮派加外功防御"
[dd2f4]="帮派加外功防御"
[dd2f5]="帮派加外功防御"
[dd2f6]="帮派加外功防御"
[dd2f7]="帮派加外功防御"
[dd2f8]="帮派加外功防御"
[dd2f9]="帮派加外功防御"
[dd2fa]="帮派加外功防御"
[dd2fb]="帮派加外功防御"
[dd2fc]="帮派加外功防御"
[dd2fd]="帮派加外功防御"
[dd2fe]="帮派加外功防御"
[dd2ff]="帮派加外功防御"
[dd300]="帮派加外功防御"
[dd301]="帮派加外功防御"
[dd302]="帮派加外功防御"
[dd303]="帮派加外功防御"
[dd304]="帮派加外功防御"
[dd305]="帮派加外功防御"
[dd306]="帮派加外功防御"
[dd307]="帮派加外功防御"
[dd308]="帮派加外功防御"
[dd309]="帮派加外功防御"
[dd30a]="帮派加外功防御"
[dd30b]="帮派加外功防御"
[dd30c]="帮派加外功防御"
[dd30d]="帮派加外功防御"
[dd30e]="帮派加外功防御"
[dd30f]="帮派加外功防御"
[dd310]="帮派加外功防御"
[dd311]="帮派加命中"
[dd312]="帮派加命中"
[dd313]="帮派加命中"
[dd314]="帮派加命中"
[dd315]="帮派加命中"
[dd316]="帮派加命中"
[dd317]="帮派加命中"
[dd318]="帮派加命中"
[dd319]="帮派加命中"
[dd31a]="帮派加命中"
[dd31b]="帮派加命中"
[dd31c]="帮派加命中"
[dd31d]="帮派加命中"
[dd31e]="帮派加命中"
[dd31f]="帮派加命中"
[dd320]="帮派加命中"
[dd321]="帮派加命中"
[dd322]="帮派加命中"
[dd323]="帮派加命中"
[dd324]="帮派加命中"
[dd325]="帮派加命中"
[dd326]="帮派加命中"
[dd327]="帮派加命中"
[dd328]="帮派加命中"
[dd329]="帮派加命中"
[dd32a]="帮派加命中"
[dd32b]="帮派加命中"
[dd32c]="帮派加命中"
[dd32d]="帮派加命中"
[dd32e]="帮派加命中"
[dd32f]="帮派加命中"
[dd330]="帮派加命中"
[dd331]="帮派加命中"
[dd332]="帮派加命中"
[dd333]="帮派加命中"
[dd334]="帮派加命中"
[dd335]="帮派加命中"
[dd336]="帮派加命中"
[dd337]="帮派加命中"
[dd338]="帮派加命中"
[dd339]="帮派加命中"
[dd33a]="帮派加命中"
[dd33b]="帮派加命中"
[dd33c]="帮派加命中"
[dd33d]="帮派加命中"
[dd33e]="帮派加命中"
[dd33f]="帮派加命中"
[dd340]="帮派加命中"
[dd341]="帮派加命中"
[dd342]="帮派加命中"
[dd343]="帮派加命中"
[dd344]="帮派加命中"
[dd345]="帮派加命中"
[dd346]="帮派加命中"
[dd347]="帮派加命中"
[dd348]="帮派加命中"
[dd349]="帮派加命中"
[dd34a]="帮派加命中"
[dd34b]="帮派加命中"
[dd34c]="帮派加命中"
[dd34d]="帮派加命中"
[dd34e]="帮派加命中"
[dd34f]="帮派加命中"
[dd350]="帮派加命中"
[dd351]="帮派加命中"
[dd352]="帮派加命中"
[dd353]="帮派加命中"
[dd354]="帮派加命中"
[dd355]="帮派加命中"
[dd356]="帮派加命中"
[dd357]="帮派加命中"
[dd358]="帮派加命中"
[dd359]="帮派加命中"
[dd35a]="帮派加命中"
[dd35b]="帮派加命中"
[dd35c]="帮派加命中"
[dd35d]="帮派加命中"
[dd35e]="帮派加命中"
[dd35f]="帮派加命中"
[dd360]="帮派加命中"
[dd361]="帮派加命中"
[dd362]="帮派加命中"
[dd363]="帮派加命中"
[dd364]="帮派加命中"
[dd365]="帮派加命中"
[dd366]="帮派加命中"
[dd367]="帮派加命中"
[dd368]="帮派加命中"
[dd369]="帮派加命中"
[dd36a]="帮派加命中"
[dd36b]="帮派加命中"
[dd36c]="帮派加命中"
[dd36d]="帮派加命中"
[dd36e]="帮派加命中"
[dd36f]="帮派加命中"
[dd370]="帮派加命中"
[dd371]="帮派加命中"
[dd372]="帮派加命中"
[dd373]="帮派加命中"
[dd374]="帮派加命中"
[dd375]="帮派加闪避"
[dd376]="帮派加闪避"
[dd377]="帮派加闪避"
[dd378]="帮派加闪避"
[dd379]="帮派加闪避"
[dd37a]="帮派加闪避"
[dd37b]="帮派加闪避"
[dd37c]="帮派加闪避"
[dd37d]="帮派加闪避"
[dd37e]="帮派加闪避"
[dd37f]="帮派加闪避"
[dd380]="帮派加闪避"
[dd381]="帮派加闪避"
[dd382]="帮派加闪避"
[dd383]="帮派加闪避"
[dd384]="帮派加闪避"
[dd385]="帮派加闪避"
[dd386]="帮派加闪避"
[dd387]="帮派加闪避"
[dd388]="帮派加闪避"
[dd389]="帮派加闪避"
[dd38a]="帮派加闪避"
[dd38b]="帮派加闪避"
[dd38c]="帮派加闪避"
[dd38d]="帮派加闪避"
[dd38e]="帮派加闪避"
[dd38f]="帮派加闪避"
[dd390]="帮派加闪避"
[dd391]="帮派加闪避"
[dd392]="帮派加闪避"
[dd393]="帮派加闪避"
[dd394]="帮派加闪避"
[dd395]="帮派加闪避"
[dd396]="帮派加闪避"
[dd397]="帮派加闪避"
[dd398]="帮派加闪避"
[dd399]="帮派加闪避"
[dd39a]="帮派加闪避"
[dd39b]="帮派加闪避"
[dd39c]="帮派加闪避"
[dd39d]="帮派加闪避"
[dd39e]="帮派加闪避"
[dd39f]="帮派加闪避"
[dd3a0]="帮派加闪避"
[dd3a1]="帮派加闪避"
[dd3a2]="帮派加闪避"
[dd3a3]="帮派加闪避"
[dd3a4]="帮派加闪避"
[dd3a5]="帮派加闪避"
[dd3a6]="帮派加闪避"
[dd3a7]="帮派加闪避"
[dd3a8]="帮派加闪避"
[dd3a9]="帮派加闪避"
[dd3aa]="帮派加闪避"
[dd3ab]="帮派加闪避"
[dd3ac]="帮派加闪避"
[dd3ad]="帮派加闪避"
[dd3ae]="帮派加闪避"
[dd3af]="帮派加闪避"
[dd3b0]="帮派加闪避"
[dd3b1]="帮派加闪避"
[dd3b2]="帮派加闪避"
[dd3b3]="帮派加闪避"
[dd3b4]="帮派加闪避"
[dd3b5]="帮派加闪避"
[dd3b6]="帮派加闪避"
[dd3b7]="帮派加闪避"
[dd3b8]="帮派加闪避"
[dd3b9]="帮派加闪避"
[dd3ba]="帮派加闪避"
[dd3bb]="帮派加闪避"
[dd3bc]="帮派加闪避"
[dd3bd]="帮派加闪避"
[dd3be]="帮派加闪避"
[dd3bf]="帮派加闪避"
[dd3c0]="帮派加闪避"
[dd3c1]="帮派加闪避"
[dd3c2]="帮派加闪避"
[dd3c3]="帮派加闪避"
[dd3c4]="帮派加闪避"
[dd3c5]="帮派加闪避"
[dd3c6]="帮派加闪避"
[dd3c7]="帮派加闪避"
[dd3c8]="帮派加闪避"
[dd3c9]="帮派加闪避"
[dd3ca]="帮派加闪避"
[dd3cb]="帮派加闪避"
[dd3cc]="帮派加闪避"
[dd3cd]="帮派加闪避"
[dd3ce]="帮派加闪避"
[dd3cf]="帮派加闪避"
[dd3d0]="帮派加闪避"
[dd3d1]="帮派加闪避"
[dd3d2]="帮派加闪避"
[dd3d3]="帮派加闪避"
[dd3d4]="帮派加闪避"
[dd3d5]="帮派加闪避"
[dd3d6]="帮派加闪避"
[dd3d7]="帮派加闪避"
[dd3d8]="帮派加闪避"
[dd3d9]="帮派加暴击"
[dd3da]="帮派加暴击"
[dd3db]="帮派加暴击"
[dd3dc]="帮派加暴击"
[dd3dd]="帮派加暴击"
[dd3de]="帮派加暴击"
[dd3df]="帮派加暴击"
[dd3e0]="帮派加暴击"
[dd3e1]="帮派加暴击"
[dd3e2]="帮派加暴击"
[dd3e3]="帮派加暴击"
[dd3e4]="帮派加暴击"
[dd3e5]="帮派加暴击"
[dd3e6]="帮派加暴击"
[dd3e7]="帮派加暴击"
[dd3e8]="帮派加暴击"
[dd3e9]="帮派加暴击"
[dd3ea]="帮派加暴击"
[dd3eb]="帮派加暴击"
[dd3ec]="帮派加暴击"
[dd3ed]="帮派加暴击"
[dd3ee]="帮派加暴击"
[dd3ef]="帮派加暴击"
[dd3f0]="帮派加暴击"
[dd3f1]="帮派加暴击"
[dd3f2]="帮派加暴击"
[dd3f3]="帮派加暴击"
[dd3f4]="帮派加暴击"
[dd3f5]="帮派加暴击"
[dd3f6]="帮派加暴击"
[dd3f7]="帮派加暴击"
[dd3f8]="帮派加暴击"
[dd3f9]="帮派加暴击"
[dd3fa]="帮派加暴击"
[dd3fb]="帮派加暴击"
[dd3fc]="帮派加暴击"
[dd3fd]="帮派加暴击"
[dd3fe]="帮派加暴击"
[dd3ff]="帮派加暴击"
[dd400]="帮派加暴击"
[dd401]="帮派加暴击"
[dd402]="帮派加暴击"
[dd403]="帮派加暴击"
[dd404]="帮派加暴击"
[dd405]="帮派加暴击"
[dd406]="帮派加暴击"
[dd407]="帮派加暴击"
[dd408]="帮派加暴击"
[dd409]="帮派加暴击"
[dd40a]="帮派加暴击"
[dd40b]="帮派加暴击"
[dd40c]="帮派加暴击"
[dd40d]="帮派加暴击"
[dd40e]="帮派加暴击"
[dd40f]="帮派加暴击"
[dd410]="帮派加暴击"
[dd411]="帮派加暴击"
[dd412]="帮派加暴击"
[dd413]="帮派加暴击"
[dd414]="帮派加暴击"
[dd415]="帮派加暴击"
[dd416]="帮派加暴击"
[dd417]="帮派加暴击"
[dd418]="帮派加暴击"
[dd419]="帮派加暴击"
[dd41a]="帮派加暴击"
[dd41b]="帮派加暴击"
[dd41c]="帮派加暴击"
[dd41d]="帮派加暴击"
[dd41e]="帮派加暴击"
[dd41f]="帮派加暴击"
[dd420]="帮派加暴击"
[dd421]="帮派加暴击"
[dd422]="帮派加暴击"
[dd423]="帮派加暴击"
[dd424]="帮派加暴击"
[dd425]="帮派加暴击"
[dd426]="帮派加暴击"
[dd427]="帮派加暴击"
[dd428]="帮派加暴击"
[dd429]="帮派加暴击"
[dd42a]="帮派加暴击"
[dd42b]="帮派加暴击"
[dd42c]="帮派加暴击"
[dd42d]="帮派加暴击"
[dd42e]="帮派加暴击"
[dd42f]="帮派加暴击"
[dd430]="帮派加暴击"
[dd431]="帮派加暴击"
[dd432]="帮派加暴击"
[dd433]="帮派加暴击"
[dd434]="帮派加暴击"
[dd435]="帮派加暴击"
[dd436]="帮派加暴击"
[dd437]="帮派加暴击"
[dd438]="帮派加暴击"
[dd439]="帮派加暴击"
[dd43a]="帮派加暴击"
[dd43b]="帮派加暴击"
[dd43c]="帮派加暴击"
[dd43d]="帮派加韧性"
[dd43e]="帮派加韧性"
[dd43f]="帮派加韧性"
[dd440]="帮派加韧性"
[dd441]="帮派加韧性"
[dd442]="帮派加韧性"
[dd443]="帮派加韧性"
[dd444]="帮派加韧性"
[dd445]="帮派加韧性"
[dd446]="帮派加韧性"
[dd447]="帮派加韧性"
[dd448]="帮派加韧性"
[dd449]="帮派加韧性"
[dd44a]="帮派加韧性"
[dd44b]="帮派加韧性"
[dd44c]="帮派加韧性"
[dd44d]="帮派加韧性"
[dd44e]="帮派加韧性"
[dd44f]="帮派加韧性"
[dd450]="帮派加韧性"
[dd451]="帮派加韧性"
[dd452]="帮派加韧性"
[dd453]="帮派加韧性"
[dd454]="帮派加韧性"
[dd455]="帮派加韧性"
[dd456]="帮派加韧性"
[dd457]="帮派加韧性"
[dd458]="帮派加韧性"
[dd459]="帮派加韧性"
[dd45a]="帮派加韧性"
[dd45b]="帮派加韧性"
[dd45c]="帮派加韧性"
[dd45d]="帮派加韧性"
[dd45e]="帮派加韧性"
[dd45f]="帮派加韧性"
[dd460]="帮派加韧性"
[dd461]="帮派加韧性"
[dd462]="帮派加韧性"
[dd463]="帮派加韧性"
[dd464]="帮派加韧性"
[dd465]="帮派加韧性"
[dd466]="帮派加韧性"
[dd467]="帮派加韧性"
[dd468]="帮派加韧性"
[dd469]="帮派加韧性"
[dd46a]="帮派加韧性"
[dd46b]="帮派加韧性"
[dd46c]="帮派加韧性"
[dd46d]="帮派加韧性"
[dd46e]="帮派加韧性"
[dd46f]="帮派加韧性"
[dd470]="帮派加韧性"
[dd471]="帮派加韧性"
[dd472]="帮派加韧性"
[dd473]="帮派加韧性"
[dd474]="帮派加韧性"
[dd475]="帮派加韧性"
[dd476]="帮派加韧性"
[dd477]="帮派加韧性"
[dd478]="帮派加韧性"
[dd479]="帮派加韧性"
[dd47a]="帮派加韧性"
[dd47b]="帮派加韧性"
[dd47c]="帮派加韧性"
[dd47d]="帮派加韧性"
[dd47e]="帮派加韧性"
[dd47f]="帮派加韧性"
[dd480]="帮派加韧性"
[dd481]="帮派加韧性"
[dd482]="帮派加韧性"
[dd483]="帮派加韧性"
[dd484]="帮派加韧性"
[dd485]="帮派加韧性"
[dd486]="帮派加韧性"
[dd487]="帮派加韧性"
[dd488]="帮派加韧性"
[dd489]="帮派加韧性"
[dd48a]="帮派加韧性"
[dd48b]="帮派加韧性"
[dd48c]="帮派加韧性"
[dd48d]="帮派加韧性"
[dd48e]="帮派加韧性"
[dd48f]="帮派加韧性"
[dd490]="帮派加韧性"
[dd491]="帮派加韧性"
[dd492]="帮派加韧性"
[dd493]="帮派加韧性"
[dd494]="帮派加韧性"
[dd495]="帮派加韧性"
[dd496]="帮派加韧性"
[dd497]="帮派加韧性"
[dd498]="帮派加韧性"
[dd499]="帮派加韧性"
[dd49a]="帮派加韧性"
[dd49b]="帮派加韧性"
[dd49c]="帮派加韧性"
[dd49d]="帮派加韧性"
[dd49e]="帮派加韧性"
[dd49f]="帮派加韧性"
[dd4a0]="帮派加韧性"
[dd4a1]="帮派减韧性"
[dd4a2]="帮派减韧性"
[dd4a3]="帮派减韧性"
[dd4a4]="帮派减韧性"
[dd4a5]="帮派减韧性"
[dd4a6]="帮派减韧性"
[dd4a7]="帮派减韧性"
[dd4a8]="帮派减韧性"
[dd4a9]="帮派减韧性"
[dd4aa]="帮派减韧性"
[dd4ab]="帮派减韧性"
[dd4ac]="帮派减韧性"
[dd4ad]="帮派减韧性"
[dd4ae]="帮派减韧性"
[dd4af]="帮派减韧性"
[dd4b0]="帮派减韧性"
[dd4b1]="帮派减韧性"
[dd4b2]="帮派减韧性"
[dd4b3]="帮派减韧性"
[dd4b4]="帮派减韧性"
[dd4b5]="帮派减韧性"
[dd4b6]="帮派减韧性"
[dd4b7]="帮派减韧性"
[dd4b8]="帮派减韧性"
[dd4b9]="帮派减韧性"
[dd4ba]="帮派减韧性"
[dd4bb]="帮派减韧性"
[dd4bc]="帮派减韧性"
[dd4bd]="帮派减韧性"
[dd4be]="帮派减韧性"
[dd4bf]="帮派减韧性"
[dd4c0]="帮派减韧性"
[dd4c1]="帮派减韧性"
[dd4c2]="帮派减韧性"
[dd4c3]="帮派减韧性"
[dd4c4]="帮派减韧性"
[dd4c5]="帮派减韧性"
[dd4c6]="帮派减韧性"
[dd4c7]="帮派减韧性"
[dd4c8]="帮派减韧性"
[dd4c9]="帮派减韧性"
[dd4ca]="帮派减韧性"
[dd4cb]="帮派减韧性"
[dd4cc]="帮派减韧性"
[dd4cd]="帮派减韧性"
[dd4ce]="帮派减韧性"
[dd4cf]="帮派减韧性"
[dd4d0]="帮派减韧性"
[dd4d1]="帮派减韧性"
[dd4d2]="帮派减韧性"
[dd4d3]="帮派减韧性"
[dd4d4]="帮派减韧性"
[dd4d5]="帮派减韧性"
[dd4d6]="帮派减韧性"
[dd4d7]="帮派减韧性"
[dd4d8]="帮派减韧性"
[dd4d9]="帮派减韧性"
[dd4da]="帮派减韧性"
[dd4db]="帮派减韧性"
[dd4dc]="帮派减韧性"
[dd4dd]="帮派减韧性"
[dd4de]="帮派减韧性"
[dd4df]="帮派减韧性"
[dd4e0]="帮派减韧性"
[dd4e1]="帮派减韧性"
[dd4e2]="帮派减韧性"
[dd4e3]="帮派减韧性"
[dd4e4]="帮派减韧性"
[dd4e5]="帮派减韧性"
[dd4e6]="帮派减韧性"
[dd4e7]="帮派减韧性"
[dd4e8]="帮派减韧性"
[dd4e9]="帮派减韧性"
[dd4ea]="帮派减韧性"
[dd4eb]="帮派减韧性"
[dd4ec]="帮派减韧性"
[dd4ed]="帮派减韧性"
[dd4ee]="帮派减韧性"
[dd4ef]="帮派减韧性"
[dd4f0]="帮派减韧性"
[dd4f1]="帮派减韧性"
[dd4f2]="帮派减韧性"
[dd4f3]="帮派减韧性"
[dd4f4]="帮派减韧性"
[dd4f5]="帮派减韧性"
[dd4f6]="帮派减韧性"
[dd4f7]="帮派减韧性"
[dd4f8]="帮派减韧性"
[dd4f9]="帮派减韧性"
[dd4fa]="帮派减韧性"
[dd4fb]="帮派减韧性"
[dd4fc]="帮派减韧性"
[dd4fd]="帮派减韧性"
[dd4fe]="帮派减韧性"
[dd4ff]="帮派减韧性"
[dd500]="帮派减韧性"
[dd501]="帮派减韧性"
[dd502]="帮派减韧性"
[dd503]="帮派减韧性"
[dd504]="帮派减韧性"
[dd505]="帮派暴击抵抗"
[dd506]="帮派暴击抵抗"
[dd507]="帮派暴击抵抗"
[dd508]="帮派暴击抵抗"
[dd509]="帮派暴击抵抗"
[dd50a]="帮派暴击抵抗"
[dd50b]="帮派暴击抵抗"
[dd50c]="帮派暴击抵抗"
[dd50d]="帮派暴击抵抗"
[dd50e]="帮派暴击抵抗"
[dd50f]="帮派暴击抵抗"
[dd510]="帮派暴击抵抗"
[dd511]="帮派暴击抵抗"
[dd512]="帮派暴击抵抗"
[dd513]="帮派暴击抵抗"
[dd514]="帮派暴击抵抗"
[dd515]="帮派暴击抵抗"
[dd516]="帮派暴击抵抗"
[dd517]="帮派暴击抵抗"
[dd518]="帮派暴击抵抗"
[dd519]="帮派暴击抵抗"
[dd51a]="帮派暴击抵抗"
[dd51b]="帮派暴击抵抗"
[dd51c]="帮派暴击抵抗"
[dd51d]="帮派暴击抵抗"
[dd51e]="帮派暴击抵抗"
[dd51f]="帮派暴击抵抗"
[dd520]="帮派暴击抵抗"
[dd521]="帮派暴击抵抗"
[dd522]="帮派暴击抵抗"
[dd523]="帮派暴击抵抗"
[dd524]="帮派暴击抵抗"
[dd525]="帮派暴击抵抗"
[dd526]="帮派暴击抵抗"
[dd527]="帮派暴击抵抗"
[dd528]="帮派暴击抵抗"
[dd529]="帮派暴击抵抗"
[dd52a]="帮派暴击抵抗"
[dd52b]="帮派暴击抵抗"
[dd52c]="帮派暴击抵抗"
[dd52d]="帮派暴击抵抗"
[dd52e]="帮派暴击抵抗"
[dd52f]="帮派暴击抵抗"
[dd530]="帮派暴击抵抗"
[dd531]="帮派暴击抵抗"
[dd532]="帮派暴击抵抗"
[dd533]="帮派暴击抵抗"
[dd534]="帮派暴击抵抗"
[dd535]="帮派暴击抵抗"
[dd536]="帮派暴击抵抗"
[dd537]="帮派暴击抵抗"
[dd538]="帮派暴击抵抗"
[dd539]="帮派暴击抵抗"
[dd53a]="帮派暴击抵抗"
[dd53b]="帮派暴击抵抗"
[dd53c]="帮派暴击抵抗"
[dd53d]="帮派暴击抵抗"
[dd53e]="帮派暴击抵抗"
[dd53f]="帮派暴击抵抗"
[dd540]="帮派暴击抵抗"
[dd541]="帮派暴击抵抗"
[dd542]="帮派暴击抵抗"
[dd543]="帮派暴击抵抗"
[dd544]="帮派暴击抵抗"
[dd545]="帮派暴击抵抗"
[dd546]="帮派暴击抵抗"
[dd547]="帮派暴击抵抗"
[dd548]="帮派暴击抵抗"
[dd549]="帮派暴击抵抗"
[dd54a]="帮派暴击抵抗"
[dd54b]="帮派暴击抵抗"
[dd54c]="帮派暴击抵抗"
[dd54d]="帮派暴击抵抗"
[dd54e]="帮派暴击抵抗"
[dd54f]="帮派暴击抵抗"
[dd550]="帮派暴击抵抗"
[dd551]="帮派暴击抵抗"
[dd552]="帮派暴击抵抗"
[dd553]="帮派暴击抵抗"
[dd554]="帮派暴击抵抗"
[dd555]="帮派暴击抵抗"
[dd556]="帮派暴击抵抗"
[dd557]="帮派暴击抵抗"
[dd558]="帮派暴击抵抗"
[dd559]="帮派暴击抵抗"
[dd55a]="帮派暴击抵抗"
[dd55b]="帮派暴击抵抗"
[dd55c]="帮派暴击抵抗"
[dd55d]="帮派暴击抵抗"
[dd55e]="帮派暴击抵抗"
[dd55f]="帮派暴击抵抗"
[dd560]="帮派暴击抵抗"
[dd561]="帮派暴击抵抗"
[dd562]="帮派暴击抵抗"
[dd563]="帮派暴击抵抗"
[dd564]="帮派暴击抵抗"
[dd565]="帮派暴击抵抗"
[dd566]="帮派暴击抵抗"
[dd567]="帮派暴击抵抗"
[dd568]="帮派暴击抵抗"
[dd569]="帮派暴击伤害"
[dd56a]="帮派暴击伤害"
[dd56b]="帮派暴击伤害"
[dd56c]="帮派暴击伤害"
[dd56d]="帮派暴击伤害"
[dd56e]="帮派暴击伤害"
[dd56f]="帮派暴击伤害"
[dd570]="帮派暴击伤害"
[dd571]="帮派暴击伤害"
[dd572]="帮派暴击伤害"
[dd573]="帮派暴击伤害"
[dd574]="帮派暴击伤害"
[dd575]="帮派暴击伤害"
[dd576]="帮派暴击伤害"
[dd577]="帮派暴击伤害"
[dd578]="帮派暴击伤害"
[dd579]="帮派暴击伤害"
[dd57a]="帮派暴击伤害"
[dd57b]="帮派暴击伤害"
[dd57c]="帮派暴击伤害"
[dd57d]="帮派暴击伤害"
[dd57e]="帮派暴击伤害"
[dd57f]="帮派暴击伤害"
[dd580]="帮派暴击伤害"
[dd581]="帮派暴击伤害"
[dd582]="帮派暴击伤害"
[dd583]="帮派暴击伤害"
[dd584]="帮派暴击伤害"
[dd585]="帮派暴击伤害"
[dd586]="帮派暴击伤害"
[dd587]="帮派暴击伤害"
[dd588]="帮派暴击伤害"
[dd589]="帮派暴击伤害"
[dd58a]="帮派暴击伤害"
[dd58b]="帮派暴击伤害"
[dd58c]="帮派暴击伤害"
[dd58d]="帮派暴击伤害"
[dd58e]="帮派暴击伤害"
[dd58f]="帮派暴击伤害"
[dd590]="帮派暴击伤害"
[dd591]="帮派暴击伤害"
[dd592]="帮派暴击伤害"
[dd593]="帮派暴击伤害"
[dd594]="帮派暴击伤害"
[dd595]="帮派暴击伤害"
[dd596]="帮派暴击伤害"
[dd597]="帮派暴击伤害"
[dd598]="帮派暴击伤害"
[dd599]="帮派暴击伤害"
[dd59a]="帮派暴击伤害"
[dd59b]="帮派暴击伤害"
[dd59c]="帮派暴击伤害"
[dd59d]="帮派暴击伤害"
[dd59e]="帮派暴击伤害"
[dd59f]="帮派暴击伤害"
[dd5a0]="帮派暴击伤害"
[dd5a1]="帮派暴击伤害"
[dd5a2]="帮派暴击伤害"
[dd5a3]="帮派暴击伤害"
[dd5a4]="帮派暴击伤害"
[dd5a5]="帮派暴击伤害"
[dd5a6]="帮派暴击伤害"
[dd5a7]="帮派暴击伤害"
[dd5a8]="帮派暴击伤害"
[dd5a9]="帮派暴击伤害"
[dd5aa]="帮派暴击伤害"
[dd5ab]="帮派暴击伤害"
[dd5ac]="帮派暴击伤害"
[dd5ad]="帮派暴击伤害"
[dd5ae]="帮派暴击伤害"
[dd5af]="帮派暴击伤害"
[dd5b0]="帮派暴击伤害"
[dd5b1]="帮派暴击伤害"
[dd5b2]="帮派暴击伤害"
[dd5b3]="帮派暴击伤害"
[dd5b4]="帮派暴击伤害"
[dd5b5]="帮派暴击伤害"
[dd5b6]="帮派暴击伤害"
[dd5b7]="帮派暴击伤害"
[dd5b8]="帮派暴击伤害"
[dd5b9]="帮派暴击伤害"
[dd5ba]="帮派暴击伤害"
[dd5bb]="帮派暴击伤害"
[dd5bc]="帮派暴击伤害"
[dd5bd]="帮派暴击伤害"
[dd5be]="帮派暴击伤害"
[dd5bf]="帮派暴击伤害"
[dd5c0]="帮派暴击伤害"
[dd5c1]="帮派暴击伤害"
[dd5c2]="帮派暴击伤害"
[dd5c3]="帮派暴击伤害"
[dd5c4]="帮派暴击伤害"
[dd5c5]="帮派暴击伤害"
[dd5c6]="帮派暴击伤害"
[dd5c7]="帮派暴击伤害"
[dd5c8]="帮派暴击伤害"
[dd5c9]="帮派暴击伤害"
[dd5ca]="帮派暴击伤害"
[dd5cb]="帮派暴击伤害"
[dd5cc]="帮派暴击伤害"
[de2b6]="内劲"
[de2b7]="内劲"
[de2b8]="内劲"
[de2b9]="内劲"
[de2ba]="内劲"
[de2bb]="洞察"
[de2bc]="洞察"
[de2bd]="洞察"
[de2be]="洞察"
[de2bf]="洞察"
[de2c0]="健体"
[de2c1]="健体"
[de2c2]="健体"
[de2c3]="健体"
[de2c4]="健体"
[de2cf]="风雷一剑"
[de2d0]="飞燕逐月"
[de2d1]="九龙鸣"
[de2d3]="开启狩猎"
[de2d4]="关闭狩猎"
[de2d5]="射击"
[de2d6]="创作"
[de2d9]="苗天王（H体型）轻功追击-入口"
[de2e3]="江湖助战"
[de2e4]="寒林疏芳"
[de2e8]="破定技·芳华一瞬"
[de2e9]="琴心三叠"
[de315]="觅影"
[de316]="觅影"
[de317]="觅影"
[de318]="觅影"
[de319]="觅影"
[de347]="踩阵"
[de348]="踩阵"
[de349]="踩阵"
[de34a]="踩阵"
[de34b]="踩阵"
[e0e0d]="游侠根骨"
[e0e0e]="游侠根骨"
[e0e0f]="游侠根骨"
[e0e10]="游侠根骨"
[e0e11]="游侠根骨"
[e0e71]="游侠外功攻击"
[e0e72]="游侠外功攻击"
[e0e73]="游侠外功攻击"
[e0e74]="游侠外功攻击"
[e0e75]="游侠外功攻击"
[e11f5]="猎户力道"
[e11f6]="猎户力道"
[e11f7]="猎户力道"
[e11f8]="猎户力道"
[e11f9]="猎户力道"
[e1259]="猎户韧劲"
[e125a]="猎户韧劲"
[e125b]="猎户韧劲"
[e125c]="猎户韧劲"
[e125d]="猎户韧劲"
[e15dd]="捕快力道"
[e15de]="捕快力道"
[e15df]="捕快力道"
[e15e0]="捕快力道"
[e15e1]="捕快力道"
[e1641]="捕快防御"
[e1642]="捕快防御"
[e1643]="捕快防御"
[e1644]="捕快防御"
[e1645]="捕快防御"
[e19c5]="杀手洞察"
[e19c6]="杀手洞察"
[e19c7]="杀手洞察"
[e19c8]="杀手洞察"
[e19c9]="杀手洞察"
[e1a29]="杀手会伤"
[e1a2a]="杀手会伤"
[e1a2b]="杀手会伤"
[e1a2c]="杀手会伤"
[e1a2d]="杀手会伤"
[e1dad]="文士身法"
[e1dae]="文士身法"
[e1daf]="文士身法"
[e1db0]="文士身法"
[e1db1]="文士身法"
[e1e11]="文士内功"
[e1e12]="文士内功"
[e1e13]="文士内功"
[e1e14]="文士内功"
[e1e15]="文士内功"
[e2195]="乐伶气劲"
[e2196]="乐伶气劲"
[e2197]="乐伶气劲"
[e2198]="乐伶气劲"
[e2199]="乐伶气劲"
[e21f9]="乐伶会心"
[e21fa]="乐伶会心"
[e21fb]="乐伶会心"
[e21fc]="乐伶会心"
[e21fd]="乐伶会心"
[e257d]="镖师根骨"
[e257e]="镖师根骨"
[e257f]="镖师根骨"
[e2580]="镖师根骨"
[e2581]="镖师根骨"
[e25e1]="镖师气血"
[e25e2]="镖师气血"
[e25e3]="镖师气血"
[e25e4]="镖师气血"
[e25e5]="镖师气血"
[10ccc8]="踏风揽云"
[10ccc9]="踏风揽云"
[10ccd2]="踏风揽云"
[10ccd3]="踏风揽云"
[10cd22]="踏风揽云"
[10cd2d]="滑落"
[10cd91]="踏风揽云"
[10cd92]="滑落"
[10cdea]="踏风揽云"
[10cdf5]="踏风揽云"
[10cdf6]="滑落"
[10ce4e]="踏风揽云"
[10ceb2]="踏风揽云"
[10cebd]="踏风揽云"
[10ced1]="滑落"
[10cf21]="踏风揽云"
[10cf35]="滑落"
[10cf49]="滑落"
[10cf84]="如燕诀"
[10cfe8]="踏风揽云"
[10cffd]="滑落"
[10cffe]="滑落"
[10cfff]="滑落"
[10d0b1]="飞鹤冲天"
[10d10a]="飞鹤冲天"
[10d115]="高跳-下落"
[10d179]="如燕诀"
[10d1dc]="踏风揽云"
[10d241]="如燕诀"
[10d2a4]="踏风揽云"
[10d309]="如燕诀"
[10d36c]="踏风揽云"
[10d3d1]="如燕诀"
[10d434]="踏风揽云"
[10d499]="前冲"
[10d4f2]="飘雪穿云"
[10d4fd]="前冲-下落"
[10d560]="飘雪穿云"
[10d5c5]="如燕诀"
[10d628]="踏风揽云"
[10d68d]="如燕诀"
[10d6f0]="踏风揽云"
[10d8e5]="如燕诀"
[10d8e6]="如燕诀"
[10d8e7]="如燕诀"
[10d949]="滑落"
[10d94a]="滑落"
[10d94b]="滑落"
[10d94c]="滑落"
[10d94d]="滑落"
[10d94e]="滑落"
[10dc69]="追风步"
[10dc6a]="神行步-取消"
[10dc74]="追风步"
[10dc75]="追风步"
[10dc76]="追风步"
[10dc77]="追风步"
[10dc78]="追风步"
[10e051]="千斤坠"
[10e0b5]="千斤坠"
[10e119]="千斤坠"
[10e439]="微风拂柳"
[10e43a]="微风拂柳"
[10e43b]="微风拂柳"
[10e43c]="微风拂柳"
[10e821]="骑乘"
[10e822]="骑乘"
[10ec09]="骑乘跳跃"
[10eff1]="疾驰"
[10eff2]="疾驰-取消"
[10f3d9]="骏飞扬"
[10f7c1]="飞鹤冲天"
[10f825]="飞鹤冲天"
[10f889]="高跳-下落"
[10fba8]="抱月惊风"
[10fba9]="抱妹杀"
[10fbaa]="抱妹杀"
[10fc0c]="击水凌空"
[10ff91]="鹰扬诀"
[10fff5]="空中受身"
[110059]="空中受身-下落"
[110378]="落下"
[110379]="落下"
[11037a]="落下-腾空"
[11037b]="滑落"
[110383]="骑乘跳跃"
[1103dc]="落下"
[1103dd]="落下"
[1103de]="落下-腾空"
[1103df]="滑落"
[1103e7]="骑乘跳跃"
[110440]="落下"
[110441]="落下-腾空"
[110442]="滑落"
[110443]="滑落"
[1104a4]="落下"
[1104a5]="落下-腾空"
[1104a6]="滑落"
[1104a7]="滑落"
[110508]="落下"
[110509]="落下-腾空"
[11050a]="滑落"
[11050b]="滑落"
[11056c]="落下"
[11056d]="落下-腾空"
[11056e]="滑落"
[11056f]="滑落"
[110760]="落下"
[110761]="落下-腾空"
[110762]="滑落"
[110b48]="落下"
[110b49]="落下-腾空"
[110b4a]="滑落"
[110f31]="骑乘跳跃"
[111318]="水云劲"
[111319]="内力比拼"
[11131d]="滑落"
[111322]="决掌真元阵"
[111701]="微风拂柳"
[111702]="微风拂柳"
[111703]="微风拂柳"
[11170a]="飘雪穿云"
[11170b]="踏风揽云"
[11170c]="前冲"
[11170d]="前冲-下落"
[111ae9]="踏风揽云"
[111b42]="踏风揽云"
[111b4d]="滑落"
[111ed0]="踏风揽云"
[111ed1]="策马大跳"
[200b20]="打坐"
[200b21]="打坐"
[200f09]="飞花摘叶"
[2012f1]="自绝经脉"
[201355]="破定攻击"
[2016d9]="调息"
[2016da]="调息"
[2016db]="调息"
[2016dc]="调息"
[2016dd]="调息"
[2016de]="调息"
[2016df]="调息"
[2016e0]="调息"
[2016e1]="调息"
[2016e2]="调息"
[201ac1]="打坐"
[201ac2]="打坐"
[201ac3]="打坐"
[201ac4]="打坐"
[201ac5]="打坐"
[201ac6]="打坐"
[201ac7]="打坐"
[201ac8]="打坐"
[201ac9]="打坐"
[201aca]="打坐"
[201acb]="打坐"
[201acc]="打坐"
[201ea9]="御风神行"
[201eaa]="御风神行"
[201eab]="御风神行"
[201eac]="御风神行"
[201ead]="御风神行"
[201eae]="御风神行"
[201f0d]="御风神行"
[202291]="2.5D兼容模式"
[202679]="天涯推荐模式"
[202a61]="全部拾取"
[202e49]="快速打开"
[203231]="杀意·无念"
[203232]="六识通明"
[203233]="杀意·无念解除"
[203619]="快速采集"
[203a01]="归元"
[203de9]="回春"
[203dea]="回春"
[203deb]="回春"
[203dec]="回春"
[203ded]="回春"
[203dee]="回春"
[203def]="回春"
[203df0]="回春"
[203df1]="回春"
[203df2]="回春"
[203df3]="回春"
[203df4]="回春"
[2041d1]="暗杀"
[2045b9]="龙鳞刺"
[2049a1]="追踪鹰"
[204d89]="暗杀"
[205171]="隐藏姓名"
[205559]="狙杀"
[20555a]="夜行"
[20555b]="中毒效果"
[20555c]="虚弱"
[20555d]="中毒效果"
[20555e]="中毒效果"
[2055bd]="鹰蔷决"
[2055c7]="鹰蔷决"
[205941]="动作操作模式"
[205d29]="对话"
[206111]="PK时上减少MP恢复buff"
[2064f9]="演奏"
[2068e1]="合奏"
[2068e2]="加入合奏"
[206cc9]="嬉戏"
[206d2d]="易容"
[206d91]="易容"
[206df5]="易容"
[2070b1]="拾取"
[207499]="跟随"
[2074a2]="互动"
[207881]="文士创作"
[207882]="加入合奏"
[2078e5]="慧眼决"
[207949]="慧眼决"
[20a760]="余音"
[20ca89]="余音"
[20ce71]="乐灵弹琴架琴"
[20ce72]="乐灵弹琴收琴"
[20ce73]="乐灵弹琴打断"
[20d258]="乐灵弹琴-宫弦"
[20d259]="乐灵弹琴-商弦"
[20d25a]="乐灵弹琴-角弦"
[20d25b]="乐灵弹琴-清角弦"
[20d25c]="乐灵弹琴-徵弦"
[20d25d]="乐灵弹琴-羽弦"
[20d25e]="乐灵弹琴-变宫弦"
[20d2bc]="乐灵弹琴-60秒乐章1"
[20d2bd]="乐灵弹琴-10秒乐章1"
[20d2be]="乐灵弹琴-15秒乐章1"
[20d2bf]="乐灵弹琴-3秒乐章1"
[20f581]="乐灵吹笛架琴"
[20f582]="乐灵吹笛收琴"
[20f583]="乐灵吹笛打断"
[20f968]="乐灵吹笛-宫弦"
[20f969]="乐灵吹笛-商弦"
[20f96a]="乐灵吹笛-角弦"
[20f96b]="乐灵吹笛-清角弦"
[20f96c]="乐灵吹笛-徵弦"
[20f96d]="乐灵吹笛-羽弦"
[20f96e]="乐灵吹笛-变宫弦"
[20f9cc]="乐灵吹笛-10秒乐章1"
[20f9cd]="乐灵吹笛-60秒乐章1"
[20f9ce]="乐灵吹笛-15秒乐章1"
[20f9cf]="乐灵吹笛-3秒乐章1"
[2191c1]="轻盈"
[2191c2]="轻盈"
[2191c3]="轻盈"
[2191c4]="轻盈"
[2191c5]="轻盈"
[2191c6]="轻盈"
[2191c7]="轻盈"
[2191c8]="轻盈"
[2191c9]="轻盈"
[2191ca]="轻盈"
[21b8d1]="沐雨"
[21b8d2]="沐雨"
[21b8d3]="沐雨"
[21b8d4]="沐雨"
[21b8d5]="沐雨"
[21b8d6]="沐雨"
[21b8d7]="沐雨"
[21b8d8]="沐雨"
[21b8d9]="沐雨"
[21b8da]="沐雨"
[21dfe1]="重击抵挡"
[21dfe2]="重击抵挡"
[21dfe3]="重击抵挡"
[21dfe4]="重击抵挡"
[21dfe5]="重击抵挡"
[21dfe6]="重击抵挡"
[21dfe7]="重击抵挡"
[21dfe8]="重击抵挡"
[21dfe9]="重击抵挡"
[21dfea]="重击抵挡"
[2206f1]="乘虚"
[2206f2]="乘虚"
[2206f3]="乘虚"
[2206f4]="乘虚"
[2206f5]="乘虚"
[2206f6]="乘虚"
[2206f7]="乘虚"
[2206f8]="乘虚"
[2206f9]="乘虚"
[2206fa]="乘虚"
[222e01]="龟息"
[222e02]="龟息"
[222e03]="龟息"
[222e04]="龟息"
[222e05]="龟息"
[222e06]="龟息"
[222e07]="龟息"
[222e08]="龟息"
[222e09]="龟息"
[222e0a]="龟息"
[2231e9]="装死表现"
[225511]="洞明"
[225512]="洞明"
[225513]="洞明"
[225514]="洞明"
[225515]="洞明"
[225516]="洞明"
[225517]="洞明"
[225518]="洞明"
[225519]="洞明"
[22551a]="洞明"
[227c21]="身明"
[227c22]="身明"
[227c23]="身明"
[227c24]="身明"
[227c25]="身明"
[227c26]="身明"
[227c27]="身明"
[227c28]="身明"
[227c29]="身明"
[227c2a]="身明"
[22a331]="破定"
[22a332]="破定"
[22a333]="破定"
[22a334]="破定"
[22a335]="破定"
[22a336]="破定"
[22a337]="破定"
[22a338]="破定"
[22a339]="破定"
[22a33a]="破定"
[22ca41]="狮吼"
[22ca42]="狮吼"
[22ca43]="狮吼"
[22ca44]="狮吼"
[22ca45]="狮吼"
[22ca46]="狮吼"
[22ca47]="狮吼"
[22ca48]="狮吼"
[22ca49]="狮吼"
[22ca4a]="狮吼"
[22f151]="力明"
[22f152]="力明"
[22f153]="力明"
[22f154]="力明"
[22f155]="力明"
[22f156]="力明"
[22f157]="力明"
[22f158]="力明"
[22f159]="力明"
[22f15a]="力明"
[231861]="气明"
[231862]="气明"
[231863]="气明"
[231864]="气明"
[231865]="气明"
[231866]="气明"
[231867]="气明"
[231868]="气明"
[231869]="气明"
[23186a]="气明"
[233f71]="根明"
[233f72]="根明"
[233f73]="根明"
[233f74]="根明"
[233f75]="根明"
[233f76]="根明"
[233f77]="根明"
[233f78]="根明"
[233f79]="根明"
[233f7a]="根明"
[236681]="无生"
[236682]="无生"
[236683]="无生"
[236684]="无生"
[236685]="无生"
[236686]="无生"
[236687]="无生"
[236688]="无生"
[236689]="无生"
[23668a]="无生"
[236a69]="无灭"
[238d91]="狂饮"
[238d92]="狂饮"
[238d93]="狂饮"
[238d94]="狂饮"
[238d95]="狂饮"
[238d96]="狂饮"
[238d97]="狂饮"
[238d98]="狂饮"
[238d99]="狂饮"
[238d9a]="狂饮"
[239179]="狂饮"
[23917a]="狂饮"
[23917b]="狂饮"
[23917c]="狂饮"
[23917d]="狂饮"
[23917e]="狂饮"
[23917f]="狂饮"
[239180]="狂饮"
[239181]="狂饮"
[239182]="狂饮"
[23b4a1]="攻心"
[23b4a2]="攻心"
[23b4a3]="攻心"
[23b4a4]="攻心"
[23b4a5]="攻心"
[23b4a6]="攻心"
[23b4a7]="攻心"
[23b4a8]="攻心"
[23b4a9]="攻心"
[23b4aa]="攻心"
[23dbb1]="焚血"
[23dbb2]="焚血"
[23dbb3]="焚血"
[23dbb4]="焚血"
[23dbb5]="焚血"
[23dbb6]="焚血"
[23dbb7]="焚血"
[23dbb8]="焚血"
[23dbb9]="焚血"
[23dbba]="焚血"
[23df99]="焚血"
[24c616]="五韵归元"
[24c675]="影刃"
[24c676]="影刃"
[24c677]="影刃"
[24c6d9]="诡诈"
[24c6da]="诡诈"
[24c6db]="诡诈"
[24c73d]="复仇"
[24c7a1]="伏击"
[24c7a2]="伏击"
[24c7a3]="伏击"
[24c805]="正气"
[24c806]="正气"
[24c807]="正气"
[24c808]="正气"
[24c809]="正气"
[24c869]="守护"
[24c86a]="守护"
[24c86b]="守护"
[24c8cd]="天敌"
[24c8ce]="天敌"
[24c8cf]="天敌"
[24c8d0]="天敌"
[24c8d1]="天敌"
[24c931]="识破"
[24c995]="嘲讽"
[24c9f9]="标记"
[24c9fa]="标记"
[24c9fb]="标记"
[24c9fc]="标记"
[24c9fd]="标记"
[24c9fe]="标记"
[24c9ff]="标记"
[24ca00]="标记"
[24ca01]="标记"
[24ca02]="标记"
[24ca5d]="复仇"
[24ca5e]="复仇"
[24ca5f]="复仇"
[24ca60]="复仇"
[24ca61]="复仇"
[24ca62]="复仇"
[24ca63]="复仇"
[24ca64]="复仇"
[24ca65]="复仇"
[24ca66]="复仇"
[24cac1]="惩戒"
[24cac2]="惩戒"
[24cac3]="惩戒"
[24cac4]="惩戒"
[24cac5]="惩戒"
[24cac6]="惩戒"
[24cac7]="惩戒"
[24cac8]="惩戒"
[24cac9]="惩戒"
[24caca]="惩戒"
[24cb25]="运筹"
[24cb26]="运筹"
[24cb27]="运筹"
[24cb28]="运筹"
[24cb29]="运筹"
[24cb2a]="运筹"
[24cb2b]="运筹"
[24cb2c]="运筹"
[24cb2d]="运筹"
[24cb2e]="运筹"
[24cb89]="倾城"
[24cb8a]="倾城"
[24cb8b]="倾城"
[24cb8c]="倾城"
[24cb8d]="倾城"
[24cb8e]="倾城"
[24cb8f]="倾城"
[24cb90]="倾城"
[24cb91]="倾城"
[24cb92]="倾城"
[24cbed]="感知"
[24cbee]="感知"
[24cbef]="感知"
[24cbf0]="感知"
[24cbf1]="感知"
[24cbf2]="感知"
[24cbf3]="感知"
[24cbf4]="感知"
[24cbf5]="感知"
[24cbf6]="感知"
[24cc51]="驱策"
[24cc52]="驱策"
[24cc53]="驱策"
[24cc54]="驱策"
[24cc55]="驱策"
[24cc56]="驱策"
[24cc57]="驱策"
[24cc58]="驱策"
[24cc59]="驱策"
[24cc5a]="驱策"
[24ccb5]="不屈"
[24ccb6]="不屈"
[24ccb7]="不屈"
[24ccb8]="不屈"
[24ccb9]="不屈"
[24ccba]="不屈"
[24ccbb]="不屈"
[24ccbc]="不屈"
[24ccbd]="不屈"
[24ccbe]="不屈"
[2dc6c1]="余音区分技-曲1"
[2dc6c2]="余音区分技-曲2"
[2dc6c3]="余音区分技-曲3"
[2dc6c4]="余音区分技-曲4"
[2dc6c5]="余音区分技-曲5"
[2dc6c6]="余音区分技-曲6"
[2dc6c7]="余音区分技-曲7"
[2dc6c8]="余音区分技-曲9"
[2dc6c9]="余音区分技-曲10"
[2dc6ca]="余音区分技-曲12"
[2dc6cb]="乐伶-余音1（瞬间恢复大量气血）"
[2dc6cc]="乐伶-余音2（瞬间恢复大量气血）"
[2dc6cd]="乐伶-余音3（大幅提升外功攻击力）"
[2dc6ce]="乐伶-余音4（回复定力，定力防御提升）"
[2dc6cf]="乐伶-余音5（内、外攻防御大幅提升）"
[2dc6d0]="乐伶-余音6（虚弱的时候可以复活自己）"
[2dc6d1]="乐伶-余音7（虚弱的时候可以复活自己）"
[2dc6d2]="乐伶-余音9（大幅提升内外功攻击力）"
[2dc6d3]="乐伶-余音10（大幅提升内外功防御力）"
[2dc6d4]="乐伶-余音12（提升破定伤害）"
[2dc6d7]="乐伶-曲1 1级（提升气血恢复速度）"
[2dc6d8]="乐伶-曲1 2级（提升气血恢复速度）"
[2dc6d9]="乐伶-曲1 3级（提升气血恢复速度）"
[2dc6da]="乐伶-曲2 1级（提升内息恢复速度）"
[2dc6db]="乐伶-曲2 2级（提升内息恢复速度）"
[2dc6dc]="乐伶-曲2 3级（提升内息恢复速度）"
[2dc6dd]="乐伶-曲3 1级（提升内外攻击力）"
[2dc6de]="乐伶-曲3 2级（提升内外攻击力）"
[2dc6df]="乐伶-曲3 3级（提升内外攻击力）"
[2dc6e0]="乐伶-曲4 1级（提升定力值上限）"
[2dc6e1]="乐伶-曲4 2级（提升定力值上限）"
[2dc6e2]="乐伶-曲4 3级（提升定力值上限）"
[2dc6e3]="乐伶-曲5 1级（内外防御提升）"
[2dc6e4]="乐伶-曲5 2级（内外防御提升）"
[2dc6e5]="乐伶-曲5 3级（内外防御提升）"
[2dc6e6]="乐伶-曲6 1级（提升气血恢复及血量上限）"
[2dc6e7]="乐伶-曲6 2级（提升气血恢复及血量上限）"
[2dc6e8]="乐伶-曲6 3级（提升气血恢复及血量上限）"
[2dc6e9]="乐伶-曲6 4级（提升气血恢复及血量上限）"
[2dc6ea]="乐伶-曲6 5级（提升气血恢复及血量上限）"
[2dc6eb]="乐伶-曲7 1级（提升内息恢复及内息上限）"
[2dc6ec]="乐伶-曲7 2级（提升内息恢复及内息上限）"
[2dc6ed]="乐伶-曲7 3级（提升内息恢复及内息上限）"
[2dc6ee]="乐伶-曲7 4级（提升内息恢复及内息上限）"
[2dc6ef]="乐伶-曲7 5级（提升内息恢复及内息上限）"
[2dc6f0]="乐伶-曲8（Eot群体治疗Lv1）"
[2dc6f1]="乐伶-曲9 1级（内外攻提升及暴击率提升）"
[2dc6f2]="乐伶-曲9 2级（内外攻提升及暴击率提升）"
[2dc6f3]="乐伶-曲9 3级（内外攻提升及暴击率提升）"
[2dc6f4]="乐伶-曲9 4级（内外攻提升及暴击率提升）"
[2dc6f5]="乐伶-曲9 5级（内外攻提升及暴击率提升）"
[2dc6f6]="乐伶-曲10 1级（内外防御提升及格挡率提升）"
[2dc6f7]="乐伶-曲10 2级（内外防御提升及格挡率提升）"
[2dc6f8]="乐伶-曲10 3级（内外防御提升及格挡率提升）"
[2dc6f9]="乐伶-曲10 4级（内外防御提升及格挡率提升）"
[2dc6fa]="乐伶-曲10 5级（内外防御提升及格挡率提升）"
[2dc6fb]="乐伶-曲11 1级（全一级属性提升）"
[2dc6fc]="乐伶-曲11 2级（全一级属性提升）"
[2dc6fd]="乐伶-曲11 3级（全一级属性提升）"
[2dc6fe]="乐伶-曲11 4级（全一级属性提升）"
[2dc6ff]="乐伶-曲11 5级（全一级属性提升）"
[2dc700]="乐伶-曲12 1级（定力上限提升及破定伤害提升）"
[2dc701]="乐伶-曲12 2级（定力上限提升及破定伤害提升）"
[2dc702]="乐伶-曲12 3级（定力上限提升及破定伤害提升）"
[2dc703]="乐伶-曲12 4级（定力上限提升及破定伤害提升）"
[2dc704]="乐伶-曲12 5级（定力上限提升及破定伤害提升）"
[2dc706]="乐伶-曲14（随机复活1名队友+给自己灵魂石）"
[2dc707]="乐伶-曲15（移动速度提升）"
[2dc708]="乐伶-保命并回血"
[2dc709]="乐伶-余音1 2级（瞬间恢复大量气血）"
[2dc70a]="乐伶-余音1 3级（瞬间恢复大量气血）"
[2dc70b]="乐伶-余音2 2级（瞬间恢复大量气血）"
[2dc70c]="乐伶-余音2 3级（瞬间恢复大量气血）"
[2dc70d]="乐伶-余音3 2级（大幅提升内外功攻击力）"
[2dc70e]="乐伶-余音3 3级（大幅提升内外功攻击力）"
[2dc70f]="乐伶-余音4（回复定力，定力防御提升）"
[2dc710]="乐伶-余音4（回复定力，定力防御提升）"
[2dc711]="乐伶-余音5（内、外攻防御大幅提升）"
[2dc712]="乐伶-余音5（内、外攻防御大幅提升）"
[2dc713]="乐伶-余音9 2级（大幅提升内外功攻击力）"
[2dc714]="乐伶-余音9 3级（大幅提升内外功攻击力）"
[2dc715]="乐伶-余音9 4级（大幅提升内外功攻击力）"
[2dc716]="乐伶-余音9 5级（大幅提升内外功攻击力）"
[2dc717]="乐伶-余音10 2级（大幅提升内外功防御力）"
[2dc718]="乐伶-余音10 3级（大幅提升内外功防御力）"
[2dc719]="乐伶-余音10 4级（大幅提升内外功防御力）"
[2dc71a]="乐伶-余音10 5级（大幅提升内外功防御力）"
[2dc71b]="乐伶-余音12 2级（回复定力，定力防御提升）"
[2dc71c]="乐伶-余音12 3级（回复定力，定力防御提升）"
[2dc71d]="乐伶-余音12 4级（回复定力，定力防御提升）"
[2dc71e]="乐伶-余音12 5级（回复定力，定力防御提升）"
[2dc71f]="乐伶-余音1 4级（瞬间恢复大量气血）"
[2dc720]="乐伶-余音1 5级（瞬间恢复大量气血）"
[2dc721]="乐伶-余音2 4级（瞬间恢复大量气血）"
[2dc722]="乐伶-余音2 5级（瞬间恢复大量气血）"
[2dc723]="乐伶-余音3 3级（大幅提升内外功攻击力）"
[2dc724]="乐伶-余音3 3级（大幅提升内外功攻击力）"
[2dc725]="乐伶-余音3 3级（大幅提升内外功攻击力）"
[2dc726]="乐伶-余音3 3级（大幅提升内外功攻击力）"
[2dc727]="乐伶-余音4（回复定力，定力防御提升）"
[2dc728]="乐伶-余音4（回复定力，定力防御提升）"
[2dc729]="乐伶-余音5（内、外攻防御大幅提升）"
[2dc72a]="乐伶-余音5（内、外攻防御大幅提升）"
[2dc72b]="乐伶-余音5（内、外攻防御大幅提升）"
[2dc72c]="乐伶-余音5（内、外攻防御大幅提升）"
[b8a589]="素手回春"
[b8a58a]="素手回春"
[b8a58b]="素手回春"
[b8a58c]="素手回春"
[b8a58d]="素手回春"
[b8a58e]="素手回春"
[b8a58f]="素手回春"
[b8a590]="素手回春"
[b8a591]="素手回春"
[b8a592]="素手回春"
[b8a971]="春风伞"
[b8a972]="春风伞"
[b8a973]="春风伞"
[b8a974]="春风伞"
[b8a975]="春风伞"
[b8a976]="春风伞"
[b8a977]="春风伞"
[b8a978]="春风伞"
[b8a979]="春风伞"
[b8a97a]="春风伞"
[b8b141]="饮血技·绝命伞"
[b8b142]="饮血技·绝命伞"
[b8b143]="饮血技·绝命伞"
[b8b144]="饮血技·绝命伞"
[b8b145]="饮血技·绝命伞"
[b8b146]="饮血技·绝命伞"
[b8b147]="饮血技·绝命伞"
[b8b148]="饮血技·绝命伞"
[b8b149]="饮血技·绝命伞"
[b8b14a]="饮血技·绝命伞"
[b8b529]="玉帘拂衣"
[b8b52a]="玉帘拂衣"
[b8b52b]="玉帘拂衣"
[b8b52c]="玉帘拂衣"
[b8b52d]="玉帘拂衣"
[b8b52e]="玉帘拂衣"
[b8b52f]="玉帘拂衣"
[b8b530]="玉帘拂衣"
[b8b531]="玉帘拂衣"
[b8b532]="玉帘拂衣"
[b8b911]="天香意决"
[b8bcf9]="琴心三叠"
[b8bcfa]="琴心三叠"
[b8bcfb]="琴心三叠"
[b8bcfc]="琴心三叠"
[b8bcfd]="琴心三叠"
[b8bcfe]="琴心三叠"
[b8bcff]="琴心三叠"
[b8bd00]="琴心三叠"
[b8bd01]="琴心三叠"
[b8bd02]="琴心三叠"
[b8c0e1]="破定技·伞舞旋"
[b8c0e2]="破定技·伞舞旋"
[b8c0e3]="破定技·伞舞旋"
[b8c0e4]="破定技·伞舞旋"
[b8c0e5]="破定技·伞舞旋"
[b8c0e6]="破定技·伞舞旋"
[b8c0e7]="破定技·伞舞旋"
[b8c0e8]="破定技·伞舞旋"
[b8c0e9]="破定技·伞舞旋"
[b8c0ea]="破定技·伞舞旋"
[b8c4c9]="伞舞盾"
[b8c8b1]="破定技·芳华一瞬"
[b8c8b2]="破定技·芳华一瞬"
[b8c8b3]="破定技·芳华一瞬"
[b8c8b4]="破定技·芳华一瞬"
[b8c8b5]="破定技·芳华一瞬"
[b8c8b6]="破定技·芳华一瞬"
[b8c8b7]="破定技·芳华一瞬"
[b8c8b8]="破定技·芳华一瞬"
[b8c8b9]="破定技·芳华一瞬"
[b8c8ba]="破定技·芳华一瞬"
[b8cc99]="柳暗凌波"
[b8cfb9]="柳暗凌波"
[b8d081]="寒林疏芳"
[b8d082]="寒林疏芳"
[b8d083]="寒林疏芳"
[b8d084]="寒林疏芳"
[b8d085]="寒林疏芳"
[b8d086]="寒林疏芳"
[b8d087]="寒林疏芳"
[b8d088]="寒林疏芳"
[b8d089]="寒林疏芳"
[b8d08a]="寒林疏芳"
[b8d469]="醉墨重生"
[b8d851]="香意痕"
[b8d852]="香意痕"
[b8d853]="香意痕"
[b8d854]="香意痕"
[b8d855]="香意痕"
[b8d856]="香意痕"
[b8d857]="香意痕"
[b8d858]="香意痕"
[b8d859]="香意痕"
[b8d85a]="香意痕"
[b8dc39]="空山新雨"
[b8dc9d]="空山新雨"
[b8e021]="清心悬玉"
[b8e022]="清心悬玉"
[b8e023]="清心悬玉"
[b8e024]="清心悬玉"
[b8e025]="清心悬玉"
[b8e026]="清心悬玉"
[b8e027]="清心悬玉"
[b8e028]="清心悬玉"
[b8e029]="清心悬玉"
[b8e02a]="清心悬玉"
[b8e409]="沐雨含光"
[b8e40a]="沐雨含光"
[b8e40b]="沐雨含光"
[b8e40c]="沐雨含光"
[b8e40d]="沐雨含光"
[b8e40e]="沐雨含光"
[b8e40f]="沐雨含光"
[b8e410]="沐雨含光"
[b8e411]="沐雨含光"
[b8e412]="沐雨含光"
[b8e7f1]="姿态切换"
[b8ebd9]="韶音曼咏"
[b8efc1]="低吟浅唱"
[b8efc2]="低吟浅唱"
[b8efc3]="低吟浅唱"
[b8efc4]="低吟浅唱"
[b8efc5]="低吟浅唱"
[b8efc6]="低吟浅唱"
[b8efc7]="低吟浅唱"
[b8efc8]="低吟浅唱"
[b8efc9]="低吟浅唱"
[b8efca]="低吟浅唱"
[b8f3a9]="解意孤霜"
[bbb6b1]="国色天香"
[bd3581]="杀意·重华乱舞"
[bd38b4]="弃玉回香"
[c7e3e1]="力满效果-缠"
[c7e7c9]="龙吟三破"
[c7e7ca]="龙吟三破"
[c7e7cb]="龙吟三破"
[c7e7cc]="龙吟三破"
[c7e7cd]="龙吟三破"
[c7e959]="龙吟三破"
[c7e95a]="龙吟三破"
[c7e95b]="龙吟三破"
[c7e95c]="龙吟三破"
[c7e95d]="龙吟三破"
[c7ec15]="饮血技·劈山诀"
[c7ec16]="饮血技·劈山诀"
[c7ec17]="饮血技·劈山诀"
[c7ec18]="饮血技·劈山诀"
[c7ec19]="饮血技·劈山诀"
[c7ef99]="反打·离弦腿"
[c7ef9a]="反打·离弦腿"
[c7ef9b]="反打·离弦腿"
[c7f381]="神掌八打"
[c7f382]="神掌八打"
[c7f383]="神掌八打"
[c7fb51]="解控技·倒提壶"
[c7fb52]="解控技·倒提壶"
[c7ff39]="断字诀"
[c80321]="怒扫乾坤"
[c80322]="怒扫乾坤"
[c80323]="怒扫乾坤"
[c80324]="怒扫乾坤"
[c80641]="怒扫乾坤"
[c80642]="怒扫乾坤"
[c80643]="怒扫乾坤"
[c80644]="怒扫乾坤"
[c80645]="怒扫乾坤"
[c80646]="怒扫乾坤"
[c80647]="怒扫乾坤"
[c80648]="怒扫乾坤"
[c80649]="怒扫乾坤"
[c8064a]="怒扫乾坤"
[c80af1]="醉饮江河"
[c80b55]="醉饮江河"
[c80ed9]="饮血技·铁山靠"
[c80eda]="饮血技·铁山靠"
[c80edb]="饮血技·铁山靠"
[c80edc]="饮血技·铁山靠"
[c80edd]="饮血技·铁山靠"
[c812c1]="破定技·江湖醉"
[c812c2]="破定技·江湖醉"
[c812c3]="破定技·江湖醉"
[c812c4]="破定技·江湖醉"
[c816a9]="破定技·江湖醉"
[c816aa]="破定技·江湖醉"
[c816ab]="破定技·江湖醉"
[c816ac]="破定技·江湖醉"
[c81e79]="百裂脚"
[c81e7a]="百裂脚"
[c81e7b]="百裂脚"
[c81e7c]="百裂脚"
[c81e7d]="百裂脚"
[c82649]="追风踢"
[c8264a]="追风踢"
[c82a31]="奔雷拳"
[c82a32]="奔雷拳"
[c82a33]="奔雷拳"
[c82a34]="奔雷拳"
[c82a35]="奔雷拳"
[c82a36]="奔雷拳"
[c82a37]="奔雷拳"
[c82a38]="奔雷拳"
[c835e9]="虎尾脚"
[c835ea]="虎尾脚"
[c835eb]="虎尾脚"
[c835ec]="虎尾脚"
[c835ed]="虎尾脚"
[c835ee]="虎尾脚"
[c83db9]="逍遥游"
[cc77c1]="杀意·龙震百里"
[d72a09]="星雨飞花"
[d72a0a]="星雨飞花"
[d72a0b]="星雨飞花"
[d72a0c]="星雨飞花"
[d72a0d]="星雨飞花"
[d731d9]="暴雨梨花"
[d731da]="暴雨梨花"
[d731db]="暴雨梨花"
[d731dc]="暴雨梨花"
[d731dd]="暴雨梨花"
[d732a1]="暴雨梨花"
[d732a2]="暴雨梨花"
[d732a3]="暴雨梨花"
[d732a4]="暴雨梨花"
[d732a5]="暴雨梨花"
[d74561]="舞清影"
[d74949]="形神合"
[d74b3d]="形神合"
[d74d31]="千魂裂"
[d74d32]="千魂裂"
[d74d33]="千魂裂"
[d74d34]="千魂裂"
[d74d35]="千魂裂"
[d74d95]="千魂裂"
[d74d96]="千魂裂"
[d74d97]="千魂裂"
[d74d98]="千魂裂"
[d74d99]="千魂裂"
[d75119]="解控技·自替身"
[d7517d]="解控技·自替身"
[d75501]="困百骸"
[d75565]="困百骸"
[d758e9]="破定技·爆天星"
[d758ea]="破定技·爆天星"
[d758eb]="破定技·爆天星"
[d758ec]="破定技·爆天星"
[d7594d]="破定技·爆天星"
[d7594e]="破定技·爆天星"
[d7594f]="破定技·爆天星"
[d75950]="破定技·爆天星"
[d75cd1]="饮血技·风花饮月"
[d75d35]="饮血技·风花饮月"
[d75d99]="饮血技·风花饮月"
[d75dfd]="饮血技·风花饮月"
[d75e61]="饮血技·风花饮月"
[d77059]="乳燕归巢"
[d7705a]="乳燕归巢"
[d7705b]="乳燕归巢"
[d7705c]="乳燕归巢"
[d7705d]="乳燕归巢"
[d7705e]="乳燕归巢"
[d770bd]="乳燕归巢"
[d770be]="乳燕归巢"
[d770bf]="乳燕归巢"
[d770c0]="乳燕归巢"
[d770c1]="乳燕归巢"
[d770c2]="乳燕归巢"
[d77121]="乳燕归巢"
[d77122]="乳燕归巢"
[d77123]="乳燕归巢"
[d77124]="乳燕归巢"
[d77125]="乳燕归巢"
[d77126]="乳燕归巢"
[d7724d]="乳燕归巢"
[d7724e]="乳燕归巢"
[d7724f]="乳燕归巢"
[d77250]="乳燕归巢"
[d77251]="乳燕归巢"
[d77252]="乳燕归巢"
[d774a5]="坠"
[d77829]="终结"
[d77c11]="千机扫"
[d77c12]="千机扫"
[d77c13]="千机扫"
[d77c75]="千机扫"
[d77c76]="千机扫"
[d77c77]="千机扫"
[d783e1]="控鹤擒龙"
[dbba01]="杀意·万点繁星"
[e97989]="云龙五现"
[e9798a]="云龙五现"
[e9798b]="云龙五现"
[e9798c]="云龙五现"
[e9798d]="云龙五现"
[e9798e]="云龙五现"
[e9798f]="云龙五现"
[e97990]="云龙五现"
[e97991]="云龙五现"
[e98159]="断龙枪"
[e9815a]="断龙枪"
[e9815b]="断龙枪"
[e9815c]="断龙枪"
[e9815d]="断龙枪"
[e9815e]="断龙枪"
[e9815f]="断龙枪"
[e98160]="断龙枪"
[e98161]="断龙枪"
[e98541]="疾风枪"
[e98542]="疾风枪"
[e98543]="疾风枪"
[e98544]="疾风枪"
[e98545]="疾风枪"
[e98546]="疾风枪"
[e98547]="疾风枪"
[e98548]="疾风枪"
[e98549]="疾风枪"
[e98929]="猛虎破"
[e9892a]="猛虎破"
[e9892b]="猛虎破"
[e9892c]="猛虎破"
[e9892d]="猛虎破"
[e9892e]="猛虎破"
[e9892f]="猛虎破"
[e98930]="猛虎破"
[e98931]="猛虎破"
[e98d11]="伏龙枪"
[e98d12]="伏龙枪"
[e98d13]="伏龙枪"
[e98d14]="伏龙枪"
[e98d15]="伏龙枪"
[e98d16]="伏龙枪"
[e98d17]="伏龙枪"
[e98d18]="伏龙枪"
[e98d19]="伏龙枪"
[e990f9]="天龙扑月"
[e990fa]="天龙扑月"
[e990fb]="天龙扑月"
[e990fc]="天龙扑月"
[e990fd]="天龙扑月"
[e990fe]="天龙扑月"
[e990ff]="天龙扑月"
[e99100]="天龙扑月"
[e99101]="天龙扑月"
[e9915d]="天龙扑月"
[e9915e]="天龙扑月"
[e9915f]="天龙扑月"
[e99160]="天龙扑月"
[e99161]="天龙扑月"
[e99162]="天龙扑月"
[e99163]="天龙扑月"
[e99164]="天龙扑月"
[e99165]="天龙扑月"
[e994e1]="贯甲箭"
[e994e2]="贯甲箭"
[e994e3]="贯甲箭"
[e994e4]="贯甲箭"
[e994e5]="贯甲箭"
[e994e6]="贯甲箭"
[e994e7]="贯甲箭"
[e994e8]="贯甲箭"
[e994e9]="贯甲箭"
[e995a9]="贯甲箭"
[e995aa]="贯甲箭"
[e995ab]="贯甲箭"
[e995ac]="贯甲箭"
[e995ad]="贯甲箭"
[e995ae]="贯甲箭"
[e995af]="贯甲箭"
[e995b0]="贯甲箭"
[e995b1]="贯甲箭"
[e998c9]="狂龙震"
[e998ca]="狂龙震"
[e998cb]="狂龙震"
[e998cc]="狂龙震"
[e998cd]="狂龙震"
[e998ce]="狂龙震"
[e998cf]="狂龙震"
[e998d0]="狂龙震"
[e998d1]="狂龙震"
[e9992d]="狂龙震"
[e99cb1]="解控技·无敌无我"
[e99cb2]="解控技·无敌无我"
[e9a099]="背水一击"
[e9a869]="铁血征尘"
[e9ac51]="饮血技·烈风枪"
[e9ac52]="饮血技·烈风枪"
[e9ac53]="饮血技·烈风枪"
[e9ac54]="饮血技·烈风枪"
[e9ac55]="饮血技·烈风枪"
[eafc41]="杀意·星河倒卷"
[f5ae89]="天峰五云剑"
[f5ae8a]="天峰五云剑"
[f5ae8b]="天峰五云剑"
[f5ae8c]="天峰五云剑"
[f5ae8d]="天峰五云剑"
[f5b271]="破招·无痕剑意"
[f5b272]="破招·无痕剑意"
[f5b659]="苍龙出水"
[f5b65a]="苍龙出水"
[f5b65b]="苍龙出水"
[f5be29]="云台三落"
[f5be2a]="云台三落"
[f5be2b]="云台三落"
[f5be2c]="云台三落"
[f5be2d]="云台三落"
[f5be2e]="云台三落"
[f5be2f]="云台三落"
[f5be30]="云台三落"
[f5c211]="飞燕逐月"
[f5c212]="飞燕逐月"
[f5c213]="飞燕逐月"
[f5c214]="飞燕逐月"
[f5c5f9]="饮血技·风雷一剑"
[f5c5fa]="饮血技·风雷一剑"
[f5c5fb]="饮血技·风雷一剑"
[f5c5fc]="饮血技·风雷一剑"
[f5c5fd]="饮血技·风雷一剑"
[f5c9e1]="回风落雁"
[f5c9e2]="回风落雁"
[f5c9e3]="回风落雁"
[f5c9e4]="回风落雁"
[f5c9e5]="回风落雁"
[f5c9e6]="回风落雁"
[f5cdc9]="破穴指诀"
[f5cdca]="破穴指诀"
[f5d599]="烟霞满天"
[f5d981]="解控技·燕回朝阳"
[f5dd69]="破定技·雨落云飞"
[f5dd6a]="破定技·雨落云飞"
[f5dd6b]="破定技·雨落云飞"
[f5dd6c]="破定技·雨落云飞"
[f5e539]="不霖再山"
[fa3e80]="杀意·剑履山河"
[104ece1]="十字望月"
[104f0c9]="爆魂决"
[104f4b1]="凤凰决杀"
[104f899]="蝙蝠掠夜"
[104fc81]="飞雀夺怀"
[1050069]="黑雾刀法"
[1050451]="灵蛇刺骨"
[1050839]="索命决"
[105089d]="索命决"
[1050b59]="索"
[1050bbd]="Z字杀9-Dash目标"
[1050c21]="升龙刺"
[1051009]="影刺"
[10513f1]="寄生决"
[10517d9]="百鬼潜行"
[105183d]="盲蝠决"
[1051af9]="掏心第二段"
[1051b5d]="掏心第二段"
[1051bc1]="蜃意无双"
[1051fa9]="追杀蛊"
[1052391]="剧毒蛊"
[1052779]="暗杀蛊"
[1052b61]="寄生蛊"
[1052f49]="旋杀"
[1053b01]="杀意·五仙灭地"
[1143309]="道法天地"
[114330a]="道法天地"
[114330b]="道法天地"
[114330c]="道法天地"
[114330d]="道法天地"
[114330e]="道法天地"
[114330f]="道法天地"
[1143310]="道法天地"
[1143311]="道法天地"
[1143312]="道法天地"
[1143313]="道法天地"
[1143314]="道法天地"
[1143315]="道法天地"
[1143316]="道法天地"
[1143317]="道法天地"
[1143318]="道法天地"
[1143319]="道法天地"
[114331a]="道法天地"
[114331b]="道法天地"
[114331c]="道法天地"
[11436f1]="驱影"
[11436f2]="驱影"
[11436f3]="驱影"
[11436f4]="驱影"
[11436f5]="驱影"
[11436f6]="驱影"
[11436f7]="驱影"
[11436f8]="驱影"
[11436f9]="驱影"
[11436fa]="驱影"
[1143755]="闪身"
[1143ad9]="微明生灭"
[1143ada]="微明生灭"
[1143adb]="微明生灭"
[1143adc]="微明生灭"
[1143add]="微明生灭"
[1143ade]="微明生灭"
[1143adf]="微明生灭"
[1143ae0]="微明生灭"
[1143ae1]="微明生灭"
[1143ae2]="微明生灭"
[1143ec1]="微明生灭"
[1143ec2]="微明生灭"
[1143ec3]="微明生灭"
[1143ec4]="微明生灭"
[1143ec5]="微明生灭"
[1143ec6]="微明生灭"
[1143ec7]="微明生灭"
[1143ec8]="微明生灭"
[1143ec9]="微明生灭"
[1143eca]="微明生灭"
[11442a9]="饮血技·道生一剑"
[11442aa]="饮血技·道生一剑"
[11442ab]="饮血技·道生一剑"
[11442ac]="饮血技·道生一剑"
[11442ad]="饮血技·道生一剑"
[11442ae]="饮血技·道生一剑"
[11442af]="饮血技·道生一剑"
[11442b0]="饮血技·道生一剑"
[11442b1]="饮血技·道生一剑"
[11442b2]="饮血技·道生一剑"
[1144691]="解控技·离渊"
[1144692]="解控技·离渊"
[1144a79]="护盾"
[1144e61]="和光同尘"
[1144e62]="和光同尘"
[1144e63]="和光同尘"
[1144e64]="和光同尘"
[1144e65]="和光同尘"
[1144e66]="和光同尘"
[1144e67]="和光同尘"
[1144e68]="和光同尘"
[1144e69]="和光同尘"
[1144e6a]="和光同尘"
[1145249]="冲盈"
[11452ad]="冲盈"
[1145631]="反击技·上善"
[1145632]="反击技·上善"
[1145633]="反击技·上善"
[1145634]="反击技·上善"
[1145635]="反击技·上善"
[1145636]="反击技·上善"
[1145637]="反击技·上善"
[1145638]="反击技·上善"
[1145639]="反击技·上善"
[114563a]="反击技·上善"
[1145825]="太极反击"
[1145826]="太极反击"
[1145827]="太极反击"
[1145828]="太极反击"
[1145829]="太极反击"
[114582a]="太极反击"
[114582b]="太极反击"
[114582c]="太极反击"
[114582d]="太极反击"
[114582e]="太极反击"
[1145a19]="和光同尘"
[1145a1a]="和光同尘"
[1145a1b]="和光同尘"
[1145a1c]="和光同尘"
[1145a1d]="和光同尘"
[1145a1e]="和光同尘"
[1145a1f]="和光同尘"
[1145a20]="和光同尘"
[1145a21]="和光同尘"
[1145a22]="和光同尘"
[1145e65]="破定技·归玄"
[1145e66]="破定技·归玄"
[1145e67]="破定技·归玄"
[1145e68]="破定技·归玄"
[1145e69]="破定技·归玄"
[1145e6a]="破定技·归玄"
[1145e6b]="破定技·归玄"
[1145e6c]="破定技·归玄"
[1145e6d]="破定技·归玄"
[1145e6e]="破定技·归玄"
[11465d1]="无迹"
[11465d2]="无迹"
[11465d3]="无迹"
[11465d4]="无迹"
[11465d5]="无迹"
[11465d6]="无迹"
[11465d7]="无迹"
[11465d8]="无迹"
[11465d9]="无迹"
[11465da]="无迹"
[1146da1]="执象天下"
[1147189]="杀意·天地不仁"
[1147571]="无迹"
[1147572]="无迹"
[1147573]="无迹"
[1147574]="无迹"
[1147575]="无迹"
[1147576]="无迹"
[1147577]="无迹"
[1147578]="无迹"
[1147579]="无迹"
[114757a]="无迹"
[121eac1]="强破"
[121eac2]="强破"
[121eac3]="强破"
[121eac4]="强破"
[121eac5]="强破"
[121eac6]="强破"
[121eac7]="强破"
[121eac8]="强破"
[121eac9]="强破"
[121eaca]="强破"
[121eacb]="调息"
[121eacc]="调息"
[121eacd]="调息"
[121eace]="调息"
[121eacf]="调息"
[121ead0]="调息"
[121ead1]="调息"
[121ead2]="调息"
[121ead3]="调息"
[121ead4]="调息"
[121ead5]="固本"
[121ead6]="固本"
[121ead7]="固本"
[121ead8]="固本"
[121ead9]="固本"
[121eada]="固本"
[121eadb]="固本"
[121eadc]="固本"
[121eadd]="固本"
[121eade]="固本"
[121eadf]="乘弱"
[121eae0]="乘弱"
[121eae1]="乘弱"
[121eae2]="乘弱"
[121eae3]="乘弱"
[121eae4]="乘弱"
[121eae5]="乘弱"
[121eae6]="乘弱"
[121eae7]="乘弱"
[121eae8]="乘弱"
[121eae9]="天惩"
[121eaea]="天惩"
[121eaeb]="天惩"
[121eaec]="天惩"
[121eaed]="天惩"
[121eaee]="天惩"
[121eaef]="天惩"
[121eaf0]="天惩"
[121eaf1]="天惩"
[121eaf2]="天惩"
[121eaf3]="天威"
[121eaf4]="天威"
[121eaf5]="天威"
[121eaf6]="天威"
[121eaf7]="天威"
[121eaf8]="天威"
[121eaf9]="天威"
[121eafa]="天威"
[121eafb]="天威"
[121eafc]="天威"
[121eafd]="无休"
[121eafe]="无休"
[121eaff]="无休"
[121eb00]="无休"
[121eb01]="无休"
[121eb02]="无休"
[121eb03]="无休"
[121eb04]="无休"
[121eb05]="无休"
[121eb06]="无休"
[121eb07]="无负"
[121eb08]="无负"
[121eb09]="无负"
[121eb0a]="无负"
[121eb0b]="无负"
[121eb0c]="无负"
[121eb0d]="无负"
[121eb0e]="无负"
[121eb0f]="无负"
[121eb10]="无负"
[121eb11]="天健"
[121eb12]="天健"
[121eb13]="天健"
[121eb14]="天健"
[121eb15]="天健"
[121eb16]="天健"
[121eb17]="天健"
[121eb18]="天健"
[121eb19]="天健"
[121eb1a]="天健"
[121eb1b]="天行"
[121eb1c]="天行"
[121eb1d]="天行"
[121eb1e]="天行"
[121eb1f]="天行"
[121eb20]="天行"
[121eb21]="天行"
[121eb22]="天行"
[121eb23]="天行"
[121eb24]="天行"
[121eb25]="狮子吼"
[121eb26]="狮子吼"
[121eb27]="狮子吼"
[121eb28]="狮子吼"
[121eb29]="狮子吼"
[121eb2a]="狮子吼"
[121eb2b]="狮子吼"
[121eb2c]="狮子吼"
[121eb2d]="狮子吼"
[121eb2e]="狮子吼"
[121eb2f]="回春"
[121eb30]="回春"
[121eb31]="回春"
[121eb32]="回春"
[121eb33]="回春"
[121eb34]="回春"
[121eb35]="回春"
[121eb36]="回春"
[121eb37]="回春"
[121eb38]="回春"
[121eb39]="安身"
[121eb3a]="安身"
[121eb3b]="安身"
[121eb3c]="安身"
[121eb3d]="安身"
[121eb3e]="安身"
[121eb3f]="安身"
[121eb40]="安身"
[121eb41]="安身"
[121eb42]="安身"
[121eb43]="立命"
[121eb44]="立命"
[121eb45]="立命"
[121eb46]="立命"
[121eb47]="立命"
[121eb48]="立命"
[121eb49]="立命"
[121eb4a]="立命"
[121eb4b]="立命"
[121eb4c]="立命"
[121eb4d]="损心"
[121eb4e]="损心"
[121eb4f]="损心"
[121eb50]="损心"
[121eb51]="损心"
[121eb52]="损心"
[121eb53]="损心"
[121eb54]="损心"
[121eb55]="损心"
[121eb56]="损心"
[121eb57]="烈镖"
[121eb58]="烈镖"
[121eb59]="烈镖"
[121eb5a]="烈镖"
[121eb5b]="烈镖"
[121eb5c]="烈镖"
[121eb5d]="烈镖"
[121eb5e]="烈镖"
[121eb5f]="烈镖"
[121eb60]="烈镖"
[121eb61]="盾固"
[121eb62]="盾固"
[121eb63]="盾固"
[121eb64]="盾固"
[121eb65]="盾固"
[121eb66]="盾固"
[121eb67]="盾固"
[121eb68]="盾固"
[121eb69]="盾固"
[121eb6a]="盾固"
[121eb6b]="培元"
[121eb6c]="培元"
[121eb6d]="培元"
[121eb6e]="培元"
[121eb6f]="培元"
[121eb70]="培元"
[121eb71]="培元"
[121eb72]="培元"
[121eb73]="培元"
[121eb74]="培元"
[121eb75]="焚血"
[121eb76]="焚血"
[121eb77]="焚血"
[121eb78]="焚血"
[121eb79]="焚血"
[121eb7a]="焚血"
[121eb7b]="焚血"
[121eb7c]="焚血"
[121eb7d]="焚血"
[121eb7e]="焚血"
[121eb7f]="龟息"
[121eb80]="龟息"
[121eb81]="龟息"
[121eb82]="龟息"
[121eb83]="龟息"
[121eb84]="龟息"
[121eb85]="龟息"
[121eb86]="龟息"
[121eb87]="龟息"
[121eb88]="龟息"
[121eb89]="装死表现"
[121eb93]="无惜"
[121eb94]="无惜"
[121eb95]="无惜"
[121eb96]="无惜"
[121eb97]="无惜"
[121eb98]="无惜"
[121eb99]="无惜"
[121eb9a]="无惜"
[121eb9b]="无惜"
[121eb9c]="无惜"
[121eb9d]="无执"
[121eb9e]="无执"
[121eb9f]="无执"
[121eba0]="无执"
[121eba1]="无执"
[121eba2]="无执"
[121eba3]="无执"
[121eba4]="无执"
[121eba5]="无执"
[121eba6]="无执"
[121eba7]="饮杀"
[121eba8]="饮杀"
[121eba9]="饮杀"
[121ebaa]="饮杀"
[121ebab]="饮杀"
[121ebac]="饮杀"
[121ebad]="饮杀"
[121ebae]="饮杀"
[121ebaf]="饮杀"
[121ebb0]="饮杀"
[121ebb1]="自愈"
[121ebb2]="自愈"
[121ebb3]="自愈"
[121ebb4]="自愈"
[121ebb5]="自愈"
[121ebb6]="自愈"
[121ebb7]="自愈"
[121ebb8]="自愈"
[121ebb9]="自愈"
[121ebba]="自愈"
[121ebbb]="自愈"
[121ebbc]="自愈"
[121ebbd]="自愈"
[121ebbe]="自愈"
[121ebbf]="自愈"
[121ebc0]="自愈"
[121ebc1]="自愈"
[121ebc2]="自愈"
[121ebc3]="自愈"
[121ebc4]="自愈"
[121ebc5]="饮武"
[121ebc6]="饮武"
[121ebc7]="饮武"
[121ebc8]="饮武"
[121ebc9]="饮武"
[121ebca]="饮武"
[121ebcb]="饮武"
[121ebcc]="饮武"
[121ebcd]="饮武"
[121ebce]="饮武"
[121ebcf]="饮武回血"
[121ebd0]="饮武回血"
[121ebd1]="饮武回血"
[121ebd2]="饮武回血"
[121ebd3]="饮武回血"
[121ebd4]="饮武回血"
[121ebd5]="饮武回血"
[121ebd6]="饮武回血"
[121ebd7]="饮武回血"
[121ebd8]="饮武回血"
[121ebd9]="饮武回血"
[121ebda]="饮武回血"
[121ebdb]="饮武回血"
[121ebdc]="饮武回血"
[121ebdd]="饮武回血"
[121ebde]="饮武回血"
[121ebdf]="饮武回血"
[121ebe0]="饮武回血"
[121ebe1]="饮武回血"
[121ebe2]="饮武回血"
[121ebe3]="借命"
[121ebe4]="借命"
[121ebe5]="借命"
[121ebe6]="借命"
[121ebe7]="借命"
[121ebe8]="借命"
[121ebe9]="借命"
[121ebea]="借命"
[121ebeb]="借命"
[121ebec]="借命"
[121ebed]="积怒"
[121ebee]="积怒"
[121ebef]="积怒"
[121ebf0]="积怒"
[121ebf1]="积怒"
[121ebf2]="积怒"
[121ebf3]="积怒"
[121ebf4]="积怒"
[121ebf5]="积怒"
[121ebf6]="积怒"
[121ebf7]="嗜血"
[121ebf8]="嗜血"
[121ebf9]="嗜血"
[121ebfa]="嗜血"
[121ebfb]="嗜血"
[121ebfc]="嗜血"
[121ebfd]="嗜血"
[121ebfe]="嗜血"
[121ebff]="嗜血"
[121ec00]="嗜血"
[121ec01]="嗜杀"
[121ec02]="嗜杀"
[121ec03]="嗜杀"
[121ec04]="嗜杀"
[121ec05]="嗜杀"
[121ec06]="嗜杀"
[121ec07]="嗜杀"
[121ec08]="嗜杀"
[121ec09]="嗜杀"
[121ec0a]="嗜杀"
[121ec0b]="僵滞"
[121ec0c]="僵滞"
[121ec0d]="僵滞"
[121ec0e]="僵滞"
[121ec0f]="僵滞"
[121ec10]="僵滞"
[121ec11]="僵滞"
[121ec12]="僵滞"
[121ec13]="僵滞"
[121ec14]="僵滞"
[121ec15]="无解"
[121ec16]="无解"
[121ec17]="无解"
[121ec18]="无解"
[121ec19]="无解"
[121ec1a]="无解"
[121ec1b]="无解"
[121ec1c]="无解"
[121ec1d]="无解"
[121ec1e]="无解"
[121ec1f]="蓄锐"
[121ec20]="蓄锐"
[121ec21]="蓄锐"
[121ec22]="蓄锐"
[121ec23]="蓄锐"
[121ec24]="蓄锐"
[121ec25]="蓄锐"
[121ec26]="蓄锐"
[121ec27]="蓄锐"
[121ec28]="蓄锐"
[121ec29]="绝杀"
[121ec2a]="绝杀"
[121ec2b]="绝杀"
[121ec2c]="绝杀"
[121ec2d]="绝杀"
[121ec2e]="绝杀"
[121ec2f]="绝杀"
[121ec30]="绝杀"
[121ec31]="绝杀"
[121ec32]="绝杀"
[121ec33]="复定"
[121ec34]="复定"
[121ec35]="复定"
[121ec36]="复定"
[121ec37]="复定"
[121ec38]="复定"
[121ec39]="复定"
[121ec3a]="复定"
[121ec3b]="复定"
[121ec3c]="复定"
[121ec3d]="巨伤"
[121ec3e]="巨伤"
[121ec3f]="巨伤"
[121ec40]="巨伤"
[121ec41]="巨伤"
[121ec42]="巨伤"
[121ec43]="巨伤"
[121ec44]="巨伤"
[121ec45]="巨伤"
[121ec46]="巨伤"
[121ec47]="无档"
[121ec48]="无档"
[121ec49]="无档"
[121ec4a]="无档"
[121ec4b]="无档"
[121ec4c]="无档"
[121ec4d]="无档"
[121ec4e]="无档"
[121ec4f]="无档"
[121ec50]="无档"
[121ec51]="洞明"
[121ec52]="洞明"
[121ec53]="洞明"
[121ec54]="洞明"
[121ec55]="洞明"
[121ec56]="洞明"
[121ec57]="洞明"
[121ec58]="洞明"
[121ec59]="洞明"
[121ec5a]="洞明"
[121ec5b]="身明"
[121ec5c]="身明"
[121ec5d]="身明"
[121ec5e]="身明"
[121ec5f]="身明"
[121ec60]="身明"
[121ec61]="身明"
[121ec62]="身明"
[121ec63]="身明"
[121ec64]="身明"
[121ec65]="力明"
[121ec66]="力明"
[121ec67]="力明"
[121ec68]="力明"
[121ec69]="力明"
[121ec6a]="力明"
[121ec6b]="力明"
[121ec6c]="力明"
[121ec6d]="力明"
[121ec6e]="力明"
[121ec6f]="气明"
[121ec70]="气明"
[121ec71]="气明"
[121ec72]="气明"
[121ec73]="气明"
[121ec74]="气明"
[121ec75]="气明"
[121ec76]="气明"
[121ec77]="气明"
[121ec78]="气明"
[121ec79]="根明"
[121ec7a]="根明"
[121ec7b]="根明"
[121ec7c]="根明"
[121ec7d]="根明"
[121ec7e]="根明"
[121ec7f]="根明"
[121ec80]="根明"
[121ec81]="根明"
[121ec82]="根明"
[121ec83]="瞬破"
[121ec84]="瞬破"
[121ec85]="瞬破"
[121ec86]="瞬破"
[121ec87]="瞬破"
[121ec88]="瞬破"
[121ec89]="瞬破"
[121ec8a]="瞬破"
[121ec8b]="瞬破"
[121ec8c]="瞬破"
[5d8e709]="霸意刀诀"
[5d8eaf1]="山河破碎"
[5d8eed9]="飞龙升天"
