_g_sig = {
	["GetNpcAddressById"] = 4312723408,
	["mapPositionDataBase"] = 35559240,
	["manTarIdOff"] = 1720,
	["GeRuntimeConfigBase"] = 34781352,
	["onUiMsgHookLen"] = 5,
	["liveNessBase"] = 35595072,
	["item_off1"] =
	{
		["qualityLv"] = 12,
		["sex"] = 56,
		["id"] = 0,
		["lv"] = 16,
		["quality"] = 8,
	},
	["UISlotInfoMax"] = 108,
	["KeyEvent"] = 14654592,
	["SendData2"] = 41764208,
	["npcDataBuffEndOff"] = 768,
	["QSUISkillPanelSlotInfoBase"] = 35540452,
	["anshaTimeOff"] = 252,
	["UISlotInfoBase"] = 270729216,
	["GetNpcBase"] = 4309402640,
	["QTeamId"] = 35595452,
	["curQuestDesc"] = 35549192,
	["skillSlotOff"] = 292,
	["QSUIEquipSlotPanelSlotBase"] = 35555736,
	["useSlotNormalOff"] = 32,
	["luaL_loadfile"] = 20781968,
	["GetDangKouLastNum"] = 41636039,
	["isHaveAction"] = 35594940,
	["UseBarSkill"] = 16542656,
	["slotIdxOff"] = 64,
	["gamePlayerDataBase"] = 35483912,
	["DisCardItem"] = 42770047,
	["UserBarSkillArg3"] = 20362496,
	["luaL_loadbuffer"] = 20782560,
	["uiMsgCallOffset"] = 156,
	["GetMainPlayerId"] = 18998912,
	["dataBase"] = 34967768,
	["getDangKouEcxBase"] = 34970152,
	["friendBase"] = 0,
	["normalMapEnd"] = 10023,
	["item_off2"] =
	{
		["pos"] = 232,
		["menpai"] = 24,
	},
	["GetQuestGroupById"] = 4312625280,
	["actorNameOff"] = 1376,
	["panelBase"] = 34969368,
	["recvDataHookLen"] = 5,
	["item_off0"] =
	{
		["dura"] = 112,
		["type"] = 40,
		["num"] = 104,
	},
	["slotOff"] =
	{
		["id"] = 60,
		["type"] = 12,
		["cd"] = 36,
		["num"] = 64,
	},
	["slotPosNum"] =
	{
		["equip"] = 40,
		["bag"] = 120,
		["skill"] = 40,
		["bagSlot"] = 4,
	},
	["slotPosOff"] =
	{
		["equip"] = 814,
		["bag"] = 0,
		["skill"] = 661,
		["bagSlot"] = 120,
	},
	["movingOff"] = 684,
	["normalMapBegin"] = 10001,
	["GeRuntimeConfigSpeedOff"] = 788,
	["CallManuFacture"] = 41923281,
	["useSlotEquipOff"] = 12,
	["anshaDataBase"] = 35595420,
	["manActorPlayerBase"] = 34963020,
	["updatetime"] =
	{
		["hour"] = 13,
		["min"] = 37,
		["wday"] = 4,
		["day"] = 19,
		["month"] = 8,
		["year"] = 2015,
		["sec"] = 35,
		["yday"] = 231,
		["isdst"] = false,
	},
	["bagBagIdx"] = 120,
	["ChangeSlot"] = 19206304,
	["QSSlotManagerBase"] = 35585216,
	["npcOffBase"] = 8,
	["skillStringOff"] =
	{
		["type"] = 292,
		["name"] = 280,
		["poem"] = 276,
		["icon"] = 284,
		["desc"] = 272,
	},
	["currentMapId"] = 35482968,
	["playerXiuWeiOff"] = 489,
	["ConvertRecvData"] = 26019696,
	["luaI_openlib"] = 20783696,
	["sendDataHookLen"] = 11,
	["anshaDataHead"] = 124,
	["QSInputProcessorBase"] = 35482456,
	["mainPlayerBase"] = 35482956,
	["OnkeyEventHookLen"] = 9,
	["MoveToPosition"] = 18937296,
	["anshaMoneyId"] = 180,
	["uiTemplateBase"] = 34542488,
	["QQBase"] = 35482948,
	["OnUiMsg"] = 12858608,
	["sendDataBase"] = 38284744,
	["OpenNpc"] = 42646495,
	["GetBagBase"] = 4309402640,
	["SendData"] = 26009104,
}
